{
  "data": {
    "curPage": 1,
    "datas": [
      {
        "adminAdd": false,
        "apkLink": "",
        "audit": 1,
        "author": "郭霖",
        "canEdit": false,
        "chapterId": 409,
        "chapterName": "郭霖",
        "collect": false,
        "courseId": 13,
        "desc": "",
        "descMd": "",
        "envelopePic": "",
        "fresh": false,
        "host": "",
        "id": 28848,
        "isAdminAdd": false,
        "link": "https://mp.weixin.qq.com/s/xzjHQPXoCUcdo4rn1459xA",
        "niceDate": "1天前",
        "niceShareDate": "1小时前",
        "origin": "",
        "prefix": "",
        "projectLink": "",
        "publishTime": 1724169600000,
        "realSuperChapterId": 407,
        "selfVisible": 0,
        "shareDate": 1724289384000,
        "shareUser": "",
        "superChapterId": 408,
        "superChapterName": "公众号",
        "tags": [
          {
            "name": "公众号",
            "url": "/wxarticle/list/409/1"
          }
        ],
        "title": "横扫鸿蒙弹窗乱象，SmartDialog出世",
        "type": 0,
        "userId": -1,
        "visible": 1,
        "zan": 0
      },
      {
        "adminAdd": false,
        "apkLink": "",
        "audit": 1,
        "author": "鸿洋",
        "canEdit": false,
        "chapterId": 408,
        "chapterName": "鸿洋",
        "collect": false,
        "courseId": 13,
        "desc": "",
        "descMd": "",
        "envelopePic": "",
        "fresh": false,
        "host": "",
        "id": 28846,
        "isAdminAdd": false,
        "link": "https://mp.weixin.qq.com/s/0GF6ko1WNElBhybcDMcncw",
        "niceDate": "2天前",
        "niceShareDate": "1天前",
        "origin": "",
        "prefix": "",
        "projectLink": "",
        "publishTime": 1724083200000,
        "realSuperChapterId": 407,
        "selfVisible": 0,
        "shareDate": 1724203037000,
        "shareUser": "",
        "superChapterId": 408,
        "superChapterName": "公众号",
        "tags": [
          {
            "name": "公众号",
            "url": "/wxarticle/list/408/1"
          }
        ],
        "title": "Android大脑--systemserver进程",
        "type": 0,
        "userId": -1,
        "visible": 1,
        "zan": 0
      },
      {
        "adminAdd": false,
        "apkLink": "",
        "audit": 1,
        "author": "郭霖",
        "canEdit": false,
        "chapterId": 409,
        "chapterName": "郭霖",
        "collect": false,
        "courseId": 13,
        "desc": "",
        "descMd": "",
        "envelopePic": "",
        "fresh": false,
        "host": "",
        "id": 28847,
        "isAdminAdd": false,
        "link": "https://mp.weixin.qq.com/s/SK9yP8pv_HJ4kw-dV39Muw",
        "niceDate": "2天前",
        "niceShareDate": "1天前",
        "origin": "",
        "prefix": "",
        "projectLink": "",
        "publishTime": 1724083200000,
        "realSuperChapterId": 407,
        "selfVisible": 0,
        "shareDate": 1724203048000,
        "shareUser": "",
        "superChapterId": 408,
        "superChapterName": "公众号",
        "tags": [
          {
            "name": "公众号",
            "url": "/wxarticle/list/409/1"
          }
        ],
        "title": "Kotlin新特性：Context receivers将被废弃",
        "type": 0,
        "userId": -1,
        "visible": 1,
        "zan": 0
      },
      {
        "adminAdd": false,
        "apkLink": "",
        "audit": 1,
        "author": "",
        "canEdit": false,
        "chapterId": 502,
        "chapterName": "自助",
        "collect": false,
        "courseId": 13,
        "desc": "",
        "descMd": "",
        "envelopePic": "",
        "fresh": false,
        "host": "",
        "id": 28822,
        "isAdminAdd": false,
        "link": "https://juejin.cn/post/7386936832609337355",
        "niceDate": "2天前",
        "niceShareDate": "2024-08-14 10:20",
        "origin": "",
        "prefix": "",
        "projectLink": "",
        "publishTime": 1724056102000,
        "realSuperChapterId": 493,
        "selfVisible": 0,
        "shareDate": 1723602022000,
        "shareUser": " 坚果派_xq9527",
        "superChapterId": 494,
        "superChapterName": "广场Tab",
        "tags": [],
        "title": "鸿蒙next 下拉刷新上拉加载 来了",
        "type": 0,
        "userId": 163367,
        "visible": 1,
        "zan": 0
      },
      {
        "adminAdd": false,
        "apkLink": "",
        "audit": 1,
        "author": "张鸿洋",
        "canEdit": false,
        "chapterId": 543,
        "chapterName": "Android技术周报",
        "collect": false,
        "courseId": 13,
        "desc": "",
        "descMd": "",
        "envelopePic": "",
        "fresh": false,
        "host": "",
        "id": 28838,
        "isAdminAdd": false,
        "link": "https://www.wanandroid.com/blog/show/3683",
        "niceDate": "2024-08-19 00:00",
        "niceShareDate": "2024-08-19 00:10",
        "origin": "",
        "prefix": "",
        "projectLink": "",
        "publishTime": 1723996800000,
        "realSuperChapterId": 542,
        "selfVisible": 0,
        "shareDate": 1723997400000,
        "shareUser": "",
        "superChapterId": 543,
        "superChapterName": "技术周报",
        "tags": [],
        "title": "Android 技术周刊 （2024-08-12 ~ 2024-08-19）",
        "type": 0,
        "userId": -1,
        "visible": 1,
        "zan": 0
      },
      {
        "adminAdd": false,
        "apkLink": "",
        "audit": 1,
        "author": "鸿洋",
        "canEdit": false,
        "chapterId": 408,
        "chapterName": "鸿洋",
        "collect": false,
        "courseId": 13,
        "desc": "",
        "descMd": "",
        "envelopePic": "",
        "fresh": false,
        "host": "",
        "id": 28844,
        "isAdminAdd": false,
        "link": "https://mp.weixin.qq.com/s/JV2KlN_1TWl2KmB7eYMF4w",
        "niceDate": "2024-08-19 00:00",
        "niceShareDate": "2天前",
        "origin": "",
        "prefix": "",
        "projectLink": "",
        "publishTime": 1723996800000,
        "realSuperChapterId": 407,
        "selfVisible": 0,
        "shareDate": 1724116983000,
        "shareUser": "",
        "superChapterId": 408,
        "superChapterName": "公众号",
        "tags": [
          {
            "name": "公众号",
            "url": "/wxarticle/list/408/1"
          }
        ],
        "title": "5年了，ViewPager2 终于支持 overScrollMode，没错，我干的。",
        "type": 0,
        "userId": -1,
        "visible": 1,
        "zan": 0
      },
      {
        "adminAdd": false,
        "apkLink": "",
        "audit": 1,
        "author": "",
        "canEdit": false,
        "chapterId": 502,
        "chapterName": "自助",
        "collect": false,
        "courseId": 13,
        "desc": "",
        "descMd": "",
        "envelopePic": "",
        "fresh": false,
        "host": "",
        "id": 28829,
        "isAdminAdd": false,
        "link": "https://juejin.cn/post/7403619185522524160",
        "niceDate": "2024-08-18 21:42",
        "niceShareDate": "2024-08-18 21:35",
        "origin": "",
        "prefix": "",
        "projectLink": "",
        "publishTime": 1723988576000,
        "realSuperChapterId": 493,
        "selfVisible": 0,
        "shareDate": 1723988141000,
        "shareUser": "鸿洋",
        "superChapterId": 494,
        "superChapterName": "广场Tab",
        "tags": [],
        "title": "一文掌握直播技术：实时音视频采集、编码、传输与播放",
        "type": 0,
        "userId": 2,
        "visible": 1,
        "zan": 0
      },
      {
        "adminAdd": false,
        "apkLink": "",
        "audit": 1,
        "author": "",
        "canEdit": false,
        "chapterId": 502,
        "chapterName": "自助",
        "collect": false,
        "courseId": 13,
        "desc": "",
        "descMd": "",
        "envelopePic": "",
        "fresh": false,
        "host": "",
        "id": 28830,
        "isAdminAdd": false,
        "link": "https://juejin.cn/post/7403785390454833190",
        "niceDate": "2024-08-18 21:42",
        "niceShareDate": "2024-08-18 21:35",
        "origin": "",
        "prefix": "",
        "projectLink": "",
        "publishTime": 1723988562000,
        "realSuperChapterId": 493,
        "selfVisible": 0,
        "shareDate": 1723988157000,
        "shareUser": "鸿洋",
        "superChapterId": 494,
        "superChapterName": "广场Tab",
        "tags": [],
        "title": "Compose Navigation : DeepLink漏洞",
        "type": 0,
        "userId": 2,
        "visible": 1,
        "zan": 0
      },
      {
        "adminAdd": false,
        "apkLink": "",
        "audit": 1,
        "author": "",
        "canEdit": false,
        "chapterId": 502,
        "chapterName": "自助",
        "collect": false,
        "courseId": 13,
        "desc": "",
        "descMd": "",
        "envelopePic": "",
        "fresh": false,
        "host": "",
        "id": 28831,
        "isAdminAdd": false,
        "link": "https://juejin.cn/post/7403658547718766611",
        "niceDate": "2024-08-18 21:42",
        "niceShareDate": "2024-08-18 21:36",
        "origin": "",
        "prefix": "",
        "projectLink": "",
        "publishTime": 1723988553000,
        "realSuperChapterId": 493,
        "selfVisible": 0,
        "shareDate": 1723988162000,
        "shareUser": "鸿洋",
        "superChapterId": 494,
        "superChapterName": "广场Tab",
        "tags": [],
        "title": "ArkUI开发 - 实现简易的方法hook框架",
        "type": 0,
        "userId": 2,
        "visible": 1,
        "zan": 0
      },
      {
        "adminAdd": false,
        "apkLink": "",
        "audit": 1,
        "author": "",
        "canEdit": false,
        "chapterId": 502,
        "chapterName": "自助",
        "collect": false,
        "courseId": 13,
        "desc": "",
        "descMd": "",
        "envelopePic": "",
        "fresh": false,
        "host": "",
        "id": 28832,
        "isAdminAdd": false,
        "link": "https://juejin.cn/post/7403657623490297897",
        "niceDate": "2024-08-18 21:42",
        "niceShareDate": "2024-08-18 21:36",
        "origin": "",
        "prefix": "",
        "projectLink": "",
        "publishTime": 1723988543000,
        "realSuperChapterId": 493,
        "selfVisible": 0,
        "shareDate": 1723988172000,
        "shareUser": "鸿洋",
        "superChapterId": 494,
        "superChapterName": "广场Tab",
        "tags": [],
        "title": "Android大脑--systemserver进程系统",
        "type": 0,
        "userId": 2,
        "visible": 1,
        "zan": 0
      },
      {
        "adminAdd": false,
        "apkLink": "",
        "audit": 1,
        "author": "",
        "canEdit": false,
        "chapterId": 502,
        "chapterName": "自助",
        "collect": false,
        "courseId": 13,
        "desc": "",
        "descMd": "",
        "envelopePic": "",
        "fresh": false,
        "host": "",
        "id": 28833,
        "isAdminAdd": false,
        "link": "https://juejin.cn/post/7403261114762543154",
        "niceDate": "2024-08-18 21:42",
        "niceShareDate": "2024-08-18 21:36",
        "origin": "",
        "prefix": "",
        "projectLink": "",
        "publishTime": 1723988532000,
        "realSuperChapterId": 493,
        "selfVisible": 0,
        "shareDate": 1723988193000,
        "shareUser": "鸿洋",
        "superChapterId": 494,
        "superChapterName": "广场Tab",
        "tags": [],
        "title": "【HarmonyOS】比鸿蒙官方Aspect更强的AOP 方案-货拉拉开源",
        "type": 0,
        "userId": 2,
        "visible": 1,
        "zan": 0
      },
      {
        "adminAdd": false,
        "apkLink": "",
        "audit": 1,
        "author": "",
        "canEdit": false,
        "chapterId": 502,
        "chapterName": "自助",
        "collect": false,
        "courseId": 13,
        "desc": "",
        "descMd": "",
        "envelopePic": "",
        "fresh": false,
        "host": "",
        "id": 28835,
        "isAdminAdd": false,
        "link": "https://juejin.cn/post/7403187632836886565",
        "niceDate": "2024-08-18 21:41",
        "niceShareDate": "2024-08-18 21:37",
        "origin": "",
        "prefix": "",
        "projectLink": "",
        "publishTime": 1723988517000,
        "realSuperChapterId": 493,
        "selfVisible": 0,
        "shareDate": 1723988263000,
        "shareUser": "鸿洋",
        "superChapterId": 494,
        "superChapterName": "广场Tab",
        "tags": [],
        "title": "Android-自适用高度的ViewPager需求",
        "type": 0,
        "userId": 2,
        "visible": 1,
        "zan": 0
      },
      {
        "adminAdd": false,
        "apkLink": "",
        "audit": 1,
        "author": "",
        "canEdit": false,
        "chapterId": 502,
        "chapterName": "自助",
        "collect": false,
        "courseId": 13,
        "desc": "",
        "descMd": "",
        "envelopePic": "",
        "fresh": false,
        "host": "",
        "id": 28836,
        "isAdminAdd": false,
        "link": "https://juejin.cn/post/7402645539722166283",
        "niceDate": "2024-08-18 21:41",
        "niceShareDate": "2024-08-18 21:38",
        "origin": "",
        "prefix": "",
        "projectLink": "",
        "publishTime": 1723988471000,
        "realSuperChapterId": 493,
        "selfVisible": 0,
        "shareDate": 1723988288000,
        "shareUser": "鸿洋",
        "superChapterId": 494,
        "superChapterName": "广场Tab",
        "tags": [],
        "title": "Google AR系列之Scenefrom进阶",
        "type": 0,
        "userId": 2,
        "visible": 1,
        "zan": 0
      },
      {
        "adminAdd": false,
        "apkLink": "",
        "audit": 1,
        "author": "",
        "canEdit": false,
        "chapterId": 502,
        "chapterName": "自助",
        "collect": false,
        "courseId": 13,
        "desc": "",
        "descMd": "",
        "envelopePic": "",
        "fresh": false,
        "host": "",
        "id": 28837,
        "isAdminAdd": false,
        "link": "https://juejin.cn/post/7402204156876849189",
        "niceDate": "2024-08-18 21:40",
        "niceShareDate": "2024-08-18 21:38",
        "origin": "",
        "prefix": "",
        "projectLink": "",
        "publishTime": 1723988450000,
        "realSuperChapterId": 493,
        "selfVisible": 0,
        "shareDate": 1723988325000,
        "shareUser": "鸿洋",
        "superChapterId": 494,
        "superChapterName": "广场Tab",
        "tags": [],
        "title": "应用启动AppStartup - Android vs HarmonyOS",
        "type": 0,
        "userId": 2,
        "visible": 1,
        "zan": 0
      },
      {
        "adminAdd": false,
        "apkLink": "",
        "audit": 1,
        "author": "",
        "canEdit": false,
        "chapterId": 502,
        "chapterName": "自助",
        "collect": false,
        "courseId": 13,
        "desc": "",
        "descMd": "",
        "envelopePic": "",
        "fresh": false,
        "host": "",
        "id": 28823,
        "isAdminAdd": false,
        "link": "https://juejin.cn/post/7386497602193604649",
        "niceDate": "2024-08-18 21:40",
        "niceShareDate": "2024-08-14 10:22",
        "origin": "",
        "prefix": "",
        "projectLink": "",
        "publishTime": 1723988441000,
        "realSuperChapterId": 493,
        "selfVisible": 0,
        "shareDate": 1723602130000,
        "shareUser": " 坚果派_xq9527",
        "superChapterId": 494,
        "superChapterName": "广场Tab",
        "tags": [],
        "title": "2024年中总结 举步维艰 绝处逢生？？？",
        "type": 0,
        "userId": 163367,
        "visible": 1,
        "zan": 0
      },
      {
        "adminAdd": false,
        "apkLink": "",
        "audit": 1,
        "author": "郭霖",
        "canEdit": false,
        "chapterId": 409,
        "chapterName": "郭霖",
        "collect": false,
        "courseId": 13,
        "desc": "",
        "descMd": "",
        "envelopePic": "",
        "fresh": false,
        "host": "",
        "id": 28842,
        "isAdminAdd": false,
        "link": "https://mp.weixin.qq.com/s/oW9HrQWFIF-GFiiDAfh7JA",
        "niceDate": "2024-08-16 00:00",
        "niceShareDate": "2024-08-19 09:29",
        "origin": "",
        "prefix": "",
        "projectLink": "",
        "publishTime": 1723737600000,
        "realSuperChapterId": 407,
        "selfVisible": 0,
        "shareDate": 1724030978000,
        "shareUser": "",
        "superChapterId": 408,
        "superChapterName": "公众号",
        "tags": [
          {
            "name": "公众号",
            "url": "/wxarticle/list/409/1"
          }
        ],
        "title": "ThreadLocal的奇思妙想，线程数据安全看这里",
        "type": 0,
        "userId": -1,
        "visible": 1,
        "zan": 0
      },
      {
        "adminAdd": false,
        "apkLink": "",
        "audit": 1,
        "author": "鸿洋",
        "canEdit": false,
        "chapterId": 408,
        "chapterName": "鸿洋",
        "collect": false,
        "courseId": 13,
        "desc": "",
        "descMd": "",
        "envelopePic": "",
        "fresh": false,
        "host": "",
        "id": 28826,
        "isAdminAdd": false,
        "link": "https://mp.weixin.qq.com/s/yo3fQUqpBNOYtLkC4wf70Q",
        "niceDate": "2024-08-15 00:00",
        "niceShareDate": "2024-08-16 09:18",
        "origin": "",
        "prefix": "",
        "projectLink": "",
        "publishTime": 1723651200000,
        "realSuperChapterId": 407,
        "selfVisible": 0,
        "shareDate": 1723771102000,
        "shareUser": "",
        "superChapterId": 408,
        "superChapterName": "公众号",
        "tags": [
          {
            "name": "公众号",
            "url": "/wxarticle/list/408/1"
          }
        ],
        "title": "一文看懂DecorView的一生",
        "type": 0,
        "userId": -1,
        "visible": 1,
        "zan": 0
      },
      {
        "adminAdd": false,
        "apkLink": "",
        "audit": 1,
        "author": "郭霖",
        "canEdit": false,
        "chapterId": 409,
        "chapterName": "郭霖",
        "collect": false,
        "courseId": 13,
        "desc": "",
        "descMd": "",
        "envelopePic": "",
        "fresh": false,
        "host": "",
        "id": 28827,
        "isAdminAdd": false,
        "link": "https://mp.weixin.qq.com/s/fnxOq3kxx5l4zCZnGXbbfA",
        "niceDate": "2024-08-15 00:00",
        "niceShareDate": "2024-08-16 09:18",
        "origin": "",
        "prefix": "",
        "projectLink": "",
        "publishTime": 1723651200000,
        "realSuperChapterId": 407,
        "selfVisible": 0,
        "shareDate": 1723771115000,
        "shareUser": "",
        "superChapterId": 408,
        "superChapterName": "公众号",
        "tags": [
          {
            "name": "公众号",
            "url": "/wxarticle/list/409/1"
          }
        ],
        "title": "Android折叠屏适配攻略",
        "type": 0,
        "userId": -1,
        "visible": 1,
        "zan": 0
      },
      {
        "adminAdd": false,
        "apkLink": "",
        "audit": 1,
        "author": "鸿洋",
        "canEdit": false,
        "chapterId": 408,
        "chapterName": "鸿洋",
        "collect": false,
        "courseId": 13,
        "desc": "",
        "descMd": "",
        "envelopePic": "",
        "fresh": false,
        "host": "",
        "id": 28805,
        "isAdminAdd": false,
        "link": "https://mp.weixin.qq.com/s/4DFUjs9xx9DM55zB_NjByA",
        "niceDate": "2024-08-13 00:00",
        "niceShareDate": "2024-08-14 09:41",
        "origin": "",
        "prefix": "",
        "projectLink": "",
        "publishTime": 1723478400000,
        "realSuperChapterId": 407,
        "selfVisible": 0,
        "shareDate": 1723599700000,
        "shareUser": "",
        "superChapterId": 408,
        "superChapterName": "公众号",
        "tags": [
          {
            "name": "公众号",
            "url": "/wxarticle/list/408/1"
          }
        ],
        "title": "LeakCanary 你真的了解么？看看这些高级用法",
        "type": 0,
        "userId": -1,
        "visible": 1,
        "zan": 0
      }
    ],
    "offset": 0,
    "over": false,
    "pageCount": 782,
    "size": 20,
    "total": 15626
  },
  "errorCode": 0,
  "errorMsg": ""
}