{
  "data": {
    "curPage": 2,
    "datas": [
      {
        "adminAdd": false,
        "apkLink": "",
        "audit": 1,
        "author": "郭霖",
        "canEdit": false,
        "chapterId": 409,
        "chapterName": "郭霖",
        "collect": false,
        "courseId": 13,
        "desc": "",
        "descMd": "",
        "envelopePic": "",
        "fresh": false,
        "host": "",
        "id": 28808,
        "isAdminAdd": false,
        "link": "https://mp.weixin.qq.com/s/HC3jsXHNrAhjzbrbnp3R_A",
        "niceDate": "2024-08-13 00:00",
        "niceShareDate": "2024-08-14 09:42",
        "origin": "",
        "prefix": "",
        "projectLink": "",
        "publishTime": 1723478400000,
        "realSuperChapterId": 407,
        "selfVisible": 0,
        "shareDate": 1723599746000,
        "shareUser": "",
        "superChapterId": 408,
        "superChapterName": "公众号",
        "tags": [
          {
            "name": "公众号",
            "url": "/wxarticle/list/409/1"
          }
        ],
        "title": "Android 文件系统小记",
        "type": 0,
        "userId": -1,
        "visible": 1,
        "zan": 0
      },
      {
        "adminAdd": false,
        "apkLink": "",
        "audit": 1,
        "author": "张鸿洋",
        "canEdit": false,
        "chapterId": 543,
        "chapterName": "Android技术周报",
        "collect": false,
        "courseId": 13,
        "desc": "",
        "descMd": "",
        "envelopePic": "",
        "fresh": false,
        "host": "",
        "id": 28796,
        "isAdminAdd": false,
        "link": "https://www.wanandroid.com/blog/show/3681",
        "niceDate": "2024-08-12 00:00",
        "niceShareDate": "2024-08-12 00:10",
        "origin": "",
        "prefix": "",
        "projectLink": "",
        "publishTime": 1723392000000,
        "realSuperChapterId": 542,
        "selfVisible": 0,
        "shareDate": 1723392600000,
        "shareUser": "",
        "superChapterId": 543,
        "superChapterName": "技术周报",
        "tags": [],
        "title": "Android 技术周刊 （2024-08-05 ~ 2024-08-12）",
        "type": 0,
        "userId": -1,
        "visible": 1,
        "zan": 0
      },
      {
        "adminAdd": false,
        "apkLink": "",
        "audit": 1,
        "author": "鸿洋",
        "canEdit": false,
        "chapterId": 408,
        "chapterName": "鸿洋",
        "collect": false,
        "courseId": 13,
        "desc": "",
        "descMd": "",
        "envelopePic": "",
        "fresh": false,
        "host": "",
        "id": 28804,
        "isAdminAdd": false,
        "link": "https://mp.weixin.qq.com/s/L0ImAc2q22TMnB-_WavHUg",
        "niceDate": "2024-08-12 00:00",
        "niceShareDate": "2024-08-14 09:41",
        "origin": "",
        "prefix": "",
        "projectLink": "",
        "publishTime": 1723392000000,
        "realSuperChapterId": 407,
        "selfVisible": 0,
        "shareDate": 1723599685000,
        "shareUser": "",
        "superChapterId": 408,
        "superChapterName": "公众号",
        "tags": [
          {
            "name": "公众号",
            "url": "/wxarticle/list/408/1"
          }
        ],
        "title": "详解Android14 Activity 启动过程",
        "type": 0,
        "userId": -1,
        "visible": 1,
        "zan": 0
      },
      {
        "adminAdd": false,
        "apkLink": "",
        "audit": 1,
        "author": "郭霖",
        "canEdit": false,
        "chapterId": 409,
        "chapterName": "郭霖",
        "collect": false,
        "courseId": 13,
        "desc": "",
        "descMd": "",
        "envelopePic": "",
        "fresh": false,
        "host": "",
        "id": 28807,
        "isAdminAdd": false,
        "link": "https://mp.weixin.qq.com/s/lyaLrnFeLiWFk2NCgXZOgQ",
        "niceDate": "2024-08-12 00:00",
        "niceShareDate": "2024-08-14 09:42",
        "origin": "",
        "prefix": "",
        "projectLink": "",
        "publishTime": 1723392000000,
        "realSuperChapterId": 407,
        "selfVisible": 0,
        "shareDate": 1723599731000,
        "shareUser": "",
        "superChapterId": 408,
        "superChapterName": "公众号",
        "tags": [
          {
            "name": "公众号",
            "url": "/wxarticle/list/409/1"
          }
        ],
        "title": "一文掌握Kotlin协程使用",
        "type": 0,
        "userId": -1,
        "visible": 1,
        "zan": 0
      },
      {
        "adminAdd": false,
        "apkLink": "",
        "audit": 1,
        "author": "鸿洋",
        "canEdit": false,
        "chapterId": 408,
        "chapterName": "鸿洋",
        "collect": false,
        "courseId": 13,
        "desc": "",
        "descMd": "",
        "envelopePic": "",
        "fresh": false,
        "host": "",
        "id": 28803,
        "isAdminAdd": false,
        "link": "https://mp.weixin.qq.com/s/V_hKhPU72sSSVmrsuahyRg",
        "niceDate": "2024-08-09 00:00",
        "niceShareDate": "2024-08-14 09:41",
        "origin": "",
        "prefix": "",
        "projectLink": "",
        "publishTime": 1723132800000,
        "realSuperChapterId": 407,
        "selfVisible": 0,
        "shareDate": 1723599669000,
        "shareUser": "",
        "superChapterId": 408,
        "superChapterName": "公众号",
        "tags": [
          {
            "name": "公众号",
            "url": "/wxarticle/list/408/1"
          }
        ],
        "title": "不同版本上 Bitmap 内存分配与回收对比",
        "type": 0,
        "userId": -1,
        "visible": 1,
        "zan": 0
      },
      {
        "adminAdd": false,
        "apkLink": "",
        "audit": 1,
        "author": "",
        "canEdit": false,
        "chapterId": 502,
        "chapterName": "自助",
        "collect": false,
        "courseId": 13,
        "desc": "",
        "descMd": "",
        "envelopePic": "",
        "fresh": false,
        "host": "",
        "id": 28791,
        "isAdminAdd": false,
        "link": "https://juejin.cn/post/7400096469728510004",
        "niceDate": "2024-08-08 06:40",
        "niceShareDate": "2024-08-08 06:39",
        "origin": "",
        "prefix": "",
        "projectLink": "",
        "publishTime": 1723070438000,
        "realSuperChapterId": 493,
        "selfVisible": 0,
        "shareDate": 1723070381000,
        "shareUser": "Cham",
        "superChapterId": 494,
        "superChapterName": "广场Tab",
        "tags": [],
        "title": "HarmonyOS-MVVM更佳实战",
        "type": 0,
        "userId": 65463,
        "visible": 1,
        "zan": 0
      },
      {
        "adminAdd": false,
        "apkLink": "",
        "audit": 1,
        "author": "鸿洋",
        "canEdit": false,
        "chapterId": 408,
        "chapterName": "鸿洋",
        "collect": false,
        "courseId": 13,
        "desc": "",
        "descMd": "",
        "envelopePic": "",
        "fresh": false,
        "host": "",
        "id": 28802,
        "isAdminAdd": false,
        "link": "https://mp.weixin.qq.com/s/ElGq9dNymxTXkDpxW_JMaw",
        "niceDate": "2024-08-08 00:00",
        "niceShareDate": "2024-08-14 09:40",
        "origin": "",
        "prefix": "",
        "projectLink": "",
        "publishTime": 1723046400000,
        "realSuperChapterId": 407,
        "selfVisible": 0,
        "shareDate": 1723599656000,
        "shareUser": "",
        "superChapterId": 408,
        "superChapterName": "公众号",
        "tags": [
          {
            "name": "公众号",
            "url": "/wxarticle/list/408/1"
          }
        ],
        "title": "别滥用FileProvider了，Android中FileProvider的各种场景应用",
        "type": 0,
        "userId": -1,
        "visible": 1,
        "zan": 0
      },
      {
        "adminAdd": false,
        "apkLink": "",
        "audit": 1,
        "author": "郭霖",
        "canEdit": false,
        "chapterId": 409,
        "chapterName": "郭霖",
        "collect": false,
        "courseId": 13,
        "desc": "",
        "descMd": "",
        "envelopePic": "",
        "fresh": false,
        "host": "",
        "id": 28806,
        "isAdminAdd": false,
        "link": "https://mp.weixin.qq.com/s/01v6M1lJgBfqejlheBjZ9w",
        "niceDate": "2024-08-08 00:00",
        "niceShareDate": "2024-08-14 09:41",
        "origin": "",
        "prefix": "",
        "projectLink": "",
        "publishTime": 1723046400000,
        "realSuperChapterId": 407,
        "selfVisible": 0,
        "shareDate": 1723599713000,
        "shareUser": "",
        "superChapterId": 408,
        "superChapterName": "公众号",
        "tags": [
          {
            "name": "公众号",
            "url": "/wxarticle/list/409/1"
          }
        ],
        "title": "官方支持Compose轮播图组件啦～",
        "type": 0,
        "userId": -1,
        "visible": 1,
        "zan": 0
      },
      {
        "adminAdd": false,
        "apkLink": "",
        "audit": 1,
        "author": "鸿洋",
        "canEdit": false,
        "chapterId": 408,
        "chapterName": "鸿洋",
        "collect": false,
        "courseId": 13,
        "desc": "",
        "descMd": "",
        "envelopePic": "",
        "fresh": false,
        "host": "",
        "id": 28793,
        "isAdminAdd": false,
        "link": "https://mp.weixin.qq.com/s/6k0MyNApYL8yU6ZnBibIGw",
        "niceDate": "2024-08-07 00:00",
        "niceShareDate": "2024-08-08 09:08",
        "origin": "",
        "prefix": "",
        "projectLink": "",
        "publishTime": 1722960000000,
        "realSuperChapterId": 407,
        "selfVisible": 0,
        "shareDate": 1723079312000,
        "shareUser": "",
        "superChapterId": 408,
        "superChapterName": "公众号",
        "tags": [
          {
            "name": "公众号",
            "url": "/wxarticle/list/408/1"
          }
        ],
        "title": "凡猿修仙传：斩杀ClassNotFoundException when unmarshalling Crash",
        "type": 0,
        "userId": -1,
        "visible": 1,
        "zan": 0
      },
      {
        "adminAdd": false,
        "apkLink": "",
        "audit": 1,
        "author": "郭霖",
        "canEdit": false,
        "chapterId": 409,
        "chapterName": "郭霖",
        "collect": false,
        "courseId": 13,
        "desc": "",
        "descMd": "",
        "envelopePic": "",
        "fresh": false,
        "host": "",
        "id": 28794,
        "isAdminAdd": false,
        "link": "https://mp.weixin.qq.com/s/1YrBXvgeLMXvOKqy9PBPZw",
        "niceDate": "2024-08-07 00:00",
        "niceShareDate": "2024-08-08 09:08",
        "origin": "",
        "prefix": "",
        "projectLink": "",
        "publishTime": 1722960000000,
        "realSuperChapterId": 407,
        "selfVisible": 0,
        "shareDate": 1723079324000,
        "shareUser": "",
        "superChapterId": 408,
        "superChapterName": "公众号",
        "tags": [
          {
            "name": "公众号",
            "url": "/wxarticle/list/409/1"
          }
        ],
        "title": "HTTP/2：让网络飞起来",
        "type": 0,
        "userId": -1,
        "visible": 1,
        "zan": 0
      },
      {
        "adminAdd": false,
        "apkLink": "",
        "audit": 1,
        "author": "鸿洋",
        "canEdit": false,
        "chapterId": 408,
        "chapterName": "鸿洋",
        "collect": false,
        "courseId": 13,
        "desc": "",
        "descMd": "",
        "envelopePic": "",
        "fresh": false,
        "host": "",
        "id": 28787,
        "isAdminAdd": false,
        "link": "https://mp.weixin.qq.com/s/7EiVbfrjUcfmO62z8dcOKA",
        "niceDate": "2024-08-06 00:00",
        "niceShareDate": "2024-08-07 09:09",
        "origin": "",
        "prefix": "",
        "projectLink": "",
        "publishTime": 1722873600000,
        "realSuperChapterId": 407,
        "selfVisible": 0,
        "shareDate": 1722992986000,
        "shareUser": "",
        "superChapterId": 408,
        "superChapterName": "公众号",
        "tags": [
          {
            "name": "公众号",
            "url": "/wxarticle/list/408/1"
          }
        ],
        "title": "Android线程锁机制：monitor机制解析",
        "type": 0,
        "userId": -1,
        "visible": 1,
        "zan": 0
      },
      {
        "adminAdd": false,
        "apkLink": "",
        "audit": 1,
        "author": "郭霖",
        "canEdit": false,
        "chapterId": 409,
        "chapterName": "郭霖",
        "collect": false,
        "courseId": 13,
        "desc": "",
        "descMd": "",
        "envelopePic": "",
        "fresh": false,
        "host": "",
        "id": 28788,
        "isAdminAdd": false,
        "link": "https://mp.weixin.qq.com/s/lWF4P4JSGxRX4u_qJf0utw",
        "niceDate": "2024-08-06 00:00",
        "niceShareDate": "2024-08-07 09:09",
        "origin": "",
        "prefix": "",
        "projectLink": "",
        "publishTime": 1722873600000,
        "realSuperChapterId": 407,
        "selfVisible": 0,
        "shareDate": 1722992997000,
        "shareUser": "",
        "superChapterId": 408,
        "superChapterName": "公众号",
        "tags": [
          {
            "name": "公众号",
            "url": "/wxarticle/list/409/1"
          }
        ],
        "title": "Android帝国之日志系统--logd、logcat",
        "type": 0,
        "userId": -1,
        "visible": 1,
        "zan": 0
      },
      {
        "adminAdd": false,
        "apkLink": "",
        "audit": 1,
        "author": "",
        "canEdit": false,
        "chapterId": 502,
        "chapterName": "自助",
        "collect": false,
        "courseId": 13,
        "desc": "",
        "descMd": "",
        "envelopePic": "",
        "fresh": false,
        "host": "",
        "id": 28780,
        "isAdminAdd": false,
        "link": "https://juejin.cn/post/7392258195089162290",
        "niceDate": "2024-08-05 16:38",
        "niceShareDate": "2024-08-05 16:38",
        "origin": "",
        "prefix": "",
        "projectLink": "",
        "publishTime": 1722847084000,
        "realSuperChapterId": 493,
        "selfVisible": 0,
        "shareDate": 1722847084000,
        "shareUser": "wgllss",
        "superChapterId": 494,
        "superChapterName": "广场Tab",
        "tags": [],
        "title": "注解处理器在架构，框架中实战应用：MVVM中数据源提供Repository类的自动生成",
        "type": 0,
        "userId": 161755,
        "visible": 1,
        "zan": 0
      },
      {
        "adminAdd": false,
        "apkLink": "",
        "audit": 1,
        "author": "张鸿洋",
        "canEdit": false,
        "chapterId": 543,
        "chapterName": "Android技术周报",
        "collect": false,
        "courseId": 13,
        "desc": "",
        "descMd": "",
        "envelopePic": "",
        "fresh": false,
        "host": "",
        "id": 28777,
        "isAdminAdd": false,
        "link": "https://www.wanandroid.com/blog/show/3679",
        "niceDate": "2024-08-05 00:00",
        "niceShareDate": "2024-08-05 00:10",
        "origin": "",
        "prefix": "",
        "projectLink": "",
        "publishTime": 1722787200000,
        "realSuperChapterId": 542,
        "selfVisible": 0,
        "shareDate": 1722787800000,
        "shareUser": "",
        "superChapterId": 543,
        "superChapterName": "技术周报",
        "tags": [],
        "title": "Android 技术周刊 （2024-07-29 ~ 2024-08-05）",
        "type": 0,
        "userId": -1,
        "visible": 1,
        "zan": 0
      },
      {
        "adminAdd": false,
        "apkLink": "",
        "audit": 1,
        "author": "鸿洋",
        "canEdit": false,
        "chapterId": 408,
        "chapterName": "鸿洋",
        "collect": false,
        "courseId": 13,
        "desc": "",
        "descMd": "",
        "envelopePic": "",
        "fresh": false,
        "host": "",
        "id": 28783,
        "isAdminAdd": false,
        "link": "https://mp.weixin.qq.com/s/0haoHCnW9M-MhjNA6Gd2NA",
        "niceDate": "2024-08-05 00:00",
        "niceShareDate": "2024-08-06 09:15",
        "origin": "",
        "prefix": "",
        "projectLink": "",
        "publishTime": 1722787200000,
        "realSuperChapterId": 407,
        "selfVisible": 0,
        "shareDate": 1722906901000,
        "shareUser": "",
        "superChapterId": 408,
        "superChapterName": "公众号",
        "tags": [
          {
            "name": "公众号",
            "url": "/wxarticle/list/408/1"
          }
        ],
        "title": "ArkTS 入门指南：快速上手鸿蒙应用开发",
        "type": 0,
        "userId": -1,
        "visible": 1,
        "zan": 0
      },
      {
        "adminAdd": false,
        "apkLink": "",
        "audit": 1,
        "author": "郭霖",
        "canEdit": false,
        "chapterId": 409,
        "chapterName": "郭霖",
        "collect": false,
        "courseId": 13,
        "desc": "",
        "descMd": "",
        "envelopePic": "",
        "fresh": false,
        "host": "",
        "id": 28785,
        "isAdminAdd": false,
        "link": "https://mp.weixin.qq.com/s/FmFiR0lCrVJwQUht_hMSxA",
        "niceDate": "2024-08-05 00:00",
        "niceShareDate": "2024-08-06 09:15",
        "origin": "",
        "prefix": "",
        "projectLink": "",
        "publishTime": 1722787200000,
        "realSuperChapterId": 407,
        "selfVisible": 0,
        "shareDate": 1722906932000,
        "shareUser": "",
        "superChapterId": 408,
        "superChapterName": "公众号",
        "tags": [
          {
            "name": "公众号",
            "url": "/wxarticle/list/409/1"
          }
        ],
        "title": "AndroidStuido 使用 Bookmarks 和 TODO 提高开发效率",
        "type": 0,
        "userId": -1,
        "visible": 1,
        "zan": 0
      },
      {
        "adminAdd": false,
        "apkLink": "",
        "audit": 1,
        "author": "",
        "canEdit": false,
        "chapterId": 502,
        "chapterName": "自助",
        "collect": false,
        "courseId": 13,
        "desc": "",
        "descMd": "",
        "envelopePic": "",
        "fresh": false,
        "host": "",
        "id": 28769,
        "isAdminAdd": false,
        "link": "https://juejin.cn/post/7398748051878084648",
        "niceDate": "2024-08-04 22:11",
        "niceShareDate": "2024-08-04 22:07",
        "origin": "",
        "prefix": "",
        "projectLink": "",
        "publishTime": 1722780697000,
        "realSuperChapterId": 493,
        "selfVisible": 0,
        "shareDate": 1722780433000,
        "shareUser": "鸿洋",
        "superChapterId": 494,
        "superChapterName": "广场Tab",
        "tags": [],
        "title": "Android Surface截图方法总结",
        "type": 0,
        "userId": 2,
        "visible": 1,
        "zan": 0
      },
      {
        "adminAdd": false,
        "apkLink": "",
        "audit": 1,
        "author": "",
        "canEdit": false,
        "chapterId": 502,
        "chapterName": "自助",
        "collect": false,
        "courseId": 13,
        "desc": "",
        "descMd": "",
        "envelopePic": "",
        "fresh": false,
        "host": "",
        "id": 28770,
        "isAdminAdd": false,
        "link": "https://juejin.cn/post/7396254541916078132",
        "niceDate": "2024-08-04 22:11",
        "niceShareDate": "2024-08-04 22:09",
        "origin": "",
        "prefix": "",
        "projectLink": "",
        "publishTime": 1722780695000,
        "realSuperChapterId": 493,
        "selfVisible": 0,
        "shareDate": 1722780586000,
        "shareUser": "鸿洋",
        "superChapterId": 494,
        "superChapterName": "广场Tab",
        "tags": [],
        "title": "【Gradle-19】Android多渠道打包指南",
        "type": 0,
        "userId": 2,
        "visible": 1,
        "zan": 0
      },
      {
        "adminAdd": false,
        "apkLink": "",
        "audit": 1,
        "author": "",
        "canEdit": false,
        "chapterId": 502,
        "chapterName": "自助",
        "collect": false,
        "courseId": 13,
        "desc": "",
        "descMd": "",
        "envelopePic": "",
        "fresh": false,
        "host": "",
        "id": 28771,
        "isAdminAdd": false,
        "link": "https://juejin.cn/post/7396306532671094793",
        "niceDate": "2024-08-04 22:11",
        "niceShareDate": "2024-08-04 22:09",
        "origin": "",
        "prefix": "",
        "projectLink": "",
        "publishTime": 1722780692000,
        "realSuperChapterId": 493,
        "selfVisible": 0,
        "shareDate": 1722780591000,
        "shareUser": "鸿洋",
        "superChapterId": 494,
        "superChapterName": "广场Tab",
        "tags": [],
        "title": "Android 15 上适配 16K Page Size 的填坑思路，以 IJKPlayer 为例子",
        "type": 0,
        "userId": 2,
        "visible": 1,
        "zan": 0
      },
      {
        "adminAdd": false,
        "apkLink": "",
        "audit": 1,
        "author": "",
        "canEdit": false,
        "chapterId": 502,
        "chapterName": "自助",
        "collect": false,
        "courseId": 13,
        "desc": "",
        "descMd": "",
        "envelopePic": "",
        "fresh": false,
        "host": "",
        "id": 28773,
        "isAdminAdd": false,
        "link": "https://juejin.cn/post/7395886990561542171",
        "niceDate": "2024-08-04 22:11",
        "niceShareDate": "2024-08-04 22:10",
        "origin": "",
        "prefix": "",
        "projectLink": "",
        "publishTime": 1722780690000,
        "realSuperChapterId": 493,
        "selfVisible": 0,
        "shareDate": 1722780639000,
        "shareUser": "鸿洋",
        "superChapterId": 494,
        "superChapterName": "广场Tab",
        "tags": [],
        "title": "Android 应用程序安装流程解析",
        "type": 0,
        "userId": 2,
        "visible": 1,
        "zan": 0
      }
    ],
    "offset": 20,
    "over": false,
    "pageCount": 782,
    "size": 20,
    "total": 15626
  },
  "errorCode": 0,
  "errorMsg": ""
}