{
  "data": {
    "curPage": 3,
    "datas": [
      {
        "adminAdd": false,
        "apkLink": "",
        "audit": 1,
        "author": "",
        "canEdit": false,
        "chapterId": 502,
        "chapterName": "自助",
        "collect": false,
        "courseId": 13,
        "desc": "",
        "descMd": "",
        "envelopePic": "",
        "fresh": false,
        "host": "",
        "id": 28775,
        "isAdminAdd": false,
        "link": "https://juejin.cn/post/7397288730727530535",
        "niceDate": "2024-08-04 22:11",
        "niceShareDate": "2024-08-04 22:11",
        "origin": "",
        "prefix": "",
        "projectLink": "",
        "publishTime": 1722780687000,
        "realSuperChapterId": 493,
        "selfVisible": 0,
        "shareDate": 1722780678000,
        "shareUser": "鸿洋",
        "superChapterId": 494,
        "superChapterName": "广场Tab",
        "tags": [],
        "title": "鸿蒙：进程通信案例分析",
        "type": 0,
        "userId": 2,
        "visible": 1,
        "zan": 0
      },
      {
        "adminAdd": false,
        "apkLink": "",
        "audit": 1,
        "author": "鸿洋",
        "canEdit": false,
        "chapterId": 618,
        "chapterName": "稳定性",
        "collect": false,
        "courseId": 13,
        "desc": "",
        "descMd": "",
        "envelopePic": "",
        "fresh": false,
        "host": "",
        "id": 28774,
        "isAdminAdd": false,
        "link": "https://juejin.cn/post/7396306532670914569",
        "niceDate": "2024-08-04 22:10",
        "niceShareDate": "2024-08-04 22:10",
        "origin": "",
        "prefix": "",
        "projectLink": "",
        "publishTime": 1722780654000,
        "realSuperChapterId": 617,
        "selfVisible": 0,
        "shareDate": 1722780654000,
        "shareUser": "",
        "superChapterId": 618,
        "superChapterName": "Android 性能优化 - 进阶篇 - 学习路径",
        "tags": [],
        "title": "Android Native内存泄漏检测方案详解",
        "type": 0,
        "userId": 2,
        "visible": 1,
        "zan": 0
      },
      {
        "adminAdd": false,
        "apkLink": "",
        "audit": 1,
        "author": "鸿洋",
        "canEdit": false,
        "chapterId": 619,
        "chapterName": "流畅性",
        "collect": false,
        "courseId": 13,
        "desc": "",
        "descMd": "",
        "envelopePic": "",
        "fresh": false,
        "host": "",
        "id": 28772,
        "isAdminAdd": false,
        "link": "https://juejin.cn/post/7396463744186597385",
        "niceDate": "2024-08-04 22:10",
        "niceShareDate": "2024-08-04 22:10",
        "origin": "",
        "prefix": "",
        "projectLink": "",
        "publishTime": 1722780634000,
        "realSuperChapterId": 617,
        "selfVisible": 0,
        "shareDate": 1722780634000,
        "shareUser": "",
        "superChapterId": 618,
        "superChapterName": "Android 性能优化 - 进阶篇 - 学习路径",
        "tags": [],
        "title": "稳定性优化：ANR产生原理",
        "type": 0,
        "userId": 2,
        "visible": 1,
        "zan": 0
      },
      {
        "adminAdd": false,
        "apkLink": "",
        "audit": 1,
        "author": "",
        "canEdit": false,
        "chapterId": 502,
        "chapterName": "自助",
        "collect": false,
        "courseId": 13,
        "desc": "",
        "descMd": "",
        "envelopePic": "",
        "fresh": false,
        "host": "",
        "id": 28767,
        "isAdminAdd": false,
        "link": "https://blog.csdn.net/u013290250/article/details/140881033",
        "niceDate": "2024-08-02 22:02",
        "niceShareDate": "2024-08-02 22:02",
        "origin": "",
        "prefix": "",
        "projectLink": "",
        "publishTime": 1722607372000,
        "realSuperChapterId": 493,
        "selfVisible": 0,
        "shareDate": 1722607372000,
        "shareUser": "duangduang",
        "superChapterId": 494,
        "superChapterName": "广场Tab",
        "tags": [],
        "title": "Flutter&mdash;&mdash;权威常用组件demo代码开源",
        "type": 0,
        "userId": 149113,
        "visible": 1,
        "zan": 0
      },
      {
        "adminAdd": false,
        "apkLink": "",
        "audit": 1,
        "author": "鸿洋",
        "canEdit": false,
        "chapterId": 408,
        "chapterName": "鸿洋",
        "collect": false,
        "courseId": 13,
        "desc": "",
        "descMd": "",
        "envelopePic": "",
        "fresh": false,
        "host": "",
        "id": 28782,
        "isAdminAdd": false,
        "link": "https://mp.weixin.qq.com/s/3xwZC-now0eiKTim25EbLw",
        "niceDate": "2024-08-02 00:00",
        "niceShareDate": "2024-08-06 09:14",
        "origin": "",
        "prefix": "",
        "projectLink": "",
        "publishTime": 1722528000000,
        "realSuperChapterId": 407,
        "selfVisible": 0,
        "shareDate": 1722906887000,
        "shareUser": "",
        "superChapterId": 408,
        "superChapterName": "公众号",
        "tags": [
          {
            "name": "公众号",
            "url": "/wxarticle/list/408/1"
          }
        ],
        "title": "Android特效视频Surface+Camera2的实现",
        "type": 0,
        "userId": -1,
        "visible": 1,
        "zan": 0
      },
      {
        "adminAdd": false,
        "apkLink": "",
        "audit": 1,
        "author": "郭霖",
        "canEdit": false,
        "chapterId": 409,
        "chapterName": "郭霖",
        "collect": false,
        "courseId": 13,
        "desc": "",
        "descMd": "",
        "envelopePic": "",
        "fresh": false,
        "host": "",
        "id": 28784,
        "isAdminAdd": false,
        "link": "https://mp.weixin.qq.com/s/tFjTXJvY1CHpFfge8ijbyg",
        "niceDate": "2024-08-02 00:00",
        "niceShareDate": "2024-08-06 09:15",
        "origin": "",
        "prefix": "",
        "projectLink": "",
        "publishTime": 1722528000000,
        "realSuperChapterId": 407,
        "selfVisible": 0,
        "shareDate": 1722906919000,
        "shareUser": "",
        "superChapterId": 408,
        "superChapterName": "公众号",
        "tags": [
          {
            "name": "公众号",
            "url": "/wxarticle/list/409/1"
          }
        ],
        "title": "更清晰的 Compose 共享元素过渡入门文章",
        "type": 0,
        "userId": -1,
        "visible": 1,
        "zan": 0
      },
      {
        "adminAdd": false,
        "apkLink": "",
        "audit": 1,
        "author": "鸿洋",
        "canEdit": false,
        "chapterId": 408,
        "chapterName": "鸿洋",
        "collect": false,
        "courseId": 13,
        "desc": "",
        "descMd": "",
        "envelopePic": "",
        "fresh": false,
        "host": "",
        "id": 28765,
        "isAdminAdd": false,
        "link": "https://mp.weixin.qq.com/s/HjMRD92qHaV2oJi3BwjNIA",
        "niceDate": "2024-08-01 00:00",
        "niceShareDate": "2024-08-02 09:19",
        "origin": "",
        "prefix": "",
        "projectLink": "",
        "publishTime": 1722441600000,
        "realSuperChapterId": 407,
        "selfVisible": 0,
        "shareDate": 1722561579000,
        "shareUser": "",
        "superChapterId": 408,
        "superChapterName": "公众号",
        "tags": [
          {
            "name": "公众号",
            "url": "/wxarticle/list/408/1"
          }
        ],
        "title": "包体积优化：Android编译期PNG自动化转换WEBP",
        "type": 0,
        "userId": -1,
        "visible": 1,
        "zan": 0
      },
      {
        "adminAdd": false,
        "apkLink": "",
        "audit": 1,
        "author": "郭霖",
        "canEdit": false,
        "chapterId": 409,
        "chapterName": "郭霖",
        "collect": false,
        "courseId": 13,
        "desc": "",
        "descMd": "",
        "envelopePic": "",
        "fresh": false,
        "host": "",
        "id": 28766,
        "isAdminAdd": false,
        "link": "https://mp.weixin.qq.com/s/m38HWBzxInUf_hgAZ---bw",
        "niceDate": "2024-08-01 00:00",
        "niceShareDate": "2024-08-02 09:19",
        "origin": "",
        "prefix": "",
        "projectLink": "",
        "publishTime": 1722441600000,
        "realSuperChapterId": 407,
        "selfVisible": 0,
        "shareDate": 1722561591000,
        "shareUser": "",
        "superChapterId": 408,
        "superChapterName": "公众号",
        "tags": [
          {
            "name": "公众号",
            "url": "/wxarticle/list/409/1"
          }
        ],
        "title": "如何快速实现一个列表组件",
        "type": 0,
        "userId": -1,
        "visible": 1,
        "zan": 0
      },
      {
        "adminAdd": false,
        "apkLink": "",
        "audit": 1,
        "author": "鸿洋",
        "canEdit": false,
        "chapterId": 408,
        "chapterName": "鸿洋",
        "collect": false,
        "courseId": 13,
        "desc": "",
        "descMd": "",
        "envelopePic": "",
        "fresh": false,
        "host": "",
        "id": 28759,
        "isAdminAdd": false,
        "link": "https://mp.weixin.qq.com/s/9DzpBoaQ95qVOF_ufybixQ",
        "niceDate": "2024-07-31 00:00",
        "niceShareDate": "2024-08-01 09:22",
        "origin": "",
        "prefix": "",
        "projectLink": "",
        "publishTime": 1722355200000,
        "realSuperChapterId": 407,
        "selfVisible": 0,
        "shareDate": 1722475337000,
        "shareUser": "",
        "superChapterId": 408,
        "superChapterName": "公众号",
        "tags": [
          {
            "name": "公众号",
            "url": "/wxarticle/list/408/1"
          }
        ],
        "title": "Android 15 线程挂起超时崩溃与修复",
        "type": 0,
        "userId": -1,
        "visible": 1,
        "zan": 0
      },
      {
        "adminAdd": false,
        "apkLink": "",
        "audit": 1,
        "author": "郭霖",
        "canEdit": false,
        "chapterId": 409,
        "chapterName": "郭霖",
        "collect": false,
        "courseId": 13,
        "desc": "",
        "descMd": "",
        "envelopePic": "",
        "fresh": false,
        "host": "",
        "id": 28762,
        "isAdminAdd": false,
        "link": "https://mp.weixin.qq.com/s/JnFnRBYuzGQqAcFvnsZLRA",
        "niceDate": "2024-07-31 00:00",
        "niceShareDate": "2024-08-01 09:23",
        "origin": "",
        "prefix": "",
        "projectLink": "",
        "publishTime": 1722355200000,
        "realSuperChapterId": 407,
        "selfVisible": 0,
        "shareDate": 1722475381000,
        "shareUser": "",
        "superChapterId": 408,
        "superChapterName": "公众号",
        "tags": [
          {
            "name": "公众号",
            "url": "/wxarticle/list/409/1"
          }
        ],
        "title": "Google Play账号审查详解，防止你的账号被封禁",
        "type": 0,
        "userId": -1,
        "visible": 1,
        "zan": 0
      },
      {
        "adminAdd": false,
        "apkLink": "",
        "audit": 1,
        "author": "",
        "canEdit": false,
        "chapterId": 502,
        "chapterName": "自助",
        "collect": false,
        "courseId": 13,
        "desc": "",
        "descMd": "",
        "envelopePic": "",
        "fresh": false,
        "host": "",
        "id": 28755,
        "isAdminAdd": false,
        "link": "https://blog.csdn.net/u013290250/article/details/140735409",
        "niceDate": "2024-07-30 22:01",
        "niceShareDate": "2024-07-30 22:01",
        "origin": "",
        "prefix": "",
        "projectLink": "",
        "publishTime": 1722348076000,
        "realSuperChapterId": 493,
        "selfVisible": 0,
        "shareDate": 1722348076000,
        "shareUser": "duangduang",
        "superChapterId": 494,
        "superChapterName": "广场Tab",
        "tags": [],
        "title": "Flutter&mdash;&mdash;全网更精致木鱼APP可上架应用市场",
        "type": 0,
        "userId": 149113,
        "visible": 1,
        "zan": 0
      },
      {
        "adminAdd": false,
        "apkLink": "",
        "audit": 1,
        "author": "鸿洋",
        "canEdit": false,
        "chapterId": 408,
        "chapterName": "鸿洋",
        "collect": false,
        "courseId": 13,
        "desc": "",
        "descMd": "",
        "envelopePic": "",
        "fresh": false,
        "host": "",
        "id": 28758,
        "isAdminAdd": false,
        "link": "https://mp.weixin.qq.com/s/kDUhRQLG8HUyR_epD0KFYw",
        "niceDate": "2024-07-30 00:00",
        "niceShareDate": "2024-08-01 09:22",
        "origin": "",
        "prefix": "",
        "projectLink": "",
        "publishTime": 1722268800000,
        "realSuperChapterId": 407,
        "selfVisible": 0,
        "shareDate": 1722475325000,
        "shareUser": "",
        "superChapterId": 408,
        "superChapterName": "公众号",
        "tags": [
          {
            "name": "公众号",
            "url": "/wxarticle/list/408/1"
          }
        ],
        "title": "从 XML 到 View 显示在屏幕上，都发生了什么?",
        "type": 0,
        "userId": -1,
        "visible": 1,
        "zan": 0
      },
      {
        "adminAdd": false,
        "apkLink": "",
        "audit": 1,
        "author": "郭霖",
        "canEdit": false,
        "chapterId": 409,
        "chapterName": "郭霖",
        "collect": false,
        "courseId": 13,
        "desc": "",
        "descMd": "",
        "envelopePic": "",
        "fresh": false,
        "host": "",
        "id": 28761,
        "isAdminAdd": false,
        "link": "https://mp.weixin.qq.com/s/_JlAmSRh4nJLNX5LO18RPg",
        "niceDate": "2024-07-30 00:00",
        "niceShareDate": "2024-08-01 09:22",
        "origin": "",
        "prefix": "",
        "projectLink": "",
        "publishTime": 1722268800000,
        "realSuperChapterId": 407,
        "selfVisible": 0,
        "shareDate": 1722475365000,
        "shareUser": "",
        "superChapterId": 408,
        "superChapterName": "公众号",
        "tags": [
          {
            "name": "公众号",
            "url": "/wxarticle/list/409/1"
          }
        ],
        "title": "Android zygote访谈录",
        "type": 0,
        "userId": -1,
        "visible": 1,
        "zan": 0
      },
      {
        "adminAdd": false,
        "apkLink": "",
        "audit": 1,
        "author": "张鸿洋",
        "canEdit": false,
        "chapterId": 543,
        "chapterName": "Android技术周报",
        "collect": false,
        "courseId": 13,
        "desc": "",
        "descMd": "",
        "envelopePic": "",
        "fresh": false,
        "host": "",
        "id": 28751,
        "isAdminAdd": false,
        "link": "https://www.wanandroid.com/blog/show/3677",
        "niceDate": "2024-07-29 00:00",
        "niceShareDate": "2024-07-29 00:10",
        "origin": "",
        "prefix": "",
        "projectLink": "",
        "publishTime": 1722182400000,
        "realSuperChapterId": 542,
        "selfVisible": 0,
        "shareDate": 1722183000000,
        "shareUser": "",
        "superChapterId": 543,
        "superChapterName": "技术周报",
        "tags": [],
        "title": "Android 技术周刊 （2024-07-22 ~ 2024-07-29）",
        "type": 0,
        "userId": -1,
        "visible": 1,
        "zan": 0
      },
      {
        "adminAdd": false,
        "apkLink": "",
        "audit": 1,
        "author": "鸿洋",
        "canEdit": false,
        "chapterId": 408,
        "chapterName": "鸿洋",
        "collect": false,
        "courseId": 13,
        "desc": "",
        "descMd": "",
        "envelopePic": "",
        "fresh": false,
        "host": "",
        "id": 28757,
        "isAdminAdd": false,
        "link": "https://mp.weixin.qq.com/s/GMGd4sEuytpZv1FNaFpbpQ",
        "niceDate": "2024-07-29 00:00",
        "niceShareDate": "2024-08-01 09:21",
        "origin": "",
        "prefix": "",
        "projectLink": "",
        "publishTime": 1722182400000,
        "realSuperChapterId": 407,
        "selfVisible": 0,
        "shareDate": 1722475314000,
        "shareUser": "",
        "superChapterId": 408,
        "superChapterName": "公众号",
        "tags": [
          {
            "name": "公众号",
            "url": "/wxarticle/list/408/1"
          }
        ],
        "title": "核心交互场景优化黑科技，GC抑制从入门到精通",
        "type": 0,
        "userId": -1,
        "visible": 1,
        "zan": 0
      },
      {
        "adminAdd": false,
        "apkLink": "",
        "audit": 1,
        "author": "郭霖",
        "canEdit": false,
        "chapterId": 409,
        "chapterName": "郭霖",
        "collect": false,
        "courseId": 13,
        "desc": "",
        "descMd": "",
        "envelopePic": "",
        "fresh": false,
        "host": "",
        "id": 28760,
        "isAdminAdd": false,
        "link": "https://mp.weixin.qq.com/s/pk4674_2hWOi3AVYgeNweQ",
        "niceDate": "2024-07-29 00:00",
        "niceShareDate": "2024-08-01 09:22",
        "origin": "",
        "prefix": "",
        "projectLink": "",
        "publishTime": 1722182400000,
        "realSuperChapterId": 407,
        "selfVisible": 0,
        "shareDate": 1722475351000,
        "shareUser": "",
        "superChapterId": 408,
        "superChapterName": "公众号",
        "tags": [
          {
            "name": "公众号",
            "url": "/wxarticle/list/409/1"
          }
        ],
        "title": "Android包体积优化，so动态加载",
        "type": 0,
        "userId": -1,
        "visible": 1,
        "zan": 0
      },
      {
        "adminAdd": false,
        "apkLink": "",
        "audit": 1,
        "author": "",
        "canEdit": false,
        "chapterId": 502,
        "chapterName": "自助",
        "collect": false,
        "courseId": 13,
        "desc": "",
        "descMd": "",
        "envelopePic": "",
        "fresh": false,
        "host": "",
        "id": 28744,
        "isAdminAdd": false,
        "link": "https://juejin.cn/post/7394795454586503183",
        "niceDate": "2024-07-28 23:24",
        "niceShareDate": "2024-07-28 23:23",
        "origin": "",
        "prefix": "",
        "projectLink": "",
        "publishTime": 1722180285000,
        "realSuperChapterId": 493,
        "selfVisible": 0,
        "shareDate": 1722180234000,
        "shareUser": "鸿洋",
        "superChapterId": 494,
        "superChapterName": "广场Tab",
        "tags": [],
        "title": "关于Android的资源加载",
        "type": 0,
        "userId": 2,
        "visible": 1,
        "zan": 0
      },
      {
        "adminAdd": false,
        "apkLink": "",
        "audit": 1,
        "author": "",
        "canEdit": false,
        "chapterId": 502,
        "chapterName": "自助",
        "collect": false,
        "courseId": 13,
        "desc": "",
        "descMd": "",
        "envelopePic": "",
        "fresh": false,
        "host": "",
        "id": 28745,
        "isAdminAdd": false,
        "link": "https://juejin.cn/post/7395404699598290982",
        "niceDate": "2024-07-28 23:24",
        "niceShareDate": "2024-07-28 23:24",
        "origin": "",
        "prefix": "",
        "projectLink": "",
        "publishTime": 1722180284000,
        "realSuperChapterId": 493,
        "selfVisible": 0,
        "shareDate": 1722180245000,
        "shareUser": "鸿洋",
        "superChapterId": 494,
        "superChapterName": "广场Tab",
        "tags": [],
        "title": "Android主线程锁监控原理和实现",
        "type": 0,
        "userId": 2,
        "visible": 1,
        "zan": 0
      },
      {
        "adminAdd": false,
        "apkLink": "",
        "audit": 1,
        "author": "",
        "canEdit": false,
        "chapterId": 502,
        "chapterName": "自助",
        "collect": false,
        "courseId": 13,
        "desc": "",
        "descMd": "",
        "envelopePic": "",
        "fresh": false,
        "host": "",
        "id": 28746,
        "isAdminAdd": false,
        "link": "https://juejin.cn/post/7395396352182583306",
        "niceDate": "2024-07-28 23:24",
        "niceShareDate": "2024-07-28 23:24",
        "origin": "",
        "prefix": "",
        "projectLink": "",
        "publishTime": 1722180282000,
        "realSuperChapterId": 493,
        "selfVisible": 0,
        "shareDate": 1722180249000,
        "shareUser": "鸿洋",
        "superChapterId": 494,
        "superChapterName": "广场Tab",
        "tags": [],
        "title": "Android 15- 16kb页对齐适配大扫盲",
        "type": 0,
        "userId": 2,
        "visible": 1,
        "zan": 0
      },
      {
        "adminAdd": false,
        "apkLink": "",
        "audit": 1,
        "author": "",
        "canEdit": false,
        "chapterId": 502,
        "chapterName": "自助",
        "collect": false,
        "courseId": 13,
        "desc": "",
        "descMd": "",
        "envelopePic": "",
        "fresh": false,
        "host": "",
        "id": 28747,
        "isAdminAdd": false,
        "link": "https://juejin.cn/post/7395127766185836584",
        "niceDate": "2024-07-28 23:24",
        "niceShareDate": "2024-07-28 23:24",
        "origin": "",
        "prefix": "",
        "projectLink": "",
        "publishTime": 1722180281000,
        "realSuperChapterId": 493,
        "selfVisible": 0,
        "shareDate": 1722180255000,
        "shareUser": "鸿洋",
        "superChapterId": 494,
        "superChapterName": "广场Tab",
        "tags": [],
        "title": "Android 折叠屏适配攻略",
        "type": 0,
        "userId": 2,
        "visible": 1,
        "zan": 0
      }
    ],
    "offset": 40,
    "over": false,
    "pageCount": 782,
    "size": 20,
    "total": 15626
  },
  "errorCode": 0,
  "errorMsg": ""
}