{
  "data": {
    "curPage": 4,
    "datas": [
      {
        "adminAdd": false,
        "apkLink": "",
        "audit": 1,
        "author": "",
        "canEdit": false,
        "chapterId": 502,
        "chapterName": "自助",
        "collect": false,
        "courseId": 13,
        "desc": "",
        "descMd": "",
        "envelopePic": "",
        "fresh": false,
        "host": "",
        "id": 28748,
        "isAdminAdd": false,
        "link": "https://juejin.cn/post/7395866692772085800",
        "niceDate": "2024-07-28 23:24",
        "niceShareDate": "2024-07-28 23:24",
        "origin": "",
        "prefix": "",
        "projectLink": "",
        "publishTime": 1722180279000,
        "realSuperChapterId": 493,
        "selfVisible": 0,
        "shareDate": 1722180263000,
        "shareUser": "鸿洋",
        "superChapterId": 494,
        "superChapterName": "广场Tab",
        "tags": [],
        "title": "Android &ldquo;edge to edge&rdquo;特性-官方&ldquo;沉浸式&rdquo;方案实探",
        "type": 0,
        "userId": 2,
        "visible": 1,
        "zan": 0
      },
      {
        "adminAdd": false,
        "apkLink": "",
        "audit": 1,
        "author": "",
        "canEdit": false,
        "chapterId": 502,
        "chapterName": "自助",
        "collect": false,
        "courseId": 13,
        "desc": "",
        "descMd": "",
        "envelopePic": "",
        "fresh": false,
        "host": "",
        "id": 28749,
        "isAdminAdd": false,
        "link": "https://juejin.cn/post/7395886990561542171",
        "niceDate": "2024-07-28 23:24",
        "niceShareDate": "2024-07-28 23:24",
        "origin": "",
        "prefix": "",
        "projectLink": "",
        "publishTime": 1722180278000,
        "realSuperChapterId": 493,
        "selfVisible": 0,
        "shareDate": 1722180267000,
        "shareUser": "鸿洋",
        "superChapterId": 494,
        "superChapterName": "广场Tab",
        "tags": [],
        "title": "Android 应用程序安装流程解析",
        "type": 0,
        "userId": 2,
        "visible": 1,
        "zan": 0
      },
      {
        "adminAdd": false,
        "apkLink": "",
        "audit": 1,
        "author": "",
        "canEdit": false,
        "chapterId": 502,
        "chapterName": "自助",
        "collect": false,
        "courseId": 13,
        "desc": "",
        "descMd": "",
        "envelopePic": "",
        "fresh": false,
        "host": "",
        "id": 28750,
        "isAdminAdd": false,
        "link": "https://juejin.cn/post/7395862719913672731",
        "niceDate": "2024-07-28 23:24",
        "niceShareDate": "2024-07-28 23:24",
        "origin": "",
        "prefix": "",
        "projectLink": "",
        "publishTime": 1722180277000,
        "realSuperChapterId": 493,
        "selfVisible": 0,
        "shareDate": 1722180273000,
        "shareUser": "鸿洋",
        "superChapterId": 494,
        "superChapterName": "广场Tab",
        "tags": [],
        "title": "初阶技能：Android 应用异常如何丰富线索",
        "type": 0,
        "userId": 2,
        "visible": 1,
        "zan": 0
      },
      {
        "adminAdd": false,
        "apkLink": "",
        "audit": 1,
        "author": "",
        "canEdit": false,
        "chapterId": 502,
        "chapterName": "自助",
        "collect": false,
        "courseId": 13,
        "desc": "",
        "descMd": "",
        "envelopePic": "",
        "fresh": false,
        "host": "",
        "id": 28743,
        "isAdminAdd": false,
        "link": "https://juejin.cn/post/7394463308379045951",
        "niceDate": "2024-07-28 23:23",
        "niceShareDate": "2024-07-28 23:23",
        "origin": "",
        "prefix": "",
        "projectLink": "",
        "publishTime": 1722180227000,
        "realSuperChapterId": 493,
        "selfVisible": 0,
        "shareDate": 1722180184000,
        "shareUser": "鸿洋",
        "superChapterId": 494,
        "superChapterName": "广场Tab",
        "tags": [],
        "title": "5年了，ViewPager2 终于支持 overScrollMode，没错，我干的。",
        "type": 0,
        "userId": 2,
        "visible": 1,
        "zan": 0
      },
      {
        "adminAdd": false,
        "apkLink": "",
        "audit": 1,
        "author": "",
        "canEdit": false,
        "chapterId": 502,
        "chapterName": "自助",
        "collect": false,
        "courseId": 13,
        "desc": "",
        "descMd": "",
        "envelopePic": "",
        "fresh": false,
        "host": "",
        "id": 28741,
        "isAdminAdd": false,
        "link": "https://blog.csdn.net/u013290250/article/details/140735409",
        "niceDate": "2024-07-27 14:54",
        "niceShareDate": "2024-07-27 14:54",
        "origin": "",
        "prefix": "",
        "projectLink": "",
        "publishTime": 1722063296000,
        "realSuperChapterId": 493,
        "selfVisible": 0,
        "shareDate": 1722063296000,
        "shareUser": "duangduang",
        "superChapterId": 494,
        "superChapterName": "广场Tab",
        "tags": [],
        "title": "Flutter&mdash;&mdash;全网更精致木鱼APP可上架应用市场",
        "type": 0,
        "userId": 149113,
        "visible": 1,
        "zan": 0
      },
      {
        "adminAdd": false,
        "apkLink": "",
        "audit": 1,
        "author": "",
        "canEdit": false,
        "chapterId": 502,
        "chapterName": "自助",
        "collect": false,
        "courseId": 13,
        "desc": "",
        "descMd": "",
        "envelopePic": "",
        "fresh": false,
        "host": "",
        "id": 28717,
        "isAdminAdd": false,
        "link": "https://juejin.cn/post/7225914608552181821",
        "niceDate": "2024-07-27 11:41",
        "niceShareDate": "2024-07-22 22:21",
        "origin": "",
        "prefix": "",
        "projectLink": "",
        "publishTime": 1722051675000,
        "realSuperChapterId": 493,
        "selfVisible": 0,
        "shareDate": 1721658072000,
        "shareUser": "残页",
        "superChapterId": 494,
        "superChapterName": "广场Tab",
        "tags": [],
        "title": "Android 13 平行视界 ActivityEmbedding详解",
        "type": 0,
        "userId": 12467,
        "visible": 1,
        "zan": 0
      },
      {
        "adminAdd": false,
        "apkLink": "",
        "audit": 1,
        "author": "鸿洋",
        "canEdit": false,
        "chapterId": 408,
        "chapterName": "鸿洋",
        "collect": false,
        "courseId": 13,
        "desc": "",
        "descMd": "",
        "envelopePic": "",
        "fresh": false,
        "host": "",
        "id": 28753,
        "isAdminAdd": false,
        "link": "https://mp.weixin.qq.com/s/t0epXURn7GDY-SeXx8nH0Q",
        "niceDate": "2024-07-26 00:00",
        "niceShareDate": "2024-07-29 09:16",
        "origin": "",
        "prefix": "",
        "projectLink": "",
        "publishTime": 1721923200000,
        "realSuperChapterId": 407,
        "selfVisible": 0,
        "shareDate": 1722215772000,
        "shareUser": "",
        "superChapterId": 408,
        "superChapterName": "公众号",
        "tags": [
          {
            "name": "公众号",
            "url": "/wxarticle/list/408/1"
          }
        ],
        "title": "万字长文 &middot; Android 功耗优化指导规范",
        "type": 0,
        "userId": -1,
        "visible": 1,
        "zan": 0
      },
      {
        "adminAdd": false,
        "apkLink": "",
        "audit": 1,
        "author": "鸿洋",
        "canEdit": false,
        "chapterId": 408,
        "chapterName": "鸿洋",
        "collect": false,
        "courseId": 13,
        "desc": "",
        "descMd": "",
        "envelopePic": "",
        "fresh": false,
        "host": "",
        "id": 28737,
        "isAdminAdd": false,
        "link": "https://mp.weixin.qq.com/s/WlNKdyLJZumOGHmhxJ4D0Q",
        "niceDate": "2024-07-25 00:00",
        "niceShareDate": "2024-07-26 09:12",
        "origin": "",
        "prefix": "",
        "projectLink": "",
        "publishTime": 1721836800000,
        "realSuperChapterId": 407,
        "selfVisible": 0,
        "shareDate": 1721956360000,
        "shareUser": "",
        "superChapterId": 408,
        "superChapterName": "公众号",
        "tags": [
          {
            "name": "公众号",
            "url": "/wxarticle/list/408/1"
          }
        ],
        "title": "Android 性能优化： 启动优化理论与实践",
        "type": 0,
        "userId": -1,
        "visible": 1,
        "zan": 0
      },
      {
        "adminAdd": false,
        "apkLink": "",
        "audit": 1,
        "author": "郭霖",
        "canEdit": false,
        "chapterId": 409,
        "chapterName": "郭霖",
        "collect": false,
        "courseId": 13,
        "desc": "",
        "descMd": "",
        "envelopePic": "",
        "fresh": false,
        "host": "",
        "id": 28738,
        "isAdminAdd": false,
        "link": "https://mp.weixin.qq.com/s/ow4pZHxCRfsFivNTKYnGjg",
        "niceDate": "2024-07-25 00:00",
        "niceShareDate": "2024-07-26 09:12",
        "origin": "",
        "prefix": "",
        "projectLink": "",
        "publishTime": 1721836800000,
        "realSuperChapterId": 407,
        "selfVisible": 0,
        "shareDate": 1721956371000,
        "shareUser": "",
        "superChapterId": 408,
        "superChapterName": "公众号",
        "tags": [
          {
            "name": "公众号",
            "url": "/wxarticle/list/409/1"
          }
        ],
        "title": "Harmony OS鸿蒙应用开发，学一下如何使用系统路由表",
        "type": 0,
        "userId": -1,
        "visible": 1,
        "zan": 0
      },
      {
        "adminAdd": false,
        "apkLink": "",
        "audit": 1,
        "author": "鸿洋",
        "canEdit": false,
        "chapterId": 408,
        "chapterName": "鸿洋",
        "collect": false,
        "courseId": 13,
        "desc": "",
        "descMd": "",
        "envelopePic": "",
        "fresh": false,
        "host": "",
        "id": 28731,
        "isAdminAdd": false,
        "link": "https://mp.weixin.qq.com/s/fCNP3kYRQOSahX8GDde0Kw",
        "niceDate": "2024-07-24 00:00",
        "niceShareDate": "2024-07-25 09:55",
        "origin": "",
        "prefix": "",
        "projectLink": "",
        "publishTime": 1721750400000,
        "realSuperChapterId": 407,
        "selfVisible": 0,
        "shareDate": 1721872534000,
        "shareUser": "",
        "superChapterId": 408,
        "superChapterName": "公众号",
        "tags": [
          {
            "name": "公众号",
            "url": "/wxarticle/list/408/1"
          }
        ],
        "title": "Android 15 适配之16K Page Size ：为什么它会是更坑的一个适配点",
        "type": 0,
        "userId": -1,
        "visible": 1,
        "zan": 0
      },
      {
        "adminAdd": false,
        "apkLink": "",
        "audit": 1,
        "author": "郭霖",
        "canEdit": false,
        "chapterId": 409,
        "chapterName": "郭霖",
        "collect": false,
        "courseId": 13,
        "desc": "",
        "descMd": "",
        "envelopePic": "",
        "fresh": false,
        "host": "",
        "id": 28733,
        "isAdminAdd": false,
        "link": "https://mp.weixin.qq.com/s/Y_AWq7s0AbH6Hl1DHxKX_g",
        "niceDate": "2024-07-24 00:00",
        "niceShareDate": "2024-07-25 09:56",
        "origin": "",
        "prefix": "",
        "projectLink": "",
        "publishTime": 1721750400000,
        "realSuperChapterId": 407,
        "selfVisible": 0,
        "shareDate": 1721872563000,
        "shareUser": "",
        "superChapterId": 408,
        "superChapterName": "公众号",
        "tags": [
          {
            "name": "公众号",
            "url": "/wxarticle/list/409/1"
          }
        ],
        "title": "采用 Kotlin Multiplatform 做跨平台",
        "type": 0,
        "userId": -1,
        "visible": 1,
        "zan": 0
      },
      {
        "adminAdd": false,
        "apkLink": "",
        "audit": 1,
        "author": "鸿洋",
        "canEdit": false,
        "chapterId": 408,
        "chapterName": "鸿洋",
        "collect": false,
        "courseId": 13,
        "desc": "",
        "descMd": "",
        "envelopePic": "",
        "fresh": false,
        "host": "",
        "id": 28730,
        "isAdminAdd": false,
        "link": "https://mp.weixin.qq.com/s/5H3s4-_bFtM7_2xCqxhFCw",
        "niceDate": "2024-07-23 00:00",
        "niceShareDate": "2024-07-25 09:55",
        "origin": "",
        "prefix": "",
        "projectLink": "",
        "publishTime": 1721664000000,
        "realSuperChapterId": 407,
        "selfVisible": 0,
        "shareDate": 1721872519000,
        "shareUser": "",
        "superChapterId": 408,
        "superChapterName": "公众号",
        "tags": [
          {
            "name": "公众号",
            "url": "/wxarticle/list/408/1"
          }
        ],
        "title": "内存大户Bitmap",
        "type": 0,
        "userId": -1,
        "visible": 1,
        "zan": 0
      },
      {
        "adminAdd": false,
        "apkLink": "",
        "audit": 1,
        "author": "郭霖",
        "canEdit": false,
        "chapterId": 409,
        "chapterName": "郭霖",
        "collect": false,
        "courseId": 13,
        "desc": "",
        "descMd": "",
        "envelopePic": "",
        "fresh": false,
        "host": "",
        "id": 28732,
        "isAdminAdd": false,
        "link": "https://mp.weixin.qq.com/s/obTNO0qzCJv1L-X2h9bW8Q",
        "niceDate": "2024-07-23 00:00",
        "niceShareDate": "2024-07-25 09:55",
        "origin": "",
        "prefix": "",
        "projectLink": "",
        "publishTime": 1721664000000,
        "realSuperChapterId": 407,
        "selfVisible": 0,
        "shareDate": 1721872550000,
        "shareUser": "",
        "superChapterId": 408,
        "superChapterName": "公众号",
        "tags": [
          {
            "name": "公众号",
            "url": "/wxarticle/list/409/1"
          }
        ],
        "title": "Android应用保活全攻略：30个实用技巧助你突破后台限制",
        "type": 0,
        "userId": -1,
        "visible": 1,
        "zan": 0
      },
      {
        "adminAdd": false,
        "apkLink": "",
        "audit": 1,
        "author": "张鸿洋",
        "canEdit": false,
        "chapterId": 543,
        "chapterName": "Android技术周报",
        "collect": false,
        "courseId": 13,
        "desc": "",
        "descMd": "",
        "envelopePic": "",
        "fresh": false,
        "host": "",
        "id": 28713,
        "isAdminAdd": false,
        "link": "https://www.wanandroid.com/blog/show/3675",
        "niceDate": "2024-07-22 00:00",
        "niceShareDate": "2024-07-22 00:10",
        "origin": "",
        "prefix": "",
        "projectLink": "",
        "publishTime": 1721577600000,
        "realSuperChapterId": 542,
        "selfVisible": 0,
        "shareDate": 1721578200000,
        "shareUser": "",
        "superChapterId": 543,
        "superChapterName": "技术周报",
        "tags": [],
        "title": "Android 技术周刊 （2024-07-15 ~ 2024-07-22）",
        "type": 0,
        "userId": -1,
        "visible": 1,
        "zan": 0
      },
      {
        "adminAdd": false,
        "apkLink": "",
        "audit": 1,
        "author": "鸿洋",
        "canEdit": false,
        "chapterId": 408,
        "chapterName": "鸿洋",
        "collect": false,
        "courseId": 13,
        "desc": "",
        "descMd": "",
        "envelopePic": "",
        "fresh": false,
        "host": "",
        "id": 28723,
        "isAdminAdd": false,
        "link": "https://mp.weixin.qq.com/s/P5bYvDRchhRwsiWJw4rRpw",
        "niceDate": "2024-07-22 00:00",
        "niceShareDate": "2024-07-23 09:26",
        "origin": "",
        "prefix": "",
        "projectLink": "",
        "publishTime": 1721577600000,
        "realSuperChapterId": 407,
        "selfVisible": 0,
        "shareDate": 1721698008000,
        "shareUser": "",
        "superChapterId": 408,
        "superChapterName": "公众号",
        "tags": [
          {
            "name": "公众号",
            "url": "/wxarticle/list/408/1"
          }
        ],
        "title": "如何秒开WebView？Android性能优化全攻略！",
        "type": 0,
        "userId": -1,
        "visible": 1,
        "zan": 0
      },
      {
        "adminAdd": false,
        "apkLink": "",
        "audit": 1,
        "author": "郭霖",
        "canEdit": false,
        "chapterId": 409,
        "chapterName": "郭霖",
        "collect": false,
        "courseId": 13,
        "desc": "",
        "descMd": "",
        "envelopePic": "",
        "fresh": false,
        "host": "",
        "id": 28726,
        "isAdminAdd": false,
        "link": "https://mp.weixin.qq.com/s/vak4Gm7yZQXRJ1aZaVW0Rg",
        "niceDate": "2024-07-22 00:00",
        "niceShareDate": "2024-07-23 09:27",
        "origin": "",
        "prefix": "",
        "projectLink": "",
        "publishTime": 1721577600000,
        "realSuperChapterId": 407,
        "selfVisible": 0,
        "shareDate": 1721698049000,
        "shareUser": "",
        "superChapterId": 408,
        "superChapterName": "公众号",
        "tags": [
          {
            "name": "公众号",
            "url": "/wxarticle/list/409/1"
          }
        ],
        "title": "I/O 24 大会上 Jetpack Compose 的新功能",
        "type": 0,
        "userId": -1,
        "visible": 1,
        "zan": 0
      },
      {
        "adminAdd": false,
        "apkLink": "",
        "audit": 1,
        "author": "",
        "canEdit": false,
        "chapterId": 502,
        "chapterName": "自助",
        "collect": false,
        "courseId": 13,
        "desc": "",
        "descMd": "",
        "envelopePic": "",
        "fresh": false,
        "host": "",
        "id": 28658,
        "isAdminAdd": false,
        "link": "https://juejin.cn/post/7388056383642665014",
        "niceDate": "2024-07-21 22:34",
        "niceShareDate": "2024-07-09 08:45",
        "origin": "",
        "prefix": "",
        "projectLink": "",
        "publishTime": 1721572472000,
        "realSuperChapterId": 493,
        "selfVisible": 0,
        "shareDate": 1720485947000,
        "shareUser": "goweii",
        "superChapterId": 494,
        "superChapterName": "广场Tab",
        "tags": [],
        "title": "Android Studio阅读frameworks源码的正确姿势",
        "type": 0,
        "userId": 20382,
        "visible": 1,
        "zan": 0
      },
      {
        "adminAdd": false,
        "apkLink": "",
        "audit": 1,
        "author": "",
        "canEdit": false,
        "chapterId": 502,
        "chapterName": "自助",
        "collect": false,
        "courseId": 13,
        "desc": "",
        "descMd": "",
        "envelopePic": "",
        "fresh": false,
        "host": "",
        "id": 28657,
        "isAdminAdd": false,
        "link": "https://juejin.cn/post/7387305065802792970",
        "niceDate": "2024-07-21 22:34",
        "niceShareDate": "2024-07-08 08:27",
        "origin": "",
        "prefix": "",
        "projectLink": "",
        "publishTime": 1721572470000,
        "realSuperChapterId": 493,
        "selfVisible": 0,
        "shareDate": 1720398439000,
        "shareUser": "goweii",
        "superChapterId": 494,
        "superChapterName": "广场Tab",
        "tags": [],
        "title": "Android zygote访谈录",
        "type": 0,
        "userId": 20382,
        "visible": 1,
        "zan": 0
      },
      {
        "adminAdd": false,
        "apkLink": "",
        "audit": 1,
        "author": "",
        "canEdit": false,
        "chapterId": 502,
        "chapterName": "自助",
        "collect": false,
        "courseId": 13,
        "desc": "",
        "descMd": "",
        "envelopePic": "",
        "fresh": false,
        "host": "",
        "id": 28671,
        "isAdminAdd": false,
        "link": "https://juejin.cn/post/7288964295697399843",
        "niceDate": "2024-07-21 22:34",
        "niceShareDate": "2024-07-11 08:31",
        "origin": "",
        "prefix": "",
        "projectLink": "",
        "publishTime": 1721572459000,
        "realSuperChapterId": 493,
        "selfVisible": 0,
        "shareDate": 1720657903000,
        "shareUser": "goweii",
        "superChapterId": 494,
        "superChapterName": "广场Tab",
        "tags": [],
        "title": "Android14 适配之&mdash;&mdash;targetSdkVersion 升级到 34 需要注意些什么？",
        "type": 0,
        "userId": 20382,
        "visible": 1,
        "zan": 0
      },
      {
        "adminAdd": false,
        "apkLink": "",
        "audit": 1,
        "author": "",
        "canEdit": false,
        "chapterId": 502,
        "chapterName": "自助",
        "collect": false,
        "courseId": 13,
        "desc": "",
        "descMd": "",
        "envelopePic": "",
        "fresh": false,
        "host": "",
        "id": 28711,
        "isAdminAdd": false,
        "link": "https://juejin.cn/post/7392530614132228108",
        "niceDate": "2024-07-21 22:34",
        "niceShareDate": "2024-07-21 22:32",
        "origin": "",
        "prefix": "",
        "projectLink": "",
        "publishTime": 1721572453000,
        "realSuperChapterId": 493,
        "selfVisible": 0,
        "shareDate": 1721572320000,
        "shareUser": "鸿洋",
        "superChapterId": 494,
        "superChapterName": "广场Tab",
        "tags": [],
        "title": "Android黑科技&mdash;&mdash;破解系统隐藏API",
        "type": 0,
        "userId": 2,
        "visible": 1,
        "zan": 0
      }
    ],
    "offset": 60,
    "over": false,
    "pageCount": 782,
    "size": 20,
    "total": 15626
  },
  "errorCode": 0,
  "errorMsg": ""
}