{
  "data": {
    "curPage": 5,
    "datas": [
      {
        "adminAdd": false,
        "apkLink": "",
        "audit": 1,
        "author": "",
        "canEdit": false,
        "chapterId": 502,
        "chapterName": "自助",
        "collect": false,
        "courseId": 13,
        "desc": "",
        "descMd": "",
        "envelopePic": "",
        "fresh": false,
        "host": "",
        "id": 28712,
        "isAdminAdd": false,
        "link": "https://juejin.cn/post/7392513761876459530",
        "niceDate": "2024-07-21 22:34",
        "niceShareDate": "2024-07-21 22:32",
        "origin": "",
        "prefix": "",
        "projectLink": "",
        "publishTime": 1721572451000,
        "realSuperChapterId": 493,
        "selfVisible": 0,
        "shareDate": 1721572326000,
        "shareUser": "鸿洋",
        "superChapterId": 494,
        "superChapterName": "广场Tab",
        "tags": [],
        "title": "RenderThread优化中的多RenderThread问题",
        "type": 0,
        "userId": 2,
        "visible": 1,
        "zan": 0
      },
      {
        "adminAdd": false,
        "apkLink": "",
        "audit": 1,
        "author": "",
        "canEdit": false,
        "chapterId": 502,
        "chapterName": "自助",
        "collect": false,
        "courseId": 13,
        "desc": "",
        "descMd": "",
        "envelopePic": "",
        "fresh": false,
        "host": "",
        "id": 28710,
        "isAdminAdd": false,
        "link": "https://blog.csdn.net/u013290250/article/details/139880207",
        "niceDate": "2024-07-19 23:59",
        "niceShareDate": "2024-07-19 23:59",
        "origin": "",
        "prefix": "",
        "projectLink": "",
        "publishTime": 1721404771000,
        "realSuperChapterId": 493,
        "selfVisible": 0,
        "shareDate": 1721404771000,
        "shareUser": "duangduang",
        "superChapterId": 494,
        "superChapterName": "广场Tab",
        "tags": [],
        "title": "Flutter&mdash;&mdash;全网更精致二维码扫描APP可上架应用市场",
        "type": 0,
        "userId": 149113,
        "visible": 1,
        "zan": 0
      },
      {
        "adminAdd": false,
        "apkLink": "",
        "audit": 1,
        "author": "",
        "canEdit": false,
        "chapterId": 502,
        "chapterName": "自助",
        "collect": false,
        "courseId": 13,
        "desc": "",
        "descMd": "",
        "envelopePic": "",
        "fresh": false,
        "host": "",
        "id": 28708,
        "isAdminAdd": false,
        "link": "https://blog.csdn.net/u013290250/article/details/140160496",
        "niceDate": "2024-07-19 23:58",
        "niceShareDate": "2024-07-19 23:58",
        "origin": "",
        "prefix": "",
        "projectLink": "",
        "publishTime": 1721404713000,
        "realSuperChapterId": 493,
        "selfVisible": 0,
        "shareDate": 1721404713000,
        "shareUser": "duangduang",
        "superChapterId": 494,
        "superChapterName": "广场Tab",
        "tags": [],
        "title": "Flutter&mdash;&mdash;更详细(Badge)使用教程",
        "type": 0,
        "userId": 149113,
        "visible": 1,
        "zan": 0
      },
      {
        "adminAdd": false,
        "apkLink": "",
        "audit": 1,
        "author": "",
        "canEdit": false,
        "chapterId": 502,
        "chapterName": "自助",
        "collect": false,
        "courseId": 13,
        "desc": "",
        "descMd": "",
        "envelopePic": "",
        "fresh": false,
        "host": "",
        "id": 28707,
        "isAdminAdd": false,
        "link": "https://blog.csdn.net/u013290250/article/details/140161163",
        "niceDate": "2024-07-19 23:58",
        "niceShareDate": "2024-07-19 23:58",
        "origin": "",
        "prefix": "",
        "projectLink": "",
        "publishTime": 1721404691000,
        "realSuperChapterId": 493,
        "selfVisible": 0,
        "shareDate": 1721404691000,
        "shareUser": "duangduang",
        "superChapterId": 494,
        "superChapterName": "广场Tab",
        "tags": [],
        "title": "Flutter&mdash;&mdash;更详细(Drawer)使用教程",
        "type": 0,
        "userId": 149113,
        "visible": 1,
        "zan": 0
      },
      {
        "adminAdd": false,
        "apkLink": "",
        "audit": 1,
        "author": "",
        "canEdit": false,
        "chapterId": 502,
        "chapterName": "自助",
        "collect": false,
        "courseId": 13,
        "desc": "",
        "descMd": "",
        "envelopePic": "",
        "fresh": false,
        "host": "",
        "id": 28705,
        "isAdminAdd": false,
        "link": "https://blog.csdn.net/u013290250/article/details/140216389",
        "niceDate": "2024-07-19 23:57",
        "niceShareDate": "2024-07-19 23:57",
        "origin": "",
        "prefix": "",
        "projectLink": "",
        "publishTime": 1721404635000,
        "realSuperChapterId": 493,
        "selfVisible": 0,
        "shareDate": 1721404635000,
        "shareUser": "duangduang",
        "superChapterId": 494,
        "superChapterName": "广场Tab",
        "tags": [],
        "title": "Flutter&mdash;&mdash;更详细(Table)网格、表格组件使用教程",
        "type": 0,
        "userId": 149113,
        "visible": 1,
        "zan": 0
      },
      {
        "adminAdd": false,
        "apkLink": "",
        "audit": 1,
        "author": "鸿洋",
        "canEdit": false,
        "chapterId": 408,
        "chapterName": "鸿洋",
        "collect": false,
        "courseId": 13,
        "desc": "",
        "descMd": "",
        "envelopePic": "",
        "fresh": false,
        "host": "",
        "id": 28722,
        "isAdminAdd": false,
        "link": "https://mp.weixin.qq.com/s/wY8kYYHdRI8v0m5L8IIYSw",
        "niceDate": "2024-07-19 00:00",
        "niceShareDate": "2024-07-23 09:26",
        "origin": "",
        "prefix": "",
        "projectLink": "",
        "publishTime": 1721318400000,
        "realSuperChapterId": 407,
        "selfVisible": 0,
        "shareDate": 1721697992000,
        "shareUser": "",
        "superChapterId": 408,
        "superChapterName": "公众号",
        "tags": [
          {
            "name": "公众号",
            "url": "/wxarticle/list/408/1"
          }
        ],
        "title": "Kotlin委托的原理与使用，在Android中常用的几个场景",
        "type": 0,
        "userId": -1,
        "visible": 1,
        "zan": 0
      },
      {
        "adminAdd": false,
        "apkLink": "",
        "audit": 1,
        "author": "郭霖",
        "canEdit": false,
        "chapterId": 409,
        "chapterName": "郭霖",
        "collect": false,
        "courseId": 13,
        "desc": "",
        "descMd": "",
        "envelopePic": "",
        "fresh": false,
        "host": "",
        "id": 28725,
        "isAdminAdd": false,
        "link": "https://mp.weixin.qq.com/s/QmikshYOUdmSovU_GwvCZg",
        "niceDate": "2024-07-19 00:00",
        "niceShareDate": "2024-07-23 09:27",
        "origin": "",
        "prefix": "",
        "projectLink": "",
        "publishTime": 1721318400000,
        "realSuperChapterId": 407,
        "selfVisible": 0,
        "shareDate": 1721698035000,
        "shareUser": "",
        "superChapterId": 408,
        "superChapterName": "公众号",
        "tags": [
          {
            "name": "公众号",
            "url": "/wxarticle/list/409/1"
          }
        ],
        "title": "Jetpack-ViewModel（面试深度起来）",
        "type": 0,
        "userId": -1,
        "visible": 1,
        "zan": 0
      },
      {
        "adminAdd": false,
        "apkLink": "",
        "audit": 1,
        "author": "美团技术团队",
        "canEdit": false,
        "chapterId": 417,
        "chapterName": "美团技术团队",
        "collect": false,
        "courseId": 13,
        "desc": "",
        "descMd": "",
        "envelopePic": "",
        "fresh": false,
        "host": "",
        "id": 28720,
        "isAdminAdd": false,
        "link": "https://mp.weixin.qq.com/s/a9BUf6N93uOw8JSAxza7cg",
        "niceDate": "2024-07-18 00:00",
        "niceShareDate": "2024-07-23 09:26",
        "origin": "",
        "prefix": "",
        "projectLink": "",
        "publishTime": 1721232000000,
        "realSuperChapterId": 407,
        "selfVisible": 0,
        "shareDate": 1721697961000,
        "shareUser": "",
        "superChapterId": 408,
        "superChapterName": "公众号",
        "tags": [
          {
            "name": "公众号",
            "url": "/wxarticle/list/417/1"
          }
        ],
        "title": "基本功 | 一文讲清多线程和多线程同步",
        "type": 0,
        "userId": -1,
        "visible": 1,
        "zan": 0
      },
      {
        "adminAdd": false,
        "apkLink": "",
        "audit": 1,
        "author": "鸿洋",
        "canEdit": false,
        "chapterId": 408,
        "chapterName": "鸿洋",
        "collect": false,
        "courseId": 13,
        "desc": "",
        "descMd": "",
        "envelopePic": "",
        "fresh": false,
        "host": "",
        "id": 28721,
        "isAdminAdd": false,
        "link": "https://mp.weixin.qq.com/s/Q-rvFKNn8-m04Kua45YUrg",
        "niceDate": "2024-07-18 00:00",
        "niceShareDate": "2024-07-23 09:26",
        "origin": "",
        "prefix": "",
        "projectLink": "",
        "publishTime": 1721232000000,
        "realSuperChapterId": 407,
        "selfVisible": 0,
        "shareDate": 1721697976000,
        "shareUser": "",
        "superChapterId": 408,
        "superChapterName": "公众号",
        "tags": [
          {
            "name": "公众号",
            "url": "/wxarticle/list/408/1"
          }
        ],
        "title": "Android上下文Context，学有所得",
        "type": 0,
        "userId": -1,
        "visible": 1,
        "zan": 0
      },
      {
        "adminAdd": false,
        "apkLink": "",
        "audit": 1,
        "author": "郭霖",
        "canEdit": false,
        "chapterId": 409,
        "chapterName": "郭霖",
        "collect": false,
        "courseId": 13,
        "desc": "",
        "descMd": "",
        "envelopePic": "",
        "fresh": false,
        "host": "",
        "id": 28724,
        "isAdminAdd": false,
        "link": "https://mp.weixin.qq.com/s/Crmm_AjCS3TBxmkPefg0oA",
        "niceDate": "2024-07-18 00:00",
        "niceShareDate": "2024-07-23 09:27",
        "origin": "",
        "prefix": "",
        "projectLink": "",
        "publishTime": 1721232000000,
        "realSuperChapterId": 407,
        "selfVisible": 0,
        "shareDate": 1721698023000,
        "shareUser": "",
        "superChapterId": 408,
        "superChapterName": "公众号",
        "tags": [
          {
            "name": "公众号",
            "url": "/wxarticle/list/409/1"
          }
        ],
        "title": "Kotlin Flow：掌握基本，征服应用，避开开发陷阱！",
        "type": 0,
        "userId": -1,
        "visible": 1,
        "zan": 0
      },
      {
        "adminAdd": false,
        "apkLink": "",
        "audit": 1,
        "author": "郭霖",
        "canEdit": false,
        "chapterId": 409,
        "chapterName": "郭霖",
        "collect": false,
        "courseId": 13,
        "desc": "",
        "descMd": "",
        "envelopePic": "",
        "fresh": false,
        "host": "",
        "id": 28698,
        "isAdminAdd": false,
        "link": "https://mp.weixin.qq.com/s/5Qmp2z8xlMSXW2_gZOFEbg",
        "niceDate": "2024-07-17 00:00",
        "niceShareDate": "2024-07-18 09:20",
        "origin": "",
        "prefix": "",
        "projectLink": "",
        "publishTime": 1721145600000,
        "realSuperChapterId": 407,
        "selfVisible": 0,
        "shareDate": 1721265641000,
        "shareUser": "",
        "superChapterId": 408,
        "superChapterName": "公众号",
        "tags": [
          {
            "name": "公众号",
            "url": "/wxarticle/list/409/1"
          }
        ],
        "title": "Android NativeHook实现WebView无损内录音频",
        "type": 0,
        "userId": -1,
        "visible": 1,
        "zan": 0
      },
      {
        "adminAdd": false,
        "apkLink": "",
        "audit": 1,
        "author": "鸿洋",
        "canEdit": false,
        "chapterId": 408,
        "chapterName": "鸿洋",
        "collect": false,
        "courseId": 13,
        "desc": "",
        "descMd": "",
        "envelopePic": "",
        "fresh": false,
        "host": "",
        "id": 28695,
        "isAdminAdd": false,
        "link": "https://mp.weixin.qq.com/s/sEVPfJ4Fik7Pmf4oIotFrQ",
        "niceDate": "2024-07-16 00:00",
        "niceShareDate": "2024-07-17 09:18",
        "origin": "",
        "prefix": "",
        "projectLink": "",
        "publishTime": 1721059200000,
        "realSuperChapterId": 407,
        "selfVisible": 0,
        "shareDate": 1721179122000,
        "shareUser": "",
        "superChapterId": 408,
        "superChapterName": "公众号",
        "tags": [
          {
            "name": "公众号",
            "url": "/wxarticle/list/408/1"
          }
        ],
        "title": "Android就想下载个文件到SD卡，怎就这么难？快把代码拿走吧",
        "type": 0,
        "userId": -1,
        "visible": 1,
        "zan": 0
      },
      {
        "adminAdd": false,
        "apkLink": "",
        "audit": 1,
        "author": "郭霖",
        "canEdit": false,
        "chapterId": 409,
        "chapterName": "郭霖",
        "collect": false,
        "courseId": 13,
        "desc": "",
        "descMd": "",
        "envelopePic": "",
        "fresh": false,
        "host": "",
        "id": 28696,
        "isAdminAdd": false,
        "link": "https://mp.weixin.qq.com/s/Uj-jIHmVBqH1pImT5gclSw",
        "niceDate": "2024-07-16 00:00",
        "niceShareDate": "2024-07-17 09:18",
        "origin": "",
        "prefix": "",
        "projectLink": "",
        "publishTime": 1721059200000,
        "realSuperChapterId": 407,
        "selfVisible": 0,
        "shareDate": 1721179135000,
        "shareUser": "",
        "superChapterId": 408,
        "superChapterName": "公众号",
        "tags": [
          {
            "name": "公众号",
            "url": "/wxarticle/list/409/1"
          }
        ],
        "title": "原创：写给初学者的Jetpack Compose教程，高级Layout",
        "type": 0,
        "userId": -1,
        "visible": 1,
        "zan": 0
      },
      {
        "adminAdd": false,
        "apkLink": "",
        "audit": 1,
        "author": "张鸿洋",
        "canEdit": false,
        "chapterId": 543,
        "chapterName": "Android技术周报",
        "collect": false,
        "courseId": 13,
        "desc": "",
        "descMd": "",
        "envelopePic": "",
        "fresh": false,
        "host": "",
        "id": 28687,
        "isAdminAdd": false,
        "link": "https://www.wanandroid.com/blog/show/3673",
        "niceDate": "2024-07-15 00:00",
        "niceShareDate": "2024-07-15 00:10",
        "origin": "",
        "prefix": "",
        "projectLink": "",
        "publishTime": 1720972800000,
        "realSuperChapterId": 542,
        "selfVisible": 0,
        "shareDate": 1720973400000,
        "shareUser": "",
        "superChapterId": 543,
        "superChapterName": "技术周报",
        "tags": [],
        "title": "Android 技术周刊 （2024-07-08 ~ 2024-07-15）",
        "type": 0,
        "userId": -1,
        "visible": 1,
        "zan": 0
      },
      {
        "adminAdd": false,
        "apkLink": "",
        "audit": 1,
        "author": "鸿洋",
        "canEdit": false,
        "chapterId": 408,
        "chapterName": "鸿洋",
        "collect": false,
        "courseId": 13,
        "desc": "",
        "descMd": "",
        "envelopePic": "",
        "fresh": false,
        "host": "",
        "id": 28694,
        "isAdminAdd": false,
        "link": "https://mp.weixin.qq.com/s/NSAZ3xVMU8DNHWIPTmqjTg",
        "niceDate": "2024-07-15 00:00",
        "niceShareDate": "2024-07-17 09:18",
        "origin": "",
        "prefix": "",
        "projectLink": "",
        "publishTime": 1720972800000,
        "realSuperChapterId": 407,
        "selfVisible": 0,
        "shareDate": 1721179108000,
        "shareUser": "",
        "superChapterId": 408,
        "superChapterName": "公众号",
        "tags": [
          {
            "name": "公众号",
            "url": "/wxarticle/list/408/1"
          }
        ],
        "title": "Google CameraX，看这篇文章就够了",
        "type": 0,
        "userId": -1,
        "visible": 1,
        "zan": 0
      },
      {
        "adminAdd": false,
        "apkLink": "",
        "audit": 1,
        "author": "",
        "canEdit": false,
        "chapterId": 502,
        "chapterName": "自助",
        "collect": false,
        "courseId": 13,
        "desc": "",
        "descMd": "",
        "envelopePic": "",
        "fresh": false,
        "host": "",
        "id": 28678,
        "isAdminAdd": false,
        "link": "https://mp.weixin.qq.com/s?__biz=MzA4ODE4MTI1Mg==&amp;mid=2247485628&amp;idx=1&amp;sn=e9dd05adaec2926361e2bd952ecfa257&amp;chksm=902f57d7a758dec1dc2c88398a466df8d7d0caddc0ad736348fa7e3c893586a6589b35e5f987&amp;token=2069298322&amp;lang=zh_CN#rd",
        "niceDate": "2024-07-14 22:10",
        "niceShareDate": "2024-07-14 21:58",
        "origin": "",
        "prefix": "",
        "projectLink": "",
        "publishTime": 1720966226000,
        "realSuperChapterId": 493,
        "selfVisible": 0,
        "shareDate": 1720965489000,
        "shareUser": "鸿洋",
        "superChapterId": 494,
        "superChapterName": "广场Tab",
        "tags": [],
        "title": "你理解useEffect 和 useLayoutEffect的区别吗？",
        "type": 0,
        "userId": 2,
        "visible": 1,
        "zan": 0
      },
      {
        "adminAdd": false,
        "apkLink": "",
        "audit": 1,
        "author": "",
        "canEdit": false,
        "chapterId": 502,
        "chapterName": "自助",
        "collect": false,
        "courseId": 13,
        "desc": "",
        "descMd": "",
        "envelopePic": "",
        "fresh": false,
        "host": "",
        "id": 28679,
        "isAdminAdd": false,
        "link": "https://juejin.cn/post/7390682536744517666",
        "niceDate": "2024-07-14 22:10",
        "niceShareDate": "2024-07-14 22:06",
        "origin": "",
        "prefix": "",
        "projectLink": "",
        "publishTime": 1720966224000,
        "realSuperChapterId": 493,
        "selfVisible": 0,
        "shareDate": 1720966019000,
        "shareUser": "鸿洋",
        "superChapterId": 494,
        "superChapterName": "广场Tab",
        "tags": [],
        "title": "Android高德地图SDK内存泄漏排查记录",
        "type": 0,
        "userId": 2,
        "visible": 1,
        "zan": 0
      },
      {
        "adminAdd": false,
        "apkLink": "",
        "audit": 1,
        "author": "",
        "canEdit": false,
        "chapterId": 502,
        "chapterName": "自助",
        "collect": false,
        "courseId": 13,
        "desc": "",
        "descMd": "",
        "envelopePic": "",
        "fresh": false,
        "host": "",
        "id": 28680,
        "isAdminAdd": false,
        "link": "https://juejin.cn/post/7390659669113126963",
        "niceDate": "2024-07-14 22:10",
        "niceShareDate": "2024-07-14 22:07",
        "origin": "",
        "prefix": "",
        "projectLink": "",
        "publishTime": 1720966222000,
        "realSuperChapterId": 493,
        "selfVisible": 0,
        "shareDate": 1720966027000,
        "shareUser": "鸿洋",
        "superChapterId": 494,
        "superChapterName": "广场Tab",
        "tags": [],
        "title": "Android系统启动-Zygote进程启动过程",
        "type": 0,
        "userId": 2,
        "visible": 1,
        "zan": 0
      },
      {
        "adminAdd": false,
        "apkLink": "",
        "audit": 1,
        "author": "",
        "canEdit": false,
        "chapterId": 502,
        "chapterName": "自助",
        "collect": false,
        "courseId": 13,
        "desc": "",
        "descMd": "",
        "envelopePic": "",
        "fresh": false,
        "host": "",
        "id": 28681,
        "isAdminAdd": false,
        "link": "https://juejin.cn/post/7390671667313557523",
        "niceDate": "2024-07-14 22:10",
        "niceShareDate": "2024-07-14 22:07",
        "origin": "",
        "prefix": "",
        "projectLink": "",
        "publishTime": 1720966221000,
        "realSuperChapterId": 493,
        "selfVisible": 0,
        "shareDate": 1720966038000,
        "shareUser": "鸿洋",
        "superChapterId": 494,
        "superChapterName": "广场Tab",
        "tags": [],
        "title": "Android NativeHook实现WebView无损内录PCM音频",
        "type": 0,
        "userId": 2,
        "visible": 1,
        "zan": 0
      },
      {
        "adminAdd": false,
        "apkLink": "",
        "audit": 1,
        "author": "",
        "canEdit": false,
        "chapterId": 502,
        "chapterName": "自助",
        "collect": false,
        "courseId": 13,
        "desc": "",
        "descMd": "",
        "envelopePic": "",
        "fresh": false,
        "host": "",
        "id": 28682,
        "isAdminAdd": false,
        "link": "https://juejin.cn/post/7390413094444777472",
        "niceDate": "2024-07-14 22:10",
        "niceShareDate": "2024-07-14 22:07",
        "origin": "",
        "prefix": "",
        "projectLink": "",
        "publishTime": 1720966219000,
        "realSuperChapterId": 493,
        "selfVisible": 0,
        "shareDate": 1720966065000,
        "shareUser": "鸿洋",
        "superChapterId": 494,
        "superChapterName": "广场Tab",
        "tags": [],
        "title": "记一次「线程优化」导致的业务异常",
        "type": 0,
        "userId": 2,
        "visible": 1,
        "zan": 0
      }
    ],
    "offset": 80,
    "over": false,
    "pageCount": 782,
    "size": 20,
    "total": 15626
  },
  "errorCode": 0,
  "errorMsg": ""
}