{
  "data": {
    "curPage": 1,
    "datas": [
      {
        "adminAdd": false,
        "apkLink": "",
        "audit": 1,
        "author": "donkingliang",
        "canEdit": false,
        "chapterId": 314,
        "chapterName": "RV列表动效",
        "collect": false,
        "courseId": 13,
        "desc": "GroupedRecyclerViewAdapter可以很方便的实现RecyclerView的分组显示，并且每个组都可以包含组头、组尾和子项；可以方便实现多种Type类型的列表，可以实现如QQ联系人的列表一样的列表展开收起功能，还可以实现头部悬浮吸顶功能等。",
        "descMd": "",
        "envelopePic": "https://www.wanandroid.com/blogimgs/ae1422fd-0227-42a9-9c3c-4e2de5e93c74.png",
        "fresh": false,
        "host": "",
        "id": 13571,
        "isAdminAdd": false,
        "link": "https://www.wanandroid.com/blog/show/2758",
        "niceDate": "2020-05-21 23:01",
        "niceShareDate": "2020-05-21 23:01",
        "origin": "",
        "prefix": "",
        "projectLink": "https://github.com/donkingliang/GroupedRecyclerViewAdapter",
        "publishTime": 1590073317000,
        "realSuperChapterId": 293,
        "selfVisible": 0,
        "shareDate": 1590073317000,
        "shareUser": "",
        "superChapterId": 294,
        "superChapterName": "开源项目主Tab",
        "tags": [
          {
            "name": "项目",
            "url": "/project/list/1?cid=314"
          }
        ],
        "title": "可分组显示和头部吸顶的RecyclerViewAdapter：GroupedRecyclerViewAdapter",
        "type": 0,
        "userId": -1,
        "visible": 1,
        "zan": 0
      },
      {
        "adminAdd": false,
        "apkLink": "",
        "audit": 1,
        "author": "mtjsoft",
        "canEdit": false,
        "chapterId": 314,
        "chapterName": "RV列表动效",
        "collect": false,
        "courseId": 13,
        "desc": "ViewPager结合GridView，轻松实现类似美团首页分类多页展示。也可用于表情面板的展示。链式调用，属性配置，几行代码轻松搞定。",
        "descMd": "",
        "envelopePic": "https://wanandroid.com/blogimgs/e8fbd828-33c3-4af6-876f-c898408ee7e9.png",
        "fresh": false,
        "host": "",
        "id": 8976,
        "isAdminAdd": false,
        "link": "https://www.wanandroid.com/blog/show/2649",
        "niceDate": "2019-08-16 00:37",
        "niceShareDate": "未知时间",
        "origin": "",
        "prefix": "",
        "projectLink": "https://github.com/mtjsoft/GridPager",
        "publishTime": 1565887076000,
        "realSuperChapterId": 293,
        "selfVisible": 0,
        "shareDate": null,
        "shareUser": "",
        "superChapterId": 294,
        "superChapterName": "开源项目主Tab",
        "tags": [
          {
            "name": "项目",
            "url": "/project/list/1?cid=314"
          }
        ],
        "title": "GridPager组件，短短几行代码即可实现首页分类多页展示",
        "type": 0,
        "userId": -1,
        "visible": 1,
        "zan": 0
      },
      {
        "adminAdd": false,
        "apkLink": "",
        "audit": 1,
        "author": "ljphawk",
        "canEdit": false,
        "chapterId": 314,
        "chapterName": "RV列表动效",
        "collect": false,
        "courseId": 13,
        "desc": "一个零耦合的侧滑菜单，支持RecyclerView、ListView、GridView等不同条目布局，支持菜单在左或在右，可选滑动阻塞，是否禁用等功能\r\n",
        "descMd": "",
        "envelopePic": "https://wanandroid.com/blogimgs/e286419c-d291-4956-87d8-236e06151142.png",
        "fresh": false,
        "host": "",
        "id": 8651,
        "isAdminAdd": false,
        "link": "https://www.wanandroid.com/blog/show/2614",
        "niceDate": "2019-06-28 21:45",
        "niceShareDate": "未知时间",
        "origin": "",
        "prefix": "",
        "projectLink": "https://github.com/ljphawk/SwipeMenuLayout",
        "publishTime": 1561729538000,
        "realSuperChapterId": 293,
        "selfVisible": 0,
        "shareDate": null,
        "shareUser": "",
        "superChapterId": 294,
        "superChapterName": "开源项目主Tab",
        "tags": [
          {
            "name": "项目",
            "url": "/project/list/1?cid=314"
          }
        ],
        "title": "一个零耦合的侧滑菜单 SwipeMenuLayout",
        "type": 0,
        "userId": -1,
        "visible": 1,
        "zan": 0
      },
      {
        "adminAdd": false,
        "apkLink": "",
        "audit": 1,
        "author": "yangchong211",
        "canEdit": false,
        "chapterId": 314,
        "chapterName": "RV列表动效",
        "collect": false,
        "courseId": 13,
        "desc": "自定义支持上拉加载更多，下拉刷新，可以自定义头部和底部，可以添加多个headerView和footerView，使用一个原生recyclerView就可以搞定复杂界面。支持自由切换状态【加载中，加载成功，加载失败，没网络等状态】的控件，可以自定义状态视图View。拓展功能【支持长按拖拽，侧滑删除】，轻量级，可以选择性添加 。",
        "descMd": "",
        "envelopePic": "https://www.wanandroid.com/blogimgs/7b1dce16-6095-4539-a504-8ec6f3ab32b6.png",
        "fresh": false,
        "host": "",
        "id": 8549,
        "isAdminAdd": false,
        "link": "https://www.wanandroid.com/blog/show/2600",
        "niceDate": "2019-06-01 10:53",
        "niceShareDate": "未知时间",
        "origin": "",
        "prefix": "",
        "projectLink": "https://github.com/yangchong211/YCRefreshView",
        "publishTime": 1559357583000,
        "realSuperChapterId": 293,
        "selfVisible": 0,
        "shareDate": null,
        "shareUser": "",
        "superChapterId": 294,
        "superChapterName": "开源项目主Tab",
        "tags": [
          {
            "name": "项目",
            "url": "/project/list/1?cid=314"
          }
        ],
        "title": "复杂type封装库，支持上拉加载下拉刷新，支持多种不同状态管理切换",
        "type": 0,
        "userId": -1,
        "visible": 1,
        "zan": 0
      },
      {
        "adminAdd": false,
        "apkLink": "",
        "audit": 1,
        "author": "SilenceDut",
        "canEdit": false,
        "chapterId": 314,
        "chapterName": "RV列表动效",
        "collect": false,
        "courseId": 13,
        "desc": "根据实际项目中各种复杂的列表需求，解决DiffUtil使用不便，易出错而实现的一个高效，高性能的列表库 ，侵入性低，致力于将列表需求的开发精力用于具体的Item Holder上。 使用DiffUtil作为来做更小更新，屏蔽外部调用DiffUtil的接口。 不用自己去实现Adapter来管理数据和Holder之间的关系，不用考虑DiffUtil的实现细节,就能快速的开发出一个高性能的复杂列表需求",
        "descMd": "",
        "envelopePic": "https://wanandroid.com/blogimgs/2eeeb4a6-b69a-41d2-8299-0907f948cbb4.png",
        "fresh": false,
        "host": "",
        "id": 8506,
        "isAdminAdd": false,
        "link": "https://www.wanandroid.com/blog/show/2582",
        "niceDate": "2019-05-28 20:02",
        "niceShareDate": "未知时间",
        "origin": "",
        "prefix": "",
        "projectLink": "https://github.com/SilenceDut/diffadapter",
        "publishTime": 1559044921000,
        "realSuperChapterId": 293,
        "selfVisible": 0,
        "shareDate": null,
        "shareUser": "",
        "superChapterId": 294,
        "superChapterName": "开源项目主Tab",
        "tags": [
          {
            "name": "项目",
            "url": "/project/list/1?cid=314"
          }
        ],
        "title": "一款针对RecyclerView高效刷新，多类型列表，异步数据更新，崩溃等各种复杂难处理场景的高性能易用的列表库",
        "type": 0,
        "userId": -1,
        "visible": 1,
        "zan": 0
      },
      {
        "adminAdd": false,
        "apkLink": "",
        "audit": 1,
        "author": "KunMinX",
        "canEdit": false,
        "chapterId": 314,
        "chapterName": "RV列表动效",
        "collect": false,
        "courseId": 13,
        "desc": "LinkageRecyclerView 是一款基于 MVP 架构开发的二级联动列表控件。它是因 &ldquo;RxJava 魔法师&rdquo; 这个项目的需求而存在。\r\n\r\n在更初寻遍了 GitHub 也没有找到合适的开源库（高度解耦、可远程依赖）之后，我决心研究参考现有开源项目关于二级联动的逻辑，并自己动手编写一个 高度解耦、轻松配置、可通过 maven 仓库远程依赖 的真正的第三方库。",
        "descMd": "",
        "envelopePic": "https://www.wanandroid.com/blogimgs/d558e93b-ac6c-4ae4-ae12-3b35326cef18.png",
        "fresh": false,
        "host": "",
        "id": 8392,
        "isAdminAdd": false,
        "link": "https://www.wanandroid.com/blog/show/2564",
        "niceDate": "2019-05-12 22:04",
        "niceShareDate": "未知时间",
        "origin": "",
        "prefix": "",
        "projectLink": "https://github.com/KunMinX/Linkage-RecyclerView",
        "publishTime": 1557669888000,
        "realSuperChapterId": 293,
        "selfVisible": 0,
        "shareDate": null,
        "shareUser": "",
        "superChapterId": 294,
        "superChapterName": "开源项目主Tab",
        "tags": [
          {
            "name": "项目",
            "url": "/project/list/1?cid=314"
          }
        ],
        "title": "Linkage-RecyclerView：即使不用饿了么，也请不要错过这个库！",
        "type": 0,
        "userId": -1,
        "visible": 1,
        "zan": 0
      },
      {
        "adminAdd": false,
        "apkLink": "",
        "audit": 1,
        "author": "xuehuayous",
        "canEdit": false,
        "chapterId": 314,
        "chapterName": "RV列表动效",
        "collect": false,
        "courseId": 13,
        "desc": "一种优雅的方式来使用RecyclerView，把你从复杂的多类型多样式中解放出来！",
        "descMd": "",
        "envelopePic": "http://wanandroid.com/blogimgs/1d6ed12c-1507-4826-878a-3737dff82daa.png",
        "fresh": false,
        "host": "",
        "id": 7592,
        "isAdminAdd": false,
        "link": "https://www.wanandroid.com/blog/show/2439",
        "niceDate": "2018-11-29 21:14",
        "niceShareDate": "未知时间",
        "origin": "",
        "prefix": "",
        "projectLink": "https://github.com/xuehuayous/DelegationAdapter",
        "publishTime": 1543497285000,
        "realSuperChapterId": 293,
        "selfVisible": 0,
        "shareDate": null,
        "shareUser": "",
        "superChapterId": 294,
        "superChapterName": "开源项目主Tab",
        "tags": [
          {
            "name": "项目",
            "url": "/project/list/1?cid=314"
          }
        ],
        "title": "一种优雅的方式来使用RecyclerView",
        "type": 0,
        "userId": -1,
        "visible": 1,
        "zan": 0
      },
      {
        "adminAdd": false,
        "apkLink": "",
        "audit": 1,
        "author": "wuyr",
        "canEdit": false,
        "chapterId": 314,
        "chapterName": "RV列表动效",
        "collect": false,
        "courseId": 13,
        "desc": "一个可以跟随Path滚动的LayoutManager，轻松实现特殊的滑动效果。",
        "descMd": "",
        "envelopePic": "http://wanandroid.com/blogimgs/7b29181a-b578-469f-8c97-ac7b5a37e297.png",
        "fresh": false,
        "host": "",
        "id": 7418,
        "isAdminAdd": false,
        "link": "https://www.wanandroid.com/blog/show/2406",
        "niceDate": "2018-10-28 18:16",
        "niceShareDate": "未知时间",
        "origin": "",
        "prefix": "",
        "projectLink": "https://github.com/wuyr/PathLayoutManager",
        "publishTime": 1540721768000,
        "realSuperChapterId": 293,
        "selfVisible": 0,
        "shareDate": null,
        "shareUser": "",
        "superChapterId": 294,
        "superChapterName": "开源项目主Tab",
        "tags": [
          {
            "name": "项目",
            "url": "/project/list/1?cid=314"
          }
        ],
        "title": "Android自定义LayoutManager第十一式之飞龙在天 PathLayoutManager",
        "type": 0,
        "userId": -1,
        "visible": 1,
        "zan": 0
      },
      {
        "adminAdd": false,
        "apkLink": "",
        "audit": 1,
        "author": "lovejjfg",
        "canEdit": false,
        "chapterId": 314,
        "chapterName": "RV列表动效",
        "collect": false,
        "courseId": 13,
        "desc": "支持加载更多，单选多选等等的 RecyclerView 封装。",
        "descMd": "",
        "envelopePic": "http://wanandroid.com/blogimgs/c3f1a42c-be55-4381-98d9-85e69018e3a7.png",
        "fresh": false,
        "host": "",
        "id": 3416,
        "isAdminAdd": false,
        "link": "https://www.wanandroid.com/blog/show/2361",
        "niceDate": "2018-09-18 19:29",
        "niceShareDate": "未知时间",
        "origin": "",
        "prefix": "",
        "projectLink": "https://github.com/lovejjfg/PowerRecyclerView",
        "publishTime": 1537270199000,
        "realSuperChapterId": 293,
        "selfVisible": 0,
        "shareDate": null,
        "shareUser": "",
        "superChapterId": 294,
        "superChapterName": "开源项目主Tab",
        "tags": [
          {
            "name": "项目",
            "url": "/project/list/1?cid=314"
          }
        ],
        "title": "PowerRecyclerView",
        "type": 0,
        "userId": -1,
        "visible": 0,
        "zan": 0
      },
      {
        "adminAdd": false,
        "apkLink": "",
        "audit": 1,
        "author": "CameloeAnthony",
        "canEdit": false,
        "chapterId": 314,
        "chapterName": "RV列表动效",
        "collect": false,
        "courseId": 13,
        "desc": "各种RecyclerView的效果",
        "descMd": "",
        "envelopePic": "http://www.wanandroid.com/blogimgs/1dfb4db5-77b9-4053-9ad6-46b98a39c419.png",
        "fresh": false,
        "host": "",
        "id": 3361,
        "isAdminAdd": false,
        "link": "https://www.wanandroid.com/blog/show/2328",
        "niceDate": "2018-09-06 23:11",
        "niceShareDate": "未知时间",
        "origin": "",
        "prefix": "",
        "projectLink": "https://github.com/CameloeAnthony/Learning-RecyclerView",
        "publishTime": 1536246702000,
        "realSuperChapterId": 293,
        "selfVisible": 0,
        "shareDate": null,
        "shareUser": "",
        "superChapterId": 294,
        "superChapterName": "开源项目主Tab",
        "tags": [
          {
            "name": "项目",
            "url": "/project/list/1?cid=314"
          }
        ],
        "title": "RecyclerView的集合 Learning-RecyclerView",
        "type": 0,
        "userId": -1,
        "visible": 1,
        "zan": 0
      },
      {
        "adminAdd": false,
        "apkLink": "",
        "audit": 1,
        "author": "zhou-you",
        "canEdit": false,
        "chapterId": 314,
        "chapterName": "RV列表动效",
        "collect": false,
        "courseId": 13,
        "desc": "主要提供了简单易用强大的RecyclerView库，包括自定义刷新加载效果、极简通用的万能适配器Adapter、万能分割线、多种分组效果、常见状态页面、item动画效果、添加多个header和footer、侧滑、拖拽、Sticky（黏性）效果、多item布局等,各模块之间灵活、解耦、通用、又能相互组合使用。",
        "descMd": "",
        "envelopePic": "http://www.wanandroid.com/blogimgs/1f4e29ce-34ef-4e68-bb4a-61714b14a28a.png",
        "fresh": false,
        "host": "",
        "id": 3102,
        "isAdminAdd": false,
        "link": "https://www.wanandroid.com/blog/show/2198",
        "niceDate": "2018-07-03 19:27",
        "niceShareDate": "未知时间",
        "origin": "",
        "prefix": "",
        "projectLink": "https://github.com/zhou-you/EasyXRecyclerView",
        "publishTime": 1530617245000,
        "realSuperChapterId": 293,
        "selfVisible": 0,
        "shareDate": null,
        "shareUser": "",
        "superChapterId": 294,
        "superChapterName": "开源项目主Tab",
        "tags": [
          {
            "name": "项目",
            "url": "/project/list/1?cid=314"
          }
        ],
        "title": "EasyXRecyclerView库基于RecyclerView的终极封装",
        "type": 0,
        "userId": -1,
        "visible": 1,
        "zan": 0
      },
      {
        "adminAdd": false,
        "apkLink": "",
        "audit": 1,
        "author": "Loren1994",
        "canEdit": false,
        "chapterId": 314,
        "chapterName": "RV列表动效",
        "collect": false,
        "courseId": 13,
        "desc": "这是封装的带分类Recyclerview的Adapter，主要解决项目中分类列表繁琐的重复劳动。\r\n\r\n",
        "descMd": "",
        "envelopePic": "http://www.wanandroid.com/blogimgs/879cffaa-97d6-456b-bf9b-b7e6a176cf0e.png",
        "fresh": false,
        "host": "",
        "id": 3033,
        "isAdminAdd": false,
        "link": "https://www.wanandroid.com/blog/show/2162",
        "niceDate": "2018-06-22 16:34",
        "niceShareDate": "未知时间",
        "origin": "",
        "prefix": "",
        "projectLink": "https://github.com/Loren1994/UniversalTypeRecyclerView",
        "publishTime": 1529656448000,
        "realSuperChapterId": 293,
        "selfVisible": 0,
        "shareDate": null,
        "shareUser": "",
        "superChapterId": 294,
        "superChapterName": "开源项目主Tab",
        "tags": [
          {
            "name": "项目",
            "url": "/project/list/1?cid=314"
          }
        ],
        "title": "封装带分类的RecyclerViewAdapter UniversalTypeRecyclerView",
        "type": 0,
        "userId": -1,
        "visible": 1,
        "zan": 0
      },
      {
        "adminAdd": false,
        "apkLink": "",
        "audit": 1,
        "author": "whatshappen",
        "canEdit": false,
        "chapterId": 314,
        "chapterName": "RV列表动效",
        "collect": false,
        "courseId": 13,
        "desc": "仿网易新闻新版频道管理功能，实现item的拖拽，添加，长按删除等",
        "descMd": "",
        "envelopePic": "http://www.wanandroid.com/blogimgs/13bbc72d-70ed-41cf-80e8-af4441881293.gif",
        "fresh": false,
        "host": "",
        "id": 3026,
        "isAdminAdd": false,
        "link": "https://www.wanandroid.com/blog/show/2159",
        "niceDate": "2018-06-19 19:42",
        "niceShareDate": "未知时间",
        "origin": "",
        "prefix": "",
        "projectLink": "https://github.com/whatshappen/TopGrid",
        "publishTime": 1529408557000,
        "realSuperChapterId": 293,
        "selfVisible": 0,
        "shareDate": null,
        "shareUser": "",
        "superChapterId": 294,
        "superChapterName": "开源项目主Tab",
        "tags": [
          {
            "name": "项目",
            "url": "/project/list/1?cid=314"
          }
        ],
        "title": "高仿网易新闻新版频道管理功能 TopGrid",
        "type": 0,
        "userId": -1,
        "visible": 0,
        "zan": 0
      },
      {
        "adminAdd": false,
        "apkLink": "",
        "audit": 1,
        "author": "DingMouRen",
        "canEdit": false,
        "chapterId": 314,
        "chapterName": "RV列表动效",
        "collect": false,
        "courseId": 13,
        "desc": "自定义LayoutManager，炫酷列表\r\n",
        "descMd": "",
        "envelopePic": "http://www.wanandroid.com/blogimgs/fed9800b-3c6b-49b8-91bf-4ff48755425a.gif",
        "fresh": false,
        "host": "",
        "id": 2959,
        "isAdminAdd": false,
        "link": "https://www.wanandroid.com/blog/show/2143",
        "niceDate": "2018-05-29 22:21",
        "niceShareDate": "未知时间",
        "origin": "",
        "prefix": "",
        "projectLink": "https://github.com/DingMouRen/LayoutManagerGroup",
        "publishTime": 1527603664000,
        "realSuperChapterId": 293,
        "selfVisible": 0,
        "shareDate": null,
        "shareUser": "",
        "superChapterId": 294,
        "superChapterName": "开源项目主Tab",
        "tags": [
          {
            "name": "项目",
            "url": "/project/list/1?cid=314"
          }
        ],
        "title": "炫酷列表 LayoutManagerGroup",
        "type": 0,
        "userId": -1,
        "visible": 1,
        "zan": 0
      },
      {
        "adminAdd": false,
        "apkLink": "",
        "audit": 1,
        "author": "xiangcman",
        "canEdit": false,
        "chapterId": 314,
        "chapterName": "RV列表动效",
        "collect": false,
        "courseId": 13,
        "desc": "快速利用RecyclerView的LayoutManager搭建流式布局  ",
        "descMd": "",
        "envelopePic": "http://www.wanandroid.com/blogimgs/36badc79-fb1e-460e-8368-6898c16ba723.png",
        "fresh": false,
        "host": "",
        "id": 2829,
        "isAdminAdd": false,
        "link": "https://www.wanandroid.com/blog/show/2112",
        "niceDate": "2018-04-18 19:40",
        "niceShareDate": "未知时间",
        "origin": "",
        "prefix": "",
        "projectLink": "https://github.com/xiangcman/LayoutManager-FlowLayout",
        "publishTime": 1524051620000,
        "realSuperChapterId": 293,
        "selfVisible": 0,
        "shareDate": null,
        "shareUser": "",
        "superChapterId": 294,
        "superChapterName": "开源项目主Tab",
        "tags": [
          {
            "name": "项目",
            "url": "/project/list/1?cid=314"
          }
        ],
        "title": "快速利用RecyclerView的LayoutManager搭建流式布局",
        "type": 0,
        "userId": -1,
        "visible": 1,
        "zan": 0
      }
    ],
    "offset": 0,
    "over": false,
    "pageCount": 2,
    "size": 15,
    "total": 17
  },
  "errorCode": 0,
  "errorMsg": ""
}