{
  "data": {
    "curPage": 1,
    "datas": [
      {
        "adminAdd": false,
        "apkLink": "",
        "audit": 1,
        "author": "yangkun19921001",
        "canEdit": false,
        "chapterId": 367,
        "chapterName": "资源聚合类",
        "collect": false,
        "courseId": 13,
        "desc": "疫情一过，我相信将会是面试求职的高峰时期，如果此时手里有份高质量的面试宝典，那么你将得心应手面对考官各种问题。虽然不敢保证你能应聘上心仪的职位，但是能保证看完这些内容你的收获将超乎你的想象! 此份面试宝典搜集各大网络平台(如果侵权，请您告知)，在此感谢他们的用心总结，才有这份足够全面的面试宝典！",
        "descMd": "",
        "envelopePic": "https://www.wanandroid.com/resources/image/pc/default_project_img.jpg",
        "fresh": false,
        "host": "",
        "id": 12460,
        "isAdminAdd": false,
        "link": "https://www.wanandroid.com/blog/show/2722",
        "niceDate": "2020-03-17 23:42",
        "niceShareDate": "2020-03-17 23:42",
        "origin": "",
        "prefix": "",
        "projectLink": "https://github.com/yangkun19921001/Blog",
        "publishTime": 1584459753000,
        "realSuperChapterId": 293,
        "selfVisible": 0,
        "shareDate": 1584459753000,
        "shareUser": "",
        "superChapterId": 294,
        "superChapterName": "开源项目主Tab",
        "tags": [
          {
            "name": "项目",
            "url": "/project/list/1?cid=367"
          }
        ],
        "title": "面向 Android 高级工程师的一份面试宝典 (持续更新)",
        "type": 0,
        "userId": -1,
        "visible": 1,
        "zan": 0
      },
      {
        "adminAdd": false,
        "apkLink": "",
        "audit": 1,
        "author": "gs666",
        "canEdit": false,
        "chapterId": 367,
        "chapterName": "资源聚合类",
        "collect": false,
        "courseId": 13,
        "desc": "在 2019 成为一名 Android 开发者的路线图。\r\n\r\n本项目是受developer-roadmap启发，旨在为 Android 开发者或初学者提供一份可以参考的完整路线图。",
        "descMd": "",
        "envelopePic": "https://www.wanandroid.com/resources/image/pc/default_project_img.jpg",
        "fresh": false,
        "host": "",
        "id": 10430,
        "isAdminAdd": false,
        "link": "https://www.wanandroid.com/blog/show/2708",
        "niceDate": "2019-11-22 00:15",
        "niceShareDate": "2019-11-22 00:15",
        "origin": "",
        "prefix": "",
        "projectLink": "https://github.com/gs666/android-developer-roadmap-cn",
        "publishTime": 1574352907000,
        "realSuperChapterId": 293,
        "selfVisible": 0,
        "shareDate": 1574352907000,
        "shareUser": "",
        "superChapterId": 294,
        "superChapterName": "开源项目主Tab",
        "tags": [
          {
            "name": "项目",
            "url": "/project/list/1?cid=367"
          }
        ],
        "title": "android-developer-roadmap-cn",
        "type": 0,
        "userId": -1,
        "visible": 1,
        "zan": 0
      },
      {
        "adminAdd": false,
        "apkLink": "",
        "audit": 1,
        "author": "AlanCheen",
        "canEdit": false,
        "chapterId": 367,
        "chapterName": "资源聚合类",
        "collect": false,
        "courseId": 13,
        "desc": "阿里内推指南",
        "descMd": "",
        "envelopePic": "https://www.wanandroid.com/resources/image/pc/default_project_img.jpg",
        "fresh": false,
        "host": "",
        "id": 9866,
        "isAdminAdd": false,
        "link": "https://www.wanandroid.com/blog/show/2697",
        "niceDate": "2019-10-21 23:25",
        "niceShareDate": "2019-10-21 23:25",
        "origin": "",
        "prefix": "",
        "projectLink": "https://github.com/AlanCheen/Alibaba-Nei-Tui-Guide",
        "publishTime": 1571671553000,
        "realSuperChapterId": 293,
        "selfVisible": 0,
        "shareDate": 1571671553000,
        "shareUser": "",
        "superChapterId": 294,
        "superChapterName": "开源项目主Tab",
        "tags": [
          {
            "name": "项目",
            "url": "/project/list/1?cid=367"
          }
        ],
        "title": "《阿里内推指南》",
        "type": 0,
        "userId": -1,
        "visible": 1,
        "zan": 0
      },
      {
        "adminAdd": false,
        "apkLink": "",
        "audit": 1,
        "author": "maoqitian",
        "canEdit": false,
        "chapterId": 367,
        "chapterName": "资源聚合类",
        "collect": false,
        "courseId": 13,
        "desc": "个人成长知识体系总结与分享，每天进步一点点，Passion，Self-regulation，Love and Share\r\n",
        "descMd": "",
        "envelopePic": "https://www.wanandroid.com/resources/image/pc/default_project_img.jpg",
        "fresh": false,
        "host": "",
        "id": 9110,
        "isAdminAdd": false,
        "link": "https://www.wanandroid.com/blog/show/2674",
        "niceDate": "2019-09-09 23:51",
        "niceShareDate": "未知时间",
        "origin": "",
        "prefix": "",
        "projectLink": "https://github.com/maoqitian/Nice-Knowledge-System",
        "publishTime": 1568044268000,
        "realSuperChapterId": 293,
        "selfVisible": 0,
        "shareDate": null,
        "shareUser": "",
        "superChapterId": 294,
        "superChapterName": "开源项目主Tab",
        "tags": [
          {
            "name": "项目",
            "url": "/project/list/1?cid=367"
          }
        ],
        "title": "个人成长知识体系总结与分享，每天进步一点点",
        "type": 0,
        "userId": -1,
        "visible": 1,
        "zan": 0
      },
      {
        "adminAdd": false,
        "apkLink": "",
        "audit": 1,
        "author": "hyzhan43",
        "canEdit": false,
        "chapterId": 367,
        "chapterName": "资源聚合类",
        "collect": false,
        "courseId": 13,
        "desc": "KtArmor 寓意着 为Android 赋予战斗装甲, 方便开发者快速进行Android 开发。节约开发者开发时间。",
        "descMd": "",
        "envelopePic": "https://wanandroid.com/resources/image/pc/default_project_img.jpg",
        "fresh": false,
        "host": "",
        "id": 8979,
        "isAdminAdd": false,
        "link": "https://www.wanandroid.com/blog/show/2652",
        "niceDate": "2019-08-16 00:43",
        "niceShareDate": "未知时间",
        "origin": "",
        "prefix": "",
        "projectLink": "https://github.com/hyzhan43/KtArmor",
        "publishTime": 1565887424000,
        "realSuperChapterId": 293,
        "selfVisible": 0,
        "shareDate": null,
        "shareUser": "",
        "superChapterId": 294,
        "superChapterName": "开源项目主Tab",
        "tags": [
          {
            "name": "项目",
            "url": "/project/list/1?cid=367"
          }
        ],
        "title": "Kotlin的魔能机甲&mdash;&mdash;KtArmor",
        "type": 0,
        "userId": -1,
        "visible": 0,
        "zan": 0
      },
      {
        "adminAdd": false,
        "apkLink": "",
        "audit": 1,
        "author": "AICareless",
        "canEdit": false,
        "chapterId": 367,
        "chapterName": "资源聚合类",
        "collect": false,
        "courseId": 13,
        "desc": "AopArms编写了Android开发中常用的一套注解，如日志、异步处理、缓存、SP、延迟操作、定时任务、重试机制、try-catch安全机制、过滤频繁点击、拦截等，后续还会有更多更强大的注解功能加入\r\n",
        "descMd": "",
        "envelopePic": "https://wanandroid.com/resources/image/pc/default_project_img.jpg",
        "fresh": false,
        "host": "",
        "id": 8719,
        "isAdminAdd": false,
        "link": "https://www.wanandroid.com/blog/show/2626",
        "niceDate": "2019-07-23 16:18",
        "niceShareDate": "未知时间",
        "origin": "",
        "prefix": "",
        "projectLink": "https://github.com/AICareless/AopArms",
        "publishTime": 1563869938000,
        "realSuperChapterId": 293,
        "selfVisible": 0,
        "shareDate": null,
        "shareUser": "",
        "superChapterId": 294,
        "superChapterName": "开源项目主Tab",
        "tags": [
          {
            "name": "项目",
            "url": "/project/list/1?cid=367"
          }
        ],
        "title": "AopArms一款基于AOP的Android注解框架",
        "type": 0,
        "userId": -1,
        "visible": 1,
        "zan": 0
      },
      {
        "adminAdd": false,
        "apkLink": "",
        "audit": 1,
        "author": "lulululbj",
        "canEdit": false,
        "chapterId": 367,
        "chapterName": "资源聚合类",
        "collect": false,
        "courseId": 13,
        "desc": "该类库利用 Kotlin 语言特性合理封装了 Android 开发中的常用操作，同时也收集了开发过程中的常用工具类。 旨在做同样的事情，写更少的代码，提升开发效率。",
        "descMd": "",
        "envelopePic": "https://wanandroid.com/resources/image/pc/default_project_img.jpg",
        "fresh": false,
        "host": "",
        "id": 8716,
        "isAdminAdd": false,
        "link": "https://www.wanandroid.com/blog/show/2623",
        "niceDate": "2019-07-23 16:15",
        "niceShareDate": "未知时间",
        "origin": "",
        "prefix": "",
        "projectLink": "https://github.com/lulululbj/AndroidUtilCodeKTX",
        "publishTime": 1563869719000,
        "realSuperChapterId": 293,
        "selfVisible": 0,
        "shareDate": null,
        "shareUser": "",
        "superChapterId": 294,
        "superChapterName": "开源项目主Tab",
        "tags": [
          {
            "name": "项目",
            "url": "/project/list/1?cid=367"
          }
        ],
        "title": "AndroidUtilCodeKTX ！是时候提升你的开发效率了 ！(持续更新中...)",
        "type": 0,
        "userId": -1,
        "visible": 1,
        "zan": 0
      },
      {
        "adminAdd": false,
        "apkLink": "",
        "audit": 1,
        "author": "maoruibin",
        "canEdit": false,
        "chapterId": 367,
        "chapterName": "资源聚合类",
        "collect": false,
        "courseId": 13,
        "desc": "柳叶清单是自己开发的一个 Web 清单应用，目前网页版已经上线运行，地址如下:\r\nhttp://gudong.name/list\r\n于此同时，为了方便其他开发者使用清单服务，现在开放了部分 API，以便大家开发自己的 Todo 应用或者 demo 小程序。",
        "descMd": "",
        "envelopePic": "https://wanandroid.com/blogimgs/a9c53e27-c9c2-4afc-b32f-d5f6d4e8d4da.png",
        "fresh": false,
        "host": "",
        "id": 8505,
        "isAdminAdd": false,
        "link": "https://www.wanandroid.com/blog/show/2581",
        "niceDate": "2019-05-28 20:02",
        "niceShareDate": "未知时间",
        "origin": "",
        "prefix": "",
        "projectLink": "https://github.com/maoruibin/liuye",
        "publishTime": 1559044969000,
        "realSuperChapterId": 293,
        "selfVisible": 0,
        "shareDate": null,
        "shareUser": "",
        "superChapterId": 294,
        "superChapterName": "开源项目主Tab",
        "tags": [
          {
            "name": "项目",
            "url": "/project/list/1?cid=367"
          }
        ],
        "title": "又一个开放清单 API ，拿着 API 去玩耍吧...",
        "type": 0,
        "userId": -1,
        "visible": 1,
        "zan": 0
      },
      {
        "adminAdd": false,
        "apkLink": "",
        "audit": 1,
        "author": "pengMaster",
        "canEdit": false,
        "chapterId": 367,
        "chapterName": "资源聚合类",
        "collect": false,
        "courseId": 13,
        "desc": "自己总结的比较全面的知识点和面试",
        "descMd": "",
        "envelopePic": "https://www.wanandroid.com/resources/image/pc/default_project_img.jpg",
        "fresh": false,
        "host": "",
        "id": 8251,
        "isAdminAdd": false,
        "link": "https://www.wanandroid.com/blog/show/2544",
        "niceDate": "2019-04-15 22:53",
        "niceShareDate": "未知时间",
        "origin": "",
        "prefix": "",
        "projectLink": "https://github.com/pengMaster/BestNote",
        "publishTime": 1555340011000,
        "realSuperChapterId": 293,
        "selfVisible": 0,
        "shareDate": null,
        "shareUser": "",
        "superChapterId": 294,
        "superChapterName": "开源项目主Tab",
        "tags": [
          {
            "name": "项目",
            "url": "/project/list/1?cid=367"
          }
        ],
        "title": "Java Android学习/面试指南",
        "type": 0,
        "userId": -1,
        "visible": 1,
        "zan": 0
      },
      {
        "adminAdd": false,
        "apkLink": "",
        "audit": 1,
        "author": "leavesC",
        "canEdit": false,
        "chapterId": 367,
        "chapterName": "资源聚合类",
        "collect": false,
        "courseId": 13,
        "desc": "这是一份关于 Android、Java、Kotlin 的学习笔记，既包含对基础知识点的介绍，也包含对一些重要知识点的源码解析，希望对你也有所帮助",
        "descMd": "",
        "envelopePic": "https://www.wanandroid.com/resources/image/pc/default_project_img.jpg",
        "fresh": false,
        "host": "",
        "id": 8080,
        "isAdminAdd": false,
        "link": "https://www.wanandroid.com/blog/show/2530",
        "niceDate": "2019-03-18 23:33",
        "niceShareDate": "未知时间",
        "origin": "",
        "prefix": "",
        "projectLink": "https://github.com/leavesC/Java_Kotlin_Android_Learn",
        "publishTime": 1552923208000,
        "realSuperChapterId": 293,
        "selfVisible": 0,
        "shareDate": null,
        "shareUser": "",
        "superChapterId": 294,
        "superChapterName": "开源项目主Tab",
        "tags": [
          {
            "name": "项目",
            "url": "/project/list/1?cid=367"
          }
        ],
        "title": "这是一份关于 Java 、Kotlin 、 Android 的学习笔记",
        "type": 0,
        "userId": -1,
        "visible": 1,
        "zan": 0
      },
      {
        "adminAdd": false,
        "apkLink": "",
        "audit": 1,
        "author": "JsonChao",
        "canEdit": false,
        "chapterId": 367,
        "chapterName": "资源聚合类",
        "collect": false,
        "courseId": 13,
        "desc": "众所周知，优秀源码的阅读与理解是更能提升自身功力的途径，如果想要成为一名优秀的Android工程师，那么Android优秀三方库源码的分析和理解则是必备技能。因此，为了将知识成体系地聚合起来，笔者创建了Awesome-Third-Library-Source-Analysis这个项目，为的就是让每一个Android工程师能够从以下七方面全方位地提升自己。",
        "descMd": "",
        "envelopePic": "https://www.wanandroid.com/blogimgs/c594ebf4-d89e-4b7c-9b10-7c1c4cab588f.png",
        "fresh": false,
        "host": "",
        "id": 8036,
        "isAdminAdd": false,
        "link": "https://www.wanandroid.com/blog/show/2520",
        "niceDate": "2019-03-11 23:31",
        "niceShareDate": "未知时间",
        "origin": "",
        "prefix": "",
        "projectLink": "https://github.com/JsonChao/Awesome-Third-Library-Source-Analysis",
        "publishTime": 1552318277000,
        "realSuperChapterId": 293,
        "selfVisible": 0,
        "shareDate": null,
        "shareUser": "",
        "superChapterId": 294,
        "superChapterName": "开源项目主Tab",
        "tags": [
          {
            "name": "项目",
            "url": "/project/list/1?cid=367"
          }
        ],
        "title": "Awesome-Third-Library-Source-Analysis",
        "type": 0,
        "userId": -1,
        "visible": 1,
        "zan": 0
      },
      {
        "adminAdd": false,
        "apkLink": "",
        "audit": 1,
        "author": "yangchong211",
        "canEdit": false,
        "chapterId": 367,
        "chapterName": "资源聚合类",
        "collect": false,
        "courseId": 13,
        "desc": "注解学习小案例，比较系统性学习注解并且应用实践。简单应用了运行期注解，通过注解实现了setContentView功能；简单应用了编译器注解，通过注解实现了防暴力点击的功能，同时支持设置时间间隔；使用注解替代枚举；使用注解一步步搭建简单路由案例。结合相应的博客，在来一些小案例，从此应该对注解有更加深入的理解&hellip;&hellip; ",
        "descMd": "",
        "envelopePic": "http://www.wanandroid.com/resources/image/pc/default_project_img.jpg",
        "fresh": false,
        "host": "",
        "id": 7992,
        "isAdminAdd": false,
        "link": "https://www.wanandroid.com/blog/show/2507",
        "niceDate": "2019-02-28 23:32",
        "niceShareDate": "未知时间",
        "origin": "",
        "prefix": "",
        "projectLink": "https://github.com/yangchong211/YCApt",
        "publishTime": 1551367932000,
        "realSuperChapterId": 293,
        "selfVisible": 0,
        "shareDate": null,
        "shareUser": "",
        "superChapterId": 294,
        "superChapterName": "开源项目主Tab",
        "tags": [
          {
            "name": "项目",
            "url": "/project/list/1?cid=367"
          }
        ],
        "title": "关于apt方案实践与探索，一步步实现路由框架【20篇博客】",
        "type": 0,
        "userId": -1,
        "visible": 1,
        "zan": 0
      },
      {
        "adminAdd": false,
        "apkLink": "",
        "audit": 1,
        "author": "979451341",
        "canEdit": false,
        "chapterId": 367,
        "chapterName": "资源聚合类",
        "collect": false,
        "courseId": 13,
        "desc": "音视频学习代码合集",
        "descMd": "",
        "envelopePic": "http://www.wanandroid.com/resources/image/pc/default_project_img.jpg",
        "fresh": false,
        "host": "",
        "id": 7942,
        "isAdminAdd": false,
        "link": "https://www.wanandroid.com/blog/show/2499",
        "niceDate": "2019-02-17 00:57",
        "niceShareDate": "未知时间",
        "origin": "",
        "prefix": "",
        "projectLink": "https://github.com/979451341/Audio-and-video-learning-materials",
        "publishTime": 1550336221000,
        "realSuperChapterId": 293,
        "selfVisible": 0,
        "shareDate": null,
        "shareUser": "",
        "superChapterId": 294,
        "superChapterName": "开源项目主Tab",
        "tags": [
          {
            "name": "项目",
            "url": "/project/list/1?cid=367"
          }
        ],
        "title": "音视频学习代码合集",
        "type": 0,
        "userId": -1,
        "visible": 1,
        "zan": 0
      },
      {
        "adminAdd": false,
        "apkLink": "",
        "audit": 1,
        "author": "lijiankun24",
        "canEdit": false,
        "chapterId": 367,
        "chapterName": "资源聚合类",
        "collect": false,
        "courseId": 13,
        "desc": "JakeWharton 大神的 hugo 库可以打印方法的入参、返回结果和执行耗时。Koala 也具有和 hugo 同样的功能，可以打印方法的入参、返回结果和执行耗时。Koala 和 hugo 都是基于 AOP 思想，和 hugo 不同的是，hugo 使用 AspectJ 技术实现的，而 Koala 是使用 ASM 修改字节码实现的。",
        "descMd": "",
        "envelopePic": "http://www.wanandroid.com/resources/image/pc/default_project_img.jpg",
        "fresh": false,
        "host": "",
        "id": 7778,
        "isAdminAdd": false,
        "link": "https://www.wanandroid.com/blog/show/2486",
        "niceDate": "2019-01-13 15:26",
        "niceShareDate": "未知时间",
        "origin": "",
        "prefix": "",
        "projectLink": "https://github.com/lijiankun24/Koala",
        "publishTime": 1547364369000,
        "realSuperChapterId": 293,
        "selfVisible": 0,
        "shareDate": null,
        "shareUser": "",
        "superChapterId": 294,
        "superChapterName": "开源项目主Tab",
        "tags": [
          {
            "name": "项目",
            "url": "/project/list/1?cid=367"
          }
        ],
        "title": "从 Java 字节码到 ASM 实践",
        "type": 0,
        "userId": -1,
        "visible": 1,
        "zan": 0
      },
      {
        "adminAdd": false,
        "apkLink": "",
        "audit": 1,
        "author": "wangzhizy",
        "canEdit": false,
        "chapterId": 367,
        "chapterName": "资源聚合类",
        "collect": false,
        "courseId": 13,
        "desc": "关于gradle基础知识（自定义插件之路）（打包、加固、多渠道配置） ",
        "descMd": "",
        "envelopePic": "http://wanandroid.com/resources/image/pc/default_project_img.jpg",
        "fresh": false,
        "host": "",
        "id": 7736,
        "isAdminAdd": false,
        "link": "https://www.wanandroid.com/blog/show/2477",
        "niceDate": "2019-01-03 20:08",
        "niceShareDate": "未知时间",
        "origin": "",
        "prefix": "",
        "projectLink": "https://github.com/wangzhizy/PublishAppPlugin",
        "publishTime": 1546517336000,
        "realSuperChapterId": 293,
        "selfVisible": 0,
        "shareDate": null,
        "shareUser": "",
        "superChapterId": 294,
        "superChapterName": "开源项目主Tab",
        "tags": [
          {
            "name": "项目",
            "url": "/project/list/1?cid=367"
          }
        ],
        "title": "关于gradle基础知识（自定义插件之路）（打包、加固、多渠道配置）",
        "type": 0,
        "userId": -1,
        "visible": 1,
        "zan": 0
      }
    ],
    "offset": 0,
    "over": false,
    "pageCount": 2,
    "size": 15,
    "total": 28
  },
  "errorCode": 0,
  "errorMsg": ""
}