{
  "data": {
    "curPage": 1,
    "datas": [
      {
        "adminAdd": false,
        "apkLink": "",
        "audit": 1,
        "author": "shenzhen2017",
        "canEdit": false,
        "chapterId": 358,
        "chapterName": "项目基础功能",
        "collect": false,
        "courseId": 13,
        "desc": "1.不需要申请权限，可以直接打开悬浮窗，使用便捷\r\n2.支持自定义布局，自定义显示样式,自定义初始显示位置\r\n3.支持拖拽，可自动吸附到屏幕边缘\r\n4.可过滤不需要显示悬浮窗的黑名单界面\r\n5.支持自定义点击事件，可支持展开折叠等功能\r\n6.API链式调用，使用简洁优雅",
        "descMd": "",
        "envelopePic": "https://www.wanandroid.com/blogimgs/a04c3099-66be-4da5-9bf7-83fb7623dd20.png",
        "fresh": false,
        "host": "",
        "id": 18252,
        "isAdminAdd": false,
        "link": "https://www.wanandroid.com/blog/show/2999",
        "niceDate": "2021-05-09 23:45",
        "niceShareDate": "2021-05-09 23:45",
        "origin": "",
        "prefix": "",
        "projectLink": "https://github.com/shenzhen2017/EasyFloat",
        "publishTime": 1620575116000,
        "realSuperChapterId": 293,
        "selfVisible": 0,
        "shareDate": 1620575116000,
        "shareUser": "",
        "superChapterId": 294,
        "superChapterName": "开源项目主Tab",
        "tags": [
          {
            "name": "项目",
            "url": "/project/list/1?cid=358"
          }
        ],
        "title": "【开源项目】不需要权限的悬浮窗方案了解一下~",
        "type": 0,
        "userId": -1,
        "visible": 1,
        "zan": 0
      },
      {
        "adminAdd": false,
        "apkLink": "",
        "audit": 1,
        "author": "LuckSiege",
        "canEdit": false,
        "chapterId": 358,
        "chapterName": "项目基础功能",
        "collect": false,
        "courseId": 13,
        "desc": "一款针对Android平台下的图片选择器，支持从相册获取图片、视频、音频&amp;拍照，支持裁剪(单图or多图裁剪)、压缩、主题自定义配置等功能，支持动态获取权限&amp;适配Android 5.0+系统的开源图片选择框架。",
        "descMd": "",
        "envelopePic": "https://www.wanandroid.com/blogimgs/964b88cc-d8dc-4de8-bbef-fc5b9c4ac272.png",
        "fresh": false,
        "host": "",
        "id": 17919,
        "isAdminAdd": false,
        "link": "https://www.wanandroid.com/blog/show/2983",
        "niceDate": "2021-04-13 00:15",
        "niceShareDate": "2021-04-13 00:09",
        "origin": "",
        "prefix": "",
        "projectLink": "https://github.com/LuckSiege/PictureSelector",
        "publishTime": 1618244136000,
        "realSuperChapterId": 293,
        "selfVisible": 0,
        "shareDate": 1618243779000,
        "shareUser": "",
        "superChapterId": 294,
        "superChapterName": "开源项目主Tab",
        "tags": [
          {
            "name": "项目",
            "url": "/project/list/1?cid=358"
          }
        ],
        "title": "一款针对Android平台下的图片选择器PictureSelector 2.0",
        "type": 0,
        "userId": -1,
        "visible": 1,
        "zan": 0
      },
      {
        "adminAdd": false,
        "apkLink": "",
        "audit": 1,
        "author": "xiaoxige",
        "canEdit": false,
        "chapterId": 358,
        "chapterName": "项目基础功能",
        "collect": false,
        "courseId": 13,
        "desc": "专为组件通讯而生！\r\n也支持实现了注入功能！\r\n库非常小， 就几个类！\r\n全部已经支持懒加载， 并且一步到位， 不拖拉！",
        "descMd": "",
        "envelopePic": "https://www.wanandroid.com/resources/image/pc/default_project_img.jpg",
        "fresh": false,
        "host": "",
        "id": 17918,
        "isAdminAdd": false,
        "link": "https://www.wanandroid.com/blog/show/2982",
        "niceDate": "2021-04-12 23:52",
        "niceShareDate": "2021-04-12 23:52",
        "origin": "",
        "prefix": "",
        "projectLink": "https://github.com/xiaoxige/ServiceAssistant",
        "publishTime": 1618242765000,
        "realSuperChapterId": 293,
        "selfVisible": 0,
        "shareDate": 1618242765000,
        "shareUser": "",
        "superChapterId": 294,
        "superChapterName": "开源项目主Tab",
        "tags": [
          {
            "name": "项目",
            "url": "/project/list/1?cid=358"
          }
        ],
        "title": "Android 组件化通讯和注入功能库（库很 mini）",
        "type": 0,
        "userId": -1,
        "visible": 1,
        "zan": 0
      },
      {
        "adminAdd": false,
        "apkLink": "",
        "audit": 1,
        "author": "forJrking",
        "canEdit": false,
        "chapterId": 358,
        "chapterName": "项目基础功能",
        "collect": false,
        "courseId": 13,
        "desc": "glide是 Google 官方推荐的一款图片加载库，Coil是号称Kotlin-first的Android图片加载库",
        "descMd": "",
        "envelopePic": "https://www.wanandroid.com/resources/image/pc/default_project_img.jpg",
        "fresh": false,
        "host": "",
        "id": 17917,
        "isAdminAdd": false,
        "link": "https://www.wanandroid.com/blog/show/2981",
        "niceDate": "2021-04-12 23:45",
        "niceShareDate": "2021-04-12 23:45",
        "origin": "",
        "prefix": "",
        "projectLink": "https://github.com/forJrking/ImageExt",
        "publishTime": 1618242339000,
        "realSuperChapterId": 293,
        "selfVisible": 0,
        "shareDate": 1618242339000,
        "shareUser": "",
        "superChapterId": 294,
        "superChapterName": "开源项目主Tab",
        "tags": [
          {
            "name": "项目",
            "url": "/project/list/1?cid=358"
          }
        ],
        "title": "用Coil方式使用Glide",
        "type": 0,
        "userId": -1,
        "visible": 1,
        "zan": 0
      },
      {
        "adminAdd": false,
        "apkLink": "",
        "audit": 1,
        "author": "AriaLyy",
        "canEdit": false,
        "chapterId": 358,
        "chapterName": "项目基础功能",
        "collect": false,
        "courseId": 13,
        "desc": "Aria，一个简单易用，稳当高效的下载框架。",
        "descMd": "",
        "envelopePic": "https://www.wanandroid.com/blogimgs/ec76230f-0c4f-453a-9cb7-de8681ba837a.png",
        "fresh": false,
        "host": "",
        "id": 17866,
        "isAdminAdd": false,
        "link": "https://www.wanandroid.com/blog/show/2977",
        "niceDate": "2021-04-06 23:49",
        "niceShareDate": "2021-04-06 23:26",
        "origin": "",
        "prefix": "",
        "projectLink": "https://github.com/AriaLyy/Aria",
        "publishTime": 1617724175000,
        "realSuperChapterId": 293,
        "selfVisible": 0,
        "shareDate": 1617722789000,
        "shareUser": "",
        "superChapterId": 294,
        "superChapterName": "开源项目主Tab",
        "tags": [
          {
            "name": "项目",
            "url": "/project/list/1?cid=358"
          }
        ],
        "title": "稳当高效的下载框架Aria",
        "type": 0,
        "userId": -1,
        "visible": 1,
        "zan": 0
      },
      {
        "adminAdd": false,
        "apkLink": "",
        "audit": 1,
        "author": "ssseasonnn",
        "canEdit": false,
        "chapterId": 358,
        "chapterName": "项目基础功能",
        "collect": false,
        "courseId": 13,
        "desc": " 基于协程的多线程断点续传下载工具来了",
        "descMd": "",
        "envelopePic": "https://www.wanandroid.com/resources/image/pc/default_project_img.jpg",
        "fresh": false,
        "host": "",
        "id": 17696,
        "isAdminAdd": false,
        "link": "https://www.wanandroid.com/blog/show/2965",
        "niceDate": "2021-03-20 17:54",
        "niceShareDate": "2021-03-20 17:54",
        "origin": "",
        "prefix": "",
        "projectLink": "https://github.com/ssseasonnn/DownloadX",
        "publishTime": 1616234097000,
        "realSuperChapterId": 293,
        "selfVisible": 0,
        "shareDate": 1616234097000,
        "shareUser": "",
        "superChapterId": 294,
        "superChapterName": "开源项目主Tab",
        "tags": [
          {
            "name": "项目",
            "url": "/project/list/1?cid=358"
          }
        ],
        "title": "DownloadX - 基于协程的多线程断点续传下载工具来了",
        "type": 0,
        "userId": -1,
        "visible": 1,
        "zan": 0
      },
      {
        "adminAdd": false,
        "apkLink": "",
        "audit": 1,
        "author": "fmtjava",
        "canEdit": false,
        "chapterId": 358,
        "chapterName": "项目基础功能",
        "collect": false,
        "courseId": 13,
        "desc": "基于LiveData实现的一款不用反注册，不会内存泄露的轻量级消息总线框架，支持订阅普通事件消息和粘性事件",
        "descMd": "",
        "envelopePic": "https://www.wanandroid.com/resources/image/pc/default_project_img.jpg",
        "fresh": false,
        "host": "",
        "id": 16148,
        "isAdminAdd": false,
        "link": "https://www.wanandroid.com/blog/show/2795",
        "niceDate": "2020-11-20 22:18",
        "niceShareDate": "2020-11-20 22:18",
        "origin": "",
        "prefix": "",
        "projectLink": "https://github.com/fmtjava/LiveDataBus",
        "publishTime": 1605881936000,
        "realSuperChapterId": 293,
        "selfVisible": 0,
        "shareDate": 1605881936000,
        "shareUser": "",
        "superChapterId": 294,
        "superChapterName": "开源项目主Tab",
        "tags": [
          {
            "name": "项目",
            "url": "/project/list/1?cid=358"
          }
        ],
        "title": "基于LiveData实现的一款不用反注册，不会内存泄露的轻量级消息总线框架，支持订阅普通事件消息和粘性事件",
        "type": 0,
        "userId": -1,
        "visible": 1,
        "zan": 0
      },
      {
        "adminAdd": false,
        "apkLink": "",
        "audit": 1,
        "author": "DingXianSen",
        "canEdit": false,
        "chapterId": 358,
        "chapterName": "项目基础功能",
        "collect": false,
        "courseId": 13,
        "desc": "美团购物车效果",
        "descMd": "",
        "envelopePic": "https://www.wanandroid.com/resources/image/pc/default_project_img.jpg",
        "fresh": false,
        "host": "",
        "id": 16147,
        "isAdminAdd": false,
        "link": "https://www.wanandroid.com/blog/show/2794",
        "niceDate": "2020-11-20 22:18",
        "niceShareDate": "2020-11-20 22:18",
        "origin": "",
        "prefix": "",
        "projectLink": "https://github.com/DingXianSen/ProDemo",
        "publishTime": 1605881881000,
        "realSuperChapterId": 293,
        "selfVisible": 0,
        "shareDate": 1605881881000,
        "shareUser": "",
        "superChapterId": 294,
        "superChapterName": "开源项目主Tab",
        "tags": [
          {
            "name": "项目",
            "url": "/project/list/1?cid=358"
          }
        ],
        "title": "Android 美团购车效果",
        "type": 0,
        "userId": -1,
        "visible": 1,
        "zan": 0
      },
      {
        "adminAdd": false,
        "apkLink": "",
        "audit": 1,
        "author": "DMingOu",
        "canEdit": false,
        "chapterId": 358,
        "chapterName": "项目基础功能",
        "collect": false,
        "courseId": 13,
        "desc": "一个轻量级的适合快速编写出一个可定制的条目设置选项类型的View。做项目的过程中发现经常要写各种各样的点击选项的条目，一般做法每一个条目都要写一个子布局里面配置一堆的View，虽然也能完成效果，但是如果数量很多会容易出错效率不高。为了方便开发，我根据作者GitLqr的代码进行修改和完善用于自己的项目中。由于原作者的项目近几年好像都没有继续维护了，于是我打算自己动手改进完善代码，并将项目开源出来。",
        "descMd": "",
        "envelopePic": "https://www.wanandroid.com/blogimgs/e1036c9c-b8cf-4dee-a400-250b8bd77fc5.png",
        "fresh": false,
        "host": "",
        "id": 15182,
        "isAdminAdd": false,
        "link": "https://www.wanandroid.com/blog/show/2787",
        "niceDate": "2020-09-09 23:42",
        "niceShareDate": "2020-09-09 23:42",
        "origin": "",
        "prefix": "",
        "projectLink": "https://github.com/DMingOu/OptionBarView",
        "publishTime": 1599666154000,
        "realSuperChapterId": 293,
        "selfVisible": 0,
        "shareDate": 1599666154000,
        "shareUser": "",
        "superChapterId": 294,
        "superChapterName": "开源项目主Tab",
        "tags": [
          {
            "name": "项目",
            "url": "/project/list/1?cid=358"
          }
        ],
        "title": "OptionBarView：一个轻量级的高可定制的条目选项类型View",
        "type": 0,
        "userId": -1,
        "visible": 1,
        "zan": 0
      },
      {
        "adminAdd": false,
        "apkLink": "",
        "audit": 1,
        "author": "donkingliang",
        "canEdit": false,
        "chapterId": 358,
        "chapterName": "项目基础功能",
        "collect": false,
        "courseId": 13,
        "desc": "Android的标签列表控件。可以设置标签的选中效果。 可以设置标签的选中类型：不可选中、单选、限数量多选和不限数量多选等， 并支持设置必选项、单行显示、更大显示行数等功能。",
        "descMd": "",
        "envelopePic": "https://www.wanandroid.com/blogimgs/36a9099d-ceae-4a69-9634-ecb5dec751c5.png",
        "fresh": false,
        "host": "",
        "id": 13975,
        "isAdminAdd": false,
        "link": "https://www.wanandroid.com/blog/show/2773",
        "niceDate": "2020-06-22 00:42",
        "niceShareDate": "2020-06-22 00:42",
        "origin": "",
        "prefix": "",
        "projectLink": "https://github.com/donkingliang/LabelsView",
        "publishTime": 1592757776000,
        "realSuperChapterId": 293,
        "selfVisible": 0,
        "shareDate": 1592757776000,
        "shareUser": "",
        "superChapterId": 294,
        "superChapterName": "开源项目主Tab",
        "tags": [
          {
            "name": "项目",
            "url": "/project/list/1?cid=358"
          }
        ],
        "title": "标签列表控件：LabelsView",
        "type": 0,
        "userId": -1,
        "visible": 1,
        "zan": 0
      },
      {
        "adminAdd": false,
        "apkLink": "",
        "audit": 1,
        "author": "donkingliang",
        "canEdit": false,
        "chapterId": 358,
        "chapterName": "项目基础功能",
        "collect": false,
        "courseId": 13,
        "desc": "ConsecutiveScrollerLayout是Android下支持多个滑动布局(RecyclerView、WebView、ScrollView等)和普通控件(TextView、ImageView、LinearLayou、自定义View等)持续连贯滑动的容器,它使所有的子View像一个整体一样连续顺畅滑动。并且支持布局吸顶功能。",
        "descMd": "",
        "envelopePic": "https://www.wanandroid.com/blogimgs/38e64591-dbdc-462f-b53b-5d738bd6d179.png",
        "fresh": false,
        "host": "",
        "id": 13974,
        "isAdminAdd": false,
        "link": "https://www.wanandroid.com/blog/show/2772",
        "niceDate": "2020-06-22 00:41",
        "niceShareDate": "2020-06-22 00:41",
        "origin": "",
        "prefix": "",
        "projectLink": "https://github.com/donkingliang/ConsecutiveScroller",
        "publishTime": 1592757691000,
        "realSuperChapterId": 293,
        "selfVisible": 0,
        "shareDate": 1592757691000,
        "shareUser": "",
        "superChapterId": 294,
        "superChapterName": "开源项目主Tab",
        "tags": [
          {
            "name": "项目",
            "url": "/project/list/1?cid=358"
          }
        ],
        "title": "嵌套滑动布局：ConsecutiveScrollerLayout",
        "type": 0,
        "userId": -1,
        "visible": 1,
        "zan": 0
      },
      {
        "adminAdd": false,
        "apkLink": "",
        "audit": 1,
        "author": "venshine",
        "canEdit": false,
        "chapterId": 358,
        "chapterName": "项目基础功能",
        "collect": false,
        "courseId": 13,
        "desc": "反编译APK工具，支持Apktool : v2.4.1，dex2jar : v2.1，jd-gui : v1.6.6，jadx : v1.1.0，android-classyshark : v8.2，bytecode-viewer : v2.9.22",
        "descMd": "",
        "envelopePic": "https://www.wanandroid.com/resources/image/pc/default_project_img.jpg",
        "fresh": false,
        "host": "",
        "id": 13704,
        "isAdminAdd": false,
        "link": "https://www.wanandroid.com/blog/show/2765",
        "niceDate": "2020-06-01 00:57",
        "niceShareDate": "2020-06-01 00:57",
        "origin": "",
        "prefix": "",
        "projectLink": "https://github.com/venshine/decompile-apk",
        "publishTime": 1590944242000,
        "realSuperChapterId": 293,
        "selfVisible": 0,
        "shareDate": 1590944242000,
        "shareUser": "",
        "superChapterId": 294,
        "superChapterName": "开源项目主Tab",
        "tags": [
          {
            "name": "项目",
            "url": "/project/list/1?cid=358"
          }
        ],
        "title": "反编译APK",
        "type": 0,
        "userId": -1,
        "visible": 1,
        "zan": 0
      },
      {
        "adminAdd": false,
        "apkLink": "",
        "audit": 1,
        "author": "YummyLau",
        "canEdit": false,
        "chapterId": 358,
        "chapterName": "项目基础功能",
        "collect": false,
        "courseId": 13,
        "desc": " A framework that helps the keyboard smoothly transition to the function panel    一个帮助键盘平稳过渡到功能面板的框架，支持动画无缝衔接，支持 activity/fragment/dialog/dialogFragment/popupWindow 容器",
        "descMd": "",
        "envelopePic": "https://www.wanandroid.com/blogimgs/c2e6a456-558b-4d47-8b21-cf812722ee83.png",
        "fresh": false,
        "host": "",
        "id": 13668,
        "isAdminAdd": false,
        "link": "https://www.wanandroid.com/blog/show/2763",
        "niceDate": "2020-05-28 09:42",
        "niceShareDate": "2020-05-28 09:42",
        "origin": "",
        "prefix": "",
        "projectLink": "https://github.com/YummyLau/PanelSwitchHelper",
        "publishTime": 1590630144000,
        "realSuperChapterId": 293,
        "selfVisible": 0,
        "shareDate": 1590630144000,
        "shareUser": "",
        "superChapterId": 294,
        "superChapterName": "开源项目主Tab",
        "tags": [
          {
            "name": "项目",
            "url": "/project/list/1?cid=358"
          }
        ],
        "title": "一个非常好用的输入法切换框架",
        "type": 0,
        "userId": -1,
        "visible": 1,
        "zan": 0
      },
      {
        "adminAdd": false,
        "apkLink": "",
        "audit": 1,
        "author": "zhujiang521",
        "canEdit": false,
        "chapterId": 358,
        "chapterName": "项目基础功能",
        "collect": false,
        "courseId": 13,
        "desc": "aop的方式实现防止按钮重复点击，java和kotlin都能使用。使用方法很简单，需要几步配置，配置完成之后直接添加注解即可使用。",
        "descMd": "",
        "envelopePic": "https://www.wanandroid.com/resources/image/pc/default_project_img.jpg",
        "fresh": false,
        "host": "",
        "id": 13459,
        "isAdminAdd": false,
        "link": "https://www.wanandroid.com/blog/show/2756",
        "niceDate": "2020-05-19 01:06",
        "niceShareDate": "2020-05-19 01:06",
        "origin": "",
        "prefix": "",
        "projectLink": "https://github.com/zhujiang521/AndroidAOP",
        "publishTime": 1589821565000,
        "realSuperChapterId": 293,
        "selfVisible": 0,
        "shareDate": 1589821565000,
        "shareUser": "",
        "superChapterId": 294,
        "superChapterName": "开源项目主Tab",
        "tags": [
          {
            "name": "项目",
            "url": "/project/list/1?cid=358"
          }
        ],
        "title": "aop的方式实现防止按钮重复点击，java和kotlin都能使用",
        "type": 0,
        "userId": -1,
        "visible": 1,
        "zan": 0
      }
    ],
    "offset": 0,
    "over": false,
    "pageCount": 8,
    "size": 15,
    "total": 111
  },
  "errorCode": 0,
  "errorMsg": ""
}