{
  "data": {
    "curPage": 1,
    "datas": [
      {
        "adminAdd": false,
        "apkLink": "",
        "audit": 1,
        "author": "zj565061763",
        "canEdit": false,
        "chapterId": 323,
        "chapterName": "动画",
        "collect": false,
        "courseId": 13,
        "desc": "可以实现：\r\n1. &ldquo;A颜色&rdquo;  -&gt; &ldquo;B颜色&rdquo; 渐变\r\n2. &ldquo;A渐变&rdquo;  -&gt; &quot;B渐变&quot; 渐变\r\n\r\n重点：渐变的分界点位置可以进行调整",
        "descMd": "",
        "envelopePic": "https://wanandroid.com/blogimgs/55e1bc67-084d-49dd-8c2c-0b88492f478b.png",
        "fresh": false,
        "host": "",
        "id": 10134,
        "isAdminAdd": false,
        "link": "https://www.wanandroid.com/blog/show/2702",
        "niceDate": "2019-11-07 10:39",
        "niceShareDate": "2019-11-07 10:39",
        "origin": "",
        "prefix": "",
        "projectLink": "https://github.com/zj565061763/gradient-view",
        "publishTime": 1573094396000,
        "realSuperChapterId": 293,
        "selfVisible": 0,
        "shareDate": 1573094396000,
        "shareUser": "",
        "superChapterId": 294,
        "superChapterName": "开源项目主Tab",
        "tags": [
          {
            "name": "项目",
            "url": "/project/list/1?cid=323"
          }
        ],
        "title": "动态渐变进度",
        "type": 0,
        "userId": -1,
        "visible": 1,
        "zan": 0
      },
      {
        "adminAdd": false,
        "apkLink": "",
        "audit": 1,
        "author": "wuyr",
        "canEdit": false,
        "chapterId": 323,
        "chapterName": "动画",
        "collect": false,
        "courseId": 13,
        "desc": "搅拌咖啡下拉刷新动画",
        "descMd": "",
        "envelopePic": "https://www.wanandroid.com/blogimgs/355aed02-2076-41b6-aee1-5b8b0153e713.png",
        "fresh": false,
        "host": "",
        "id": 9659,
        "isAdminAdd": false,
        "link": "https://www.wanandroid.com/blog/show/2687",
        "niceDate": "2019-10-13 23:46",
        "niceShareDate": "2019-10-13 23:46",
        "origin": "",
        "prefix": "",
        "projectLink": "https://github.com/wuyr/CoffeeDrawable",
        "publishTime": 1570981610000,
        "realSuperChapterId": 293,
        "selfVisible": 0,
        "shareDate": 1570981610000,
        "shareUser": "",
        "superChapterId": 294,
        "superChapterName": "开源项目主Tab",
        "tags": [
          {
            "name": "项目",
            "url": "/project/list/1?cid=323"
          }
        ],
        "title": "CoffeeDrawable（搅拌咖啡下拉刷新动画）",
        "type": 0,
        "userId": -1,
        "visible": 1,
        "zan": 0
      },
      {
        "adminAdd": false,
        "apkLink": "",
        "audit": 1,
        "author": "flutter-food",
        "canEdit": false,
        "chapterId": 323,
        "chapterName": "动画",
        "collect": false,
        "courseId": 13,
        "desc": "贝塞尔曲线(B&eacute;zier curve)，又称贝兹曲线或贝济埃曲线，是应用于二维图形应用程序的数学曲线。",
        "descMd": "",
        "envelopePic": "https://www.wanandroid.com/blogimgs/edd47f18-d19f-4dad-a3be-73e8453e5746.png",
        "fresh": false,
        "host": "",
        "id": 9079,
        "isAdminAdd": false,
        "link": "https://www.wanandroid.com/blog/show/2662",
        "niceDate": "2019-09-03 00:16",
        "niceShareDate": "未知时间",
        "origin": "",
        "prefix": "",
        "projectLink": "https://github.com/flutter-food/BezierCurve",
        "publishTime": 1567441007000,
        "realSuperChapterId": 293,
        "selfVisible": 0,
        "shareDate": null,
        "shareUser": "",
        "superChapterId": 294,
        "superChapterName": "开源项目主Tab",
        "tags": [
          {
            "name": "项目",
            "url": "/project/list/1?cid=323"
          }
        ],
        "title": "Flutter 自定义组件之贝塞尔曲线绘制波浪球",
        "type": 0,
        "userId": -1,
        "visible": 1,
        "zan": 0
      },
      {
        "adminAdd": false,
        "apkLink": "",
        "audit": 1,
        "author": "buxiliulian",
        "canEdit": false,
        "chapterId": 323,
        "chapterName": "动画",
        "collect": false,
        "courseId": 13,
        "desc": "原原本本还原微信底部导航栏动画",
        "descMd": "",
        "envelopePic": "https://www.wanandroid.com/blogimgs/4f370f12-bed2-42e8-b557-c8b14fac50e0.png",
        "fresh": false,
        "host": "",
        "id": 8993,
        "isAdminAdd": false,
        "link": "https://www.wanandroid.com/blog/show/2655",
        "niceDate": "2019-08-20 00:43",
        "niceShareDate": "未知时间",
        "origin": "",
        "prefix": "",
        "projectLink": "https://github.com/buxiliulian/WeChatBottomNavigation",
        "publishTime": 1566233009000,
        "realSuperChapterId": 293,
        "selfVisible": 0,
        "shareDate": null,
        "shareUser": "",
        "superChapterId": 294,
        "superChapterName": "开源项目主Tab",
        "tags": [
          {
            "name": "项目",
            "url": "/project/list/1?cid=323"
          }
        ],
        "title": "高仿微信底部导航栏动画",
        "type": 0,
        "userId": -1,
        "visible": 1,
        "zan": 0
      },
      {
        "adminAdd": false,
        "apkLink": "",
        "audit": 1,
        "author": "wuyr",
        "canEdit": false,
        "chapterId": 323,
        "chapterName": "动画",
        "collect": false,
        "courseId": 13,
        "desc": "纯Paint实现的一个射箭效果，可用作Loading动画。",
        "descMd": "",
        "envelopePic": "https://wanandroid.com/blogimgs/d064a584-6090-4588-bb40-fca1ae904b6d.png",
        "fresh": false,
        "host": "",
        "id": 8978,
        "isAdminAdd": false,
        "link": "https://www.wanandroid.com/blog/show/2651",
        "niceDate": "2019-08-16 00:38",
        "niceShareDate": "未知时间",
        "origin": "",
        "prefix": "",
        "projectLink": "https://github.com/wuyr/ArrowDrawable",
        "publishTime": 1565887108000,
        "realSuperChapterId": 293,
        "selfVisible": 0,
        "shareDate": null,
        "shareUser": "",
        "superChapterId": 294,
        "superChapterName": "开源项目主Tab",
        "tags": [
          {
            "name": "项目",
            "url": "/project/list/1?cid=323"
          }
        ],
        "title": "ArrowDrawable（拉弓射箭动画的下拉刷新）",
        "type": 0,
        "userId": -1,
        "visible": 1,
        "zan": 0
      },
      {
        "adminAdd": false,
        "apkLink": "",
        "audit": 1,
        "author": "chinalwb",
        "canEdit": false,
        "chapterId": 323,
        "chapterName": "动画",
        "collect": false,
        "courseId": 13,
        "desc": "这是一个简单的画廊实现. 受到 Flipboard App 的样式启发,总想做一个类似的效果试试. 目前实现原理特别简单, 一个自定义 view 加上内部维护的三个 bitmap 对象, 加上手势控制(ACTION_MOVE 和 fling &mdash; VelocityTracker)以及 camera.rotateX",
        "descMd": "",
        "envelopePic": "https://wanandroid.com/blogimgs/b9a57f25-fff5-46dc-8dd8-f822f17abd5b.png",
        "fresh": false,
        "host": "",
        "id": 8714,
        "isAdminAdd": false,
        "link": "https://www.wanandroid.com/blog/show/2621",
        "niceDate": "2019-07-22 22:34",
        "niceShareDate": "未知时间",
        "origin": "",
        "prefix": "",
        "projectLink": "https://github.com/chinalwb/flipGallery",
        "publishTime": 1563806055000,
        "realSuperChapterId": 293,
        "selfVisible": 0,
        "shareDate": null,
        "shareUser": "",
        "superChapterId": 294,
        "superChapterName": "开源项目主Tab",
        "tags": [
          {
            "name": "项目",
            "url": "/project/list/1?cid=323"
          }
        ],
        "title": "简单实现可以翻转的画廊",
        "type": 0,
        "userId": -1,
        "visible": 1,
        "zan": 0
      },
      {
        "adminAdd": false,
        "apkLink": "",
        "audit": 1,
        "author": "pengMaster",
        "canEdit": false,
        "chapterId": 323,
        "chapterName": "动画",
        "collect": false,
        "courseId": 13,
        "desc": "二次贝塞尔曲线绘制原理讲解",
        "descMd": "",
        "envelopePic": "https://wanandroid.com/blogimgs/8fd108e7-b511-4eb3-93db-34ae9c8e0563.png",
        "fresh": false,
        "host": "",
        "id": 8536,
        "isAdminAdd": false,
        "link": "https://www.wanandroid.com/blog/show/2588",
        "niceDate": "2019-05-30 17:02",
        "niceShareDate": "未知时间",
        "origin": "",
        "prefix": "",
        "projectLink": "https://github.com/pengMaster/Bezier",
        "publishTime": 1559206953000,
        "realSuperChapterId": 293,
        "selfVisible": 0,
        "shareDate": null,
        "shareUser": "",
        "superChapterId": 294,
        "superChapterName": "开源项目主Tab",
        "tags": [
          {
            "name": "项目",
            "url": "/project/list/1?cid=323"
          }
        ],
        "title": "二次贝塞尔曲线绘制原理讲解",
        "type": 0,
        "userId": -1,
        "visible": 1,
        "zan": 0
      },
      {
        "adminAdd": false,
        "apkLink": "",
        "audit": 1,
        "author": "Hitomis",
        "canEdit": false,
        "chapterId": 323,
        "chapterName": "动画",
        "collect": false,
        "courseId": 13,
        "desc": "一个帮助您完成从缩略图到原图无缝过渡转变的神奇组件\r\n",
        "descMd": "",
        "envelopePic": "https://www.wanandroid.com/blogimgs/8858a039-18ca-4607-8663-69e0b7bb39de.png",
        "fresh": false,
        "host": "",
        "id": 8390,
        "isAdminAdd": false,
        "link": "https://www.wanandroid.com/blog/show/2562",
        "niceDate": "2019-05-12 17:21",
        "niceShareDate": "未知时间",
        "origin": "",
        "prefix": "",
        "projectLink": "https://github.com/Hitomis/transferee",
        "publishTime": 1557652874000,
        "realSuperChapterId": 293,
        "selfVisible": 0,
        "shareDate": null,
        "shareUser": "",
        "superChapterId": 294,
        "superChapterName": "开源项目主Tab",
        "tags": [
          {
            "name": "项目",
            "url": "/project/list/1?cid=323"
          }
        ],
        "title": "Transferee 帮助你完成从缩略图到原图的无缝过渡转变",
        "type": 0,
        "userId": -1,
        "visible": 1,
        "zan": 0
      },
      {
        "adminAdd": false,
        "apkLink": "",
        "audit": 1,
        "author": "qianxin2016",
        "canEdit": false,
        "chapterId": 323,
        "chapterName": "动画",
        "collect": false,
        "courseId": 13,
        "desc": "一个用于播放精灵图（Sprite Sheet）动画的组件，支持多种灵活的属性配置",
        "descMd": "",
        "envelopePic": "https://wanandroid.com/blogimgs/53b2f950-f048-4c4a-9ca1-a60fa1fb1da3.png",
        "fresh": false,
        "host": "",
        "id": 8270,
        "isAdminAdd": false,
        "link": "https://www.wanandroid.com/blog/show/2551",
        "niceDate": "2019-04-18 21:00",
        "niceShareDate": "未知时间",
        "origin": "",
        "prefix": "",
        "projectLink": "https://github.com/qianxin2016/SpriteAnimationView",
        "publishTime": 1555592426000,
        "realSuperChapterId": 293,
        "selfVisible": 0,
        "shareDate": null,
        "shareUser": "",
        "superChapterId": 294,
        "superChapterName": "开源项目主Tab",
        "tags": [
          {
            "name": "项目",
            "url": "/project/list/1?cid=323"
          }
        ],
        "title": "SpriteAnimationView：一个用于播放精灵图动画的组件",
        "type": 0,
        "userId": -1,
        "visible": 0,
        "zan": 0
      },
      {
        "adminAdd": false,
        "apkLink": "",
        "audit": 1,
        "author": "zincPower",
        "canEdit": false,
        "chapterId": 323,
        "chapterName": "动画",
        "collect": false,
        "courseId": 13,
        "desc": "该项目将会集结 &ldquo;Android高级UI&rdquo; 的知识。\r\n目前已有章节：\r\n1、贝塞尔曲线\r\n2、PathMeasure\r\n3、属性动画\r\n4、Xfermode\r\n5、VelocityTracker和Scroller\r\n6、绘制流程\r\n7、svg",
        "descMd": "",
        "envelopePic": "https://www.wanandroid.com/blogimgs/964c0477-3577-4b74-85eb-70077677876d.png",
        "fresh": false,
        "host": "",
        "id": 8252,
        "isAdminAdd": false,
        "link": "https://www.wanandroid.com/blog/show/2545",
        "niceDate": "2019-04-15 22:53",
        "niceShareDate": "未知时间",
        "origin": "",
        "prefix": "",
        "projectLink": "https://github.com/zincPower/UI2018",
        "publishTime": 1555340007000,
        "realSuperChapterId": 293,
        "selfVisible": 0,
        "shareDate": null,
        "shareUser": "",
        "superChapterId": 294,
        "superChapterName": "开源项目主Tab",
        "tags": [
          {
            "name": "项目",
            "url": "/project/list/1?cid=323"
          }
        ],
        "title": "安卓高级UI",
        "type": 0,
        "userId": -1,
        "visible": 1,
        "zan": 0
      },
      {
        "adminAdd": false,
        "apkLink": "",
        "audit": 1,
        "author": "LinYaoTian",
        "canEdit": false,
        "chapterId": 323,
        "chapterName": "动画",
        "collect": false,
        "courseId": 13,
        "desc": "自定义 Loading 特效",
        "descMd": "",
        "envelopePic": "http://www.wanandroid.com/blogimgs/3eb2b369-d9c6-40f6-a5a6-dbd1e2367270.png",
        "fresh": false,
        "host": "",
        "id": 7951,
        "isAdminAdd": false,
        "link": "https://www.wanandroid.com/blog/show/2500",
        "niceDate": "2019-02-17 21:25",
        "niceShareDate": "未知时间",
        "origin": "",
        "prefix": "",
        "projectLink": "https://github.com/LinYaoTian/TestLeavesLoading",
        "publishTime": 1550409907000,
        "realSuperChapterId": 293,
        "selfVisible": 0,
        "shareDate": null,
        "shareUser": "",
        "superChapterId": 294,
        "superChapterName": "开源项目主Tab",
        "tags": [
          {
            "name": "项目",
            "url": "/project/list/1?cid=323"
          }
        ],
        "title": "Android 自定义 View 之 LeavesLoading",
        "type": 0,
        "userId": -1,
        "visible": 1,
        "zan": 0
      },
      {
        "adminAdd": false,
        "apkLink": "",
        "audit": 1,
        "author": "wuyr",
        "canEdit": false,
        "chapterId": 323,
        "chapterName": "动画",
        "collect": false,
        "courseId": 13,
        "desc": "扩展自QQ空间的列表Header效果~",
        "descMd": "",
        "envelopePic": "http://www.wanandroid.com/blogimgs/17469897-ed82-4fc0-9a00-89164e0c3c74.png",
        "fresh": false,
        "host": "",
        "id": 7940,
        "isAdminAdd": false,
        "link": "https://www.wanandroid.com/blog/show/2497",
        "niceDate": "2019-02-17 00:52",
        "niceShareDate": "未知时间",
        "origin": "",
        "prefix": "",
        "projectLink": "https://github.com/wuyr/RandomDragLayout",
        "publishTime": 1550335950000,
        "realSuperChapterId": 293,
        "selfVisible": 0,
        "shareDate": null,
        "shareUser": "",
        "superChapterId": 294,
        "superChapterName": "开源项目主Tab",
        "tags": [
          {
            "name": "项目",
            "url": "/project/list/1?cid=323"
          }
        ],
        "title": "RandomDragLayout (任意拖布局)",
        "type": 0,
        "userId": -1,
        "visible": 1,
        "zan": 0
      },
      {
        "adminAdd": false,
        "apkLink": "",
        "audit": 1,
        "author": "While1true",
        "canEdit": false,
        "chapterId": 323,
        "chapterName": "动画",
        "collect": false,
        "courseId": 13,
        "desc": "flutter自定义波浪动画，移植java。。。",
        "descMd": "",
        "envelopePic": "http://wanandroid.com/blogimgs/aa7c54e4-e6cf-4872-bdd1-8b9e92c6885d.png",
        "fresh": false,
        "host": "",
        "id": 3452,
        "isAdminAdd": false,
        "link": "https://www.wanandroid.com/blog/show/2381",
        "niceDate": "2018-09-29 20:38",
        "niceShareDate": "未知时间",
        "origin": "",
        "prefix": "",
        "projectLink": "https://github.com/While1true/WaveView_flutter",
        "publishTime": 1538224725000,
        "realSuperChapterId": 293,
        "selfVisible": 0,
        "shareDate": null,
        "shareUser": "",
        "superChapterId": 294,
        "superChapterName": "开源项目主Tab",
        "tags": [
          {
            "name": "项目",
            "url": "/project/list/1?cid=323"
          }
        ],
        "title": "flutter自定义波浪view",
        "type": 0,
        "userId": -1,
        "visible": 0,
        "zan": 0
      },
      {
        "adminAdd": false,
        "apkLink": "",
        "audit": 1,
        "author": "xujiaji",
        "canEdit": false,
        "chapterId": 323,
        "chapterName": "动画",
        "collect": false,
        "courseId": 13,
        "desc": "在Dribbble上找到的一个清单效果，非常不错。就是按照着制作的这个Android控件，简洁，舒服，波纹动画，勾选动画，高度可控的波纹CheckBox。之后准备为我的玩Android客户端加上清单哈哈\r\n",
        "descMd": "",
        "envelopePic": "http://wanandroid.com/resources/image/pc/default_project_img.jpg",
        "fresh": false,
        "host": "",
        "id": 3433,
        "isAdminAdd": false,
        "link": "https://www.wanandroid.com/blog/show/2368",
        "niceDate": "2018-09-21 18:28",
        "niceShareDate": "未知时间",
        "origin": "",
        "prefix": "",
        "projectLink": "https://github.com/xujiaji/RippleCheckBox",
        "publishTime": 1537525710000,
        "realSuperChapterId": 293,
        "selfVisible": 0,
        "shareDate": null,
        "shareUser": "",
        "superChapterId": 294,
        "superChapterName": "开源项目主Tab",
        "tags": [
          {
            "name": "项目",
            "url": "/project/list/1?cid=323"
          }
        ],
        "title": "在Dribbble上找到的一个清单效果 RippleCheckBox",
        "type": 0,
        "userId": -1,
        "visible": 0,
        "zan": 0
      },
      {
        "adminAdd": false,
        "apkLink": "",
        "audit": 1,
        "author": "wanglu1209",
        "canEdit": false,
        "chapterId": 323,
        "chapterName": "动画",
        "collect": false,
        "courseId": 13,
        "desc": "点赞动画！不用在XML中写自定义View，还用原来的View就可以！一行代码设置各种动画效果",
        "descMd": "",
        "envelopePic": "http://wanandroid.com/blogimgs/b555823f-c13c-49df-bfe9-7f76f12ae1ab.png",
        "fresh": false,
        "host": "",
        "id": 3431,
        "isAdminAdd": false,
        "link": "https://www.wanandroid.com/blog/show/2366",
        "niceDate": "2018-09-21 18:26",
        "niceShareDate": "未知时间",
        "origin": "",
        "prefix": "",
        "projectLink": "https://github.com/wanglu1209/WLikeAnim",
        "publishTime": 1537525598000,
        "realSuperChapterId": 293,
        "selfVisible": 0,
        "shareDate": null,
        "shareUser": "",
        "superChapterId": 294,
        "superChapterName": "开源项目主Tab",
        "tags": [
          {
            "name": "项目",
            "url": "/project/list/1?cid=323"
          }
        ],
        "title": "WLikeAnim - 简单实用的点赞动画效果",
        "type": 0,
        "userId": -1,
        "visible": 1,
        "zan": 0
      }
    ],
    "offset": 0,
    "over": false,
    "pageCount": 2,
    "size": 15,
    "total": 22
  },
  "errorCode": 0,
  "errorMsg": ""
}