{
  "data": {
    "curPage": 1,
    "datas": [
      {
        "adminAdd": false,
        "apkLink": "",
        "audit": 1,
        "author": "ZuYun",
        "canEdit": false,
        "chapterId": 402,
        "chapterName": "跨平台应用",
        "collect": false,
        "courseId": 13,
        "desc": "在线体验地址\r\nhttps://zuyun.github.io/loginj/#/",
        "descMd": "",
        "envelopePic": "https://www.wanandroid.com/blogimgs/f711266f-566d-4db9-9a42-d62a05afafe2.png",
        "fresh": false,
        "host": "",
        "id": 22584,
        "isAdminAdd": false,
        "link": "https://www.wanandroid.com/blog/show/3360",
        "niceDate": "2022-05-03 21:07",
        "niceShareDate": "2022-05-03 21:07",
        "origin": "",
        "prefix": "",
        "projectLink": "https://github.com/ZuYun/loginj",
        "publishTime": 1651583227000,
        "realSuperChapterId": 293,
        "selfVisible": 0,
        "shareDate": 1651583227000,
        "shareUser": "",
        "superChapterId": 294,
        "superChapterName": "开源项目主Tab",
        "tags": [
          {
            "name": "项目",
            "url": "/project/list/1?cid=402"
          }
        ],
        "title": "dribbble上一个有意思的登录页面交互的flutter實現",
        "type": 0,
        "userId": -1,
        "visible": 1,
        "zan": 0
      },
      {
        "adminAdd": false,
        "apkLink": "",
        "audit": 1,
        "author": "ZhangXinmin528",
        "canEdit": false,
        "chapterId": 402,
        "chapterName": "跨平台应用",
        "collect": false,
        "courseId": 13,
        "desc": "知天气主要功能包含关注城市天气页面，城市管理页面，城市搜索页面等功能，小到小时级天气信息，空气质量信息以及风力风向，大到7天天气预报以及全国范围内的天气云图。知天气懂天气更懂你。\r\n\r\n知天气主要采用Flutter技术开发，采用现阶段非常流行的Bloc框架。",
        "descMd": "",
        "envelopePic": "https://www.wanandroid.com/blogimgs/35d9f092-6663-43c7-ba4a-c241c2c4b2a9.png",
        "fresh": false,
        "host": "",
        "id": 21505,
        "isAdminAdd": false,
        "link": "https://www.wanandroid.com/blog/show/3133",
        "niceDate": "2022-02-20 21:05",
        "niceShareDate": "2022-02-20 21:05",
        "origin": "",
        "prefix": "",
        "projectLink": "https://github.com/ZhangXinmin528/weather",
        "publishTime": 1645362304000,
        "realSuperChapterId": 293,
        "selfVisible": 0,
        "shareDate": 1645362304000,
        "shareUser": "",
        "superChapterId": 294,
        "superChapterName": "开源项目主Tab",
        "tags": [
          {
            "name": "项目",
            "url": "/project/list/1?cid=402"
          }
        ],
        "title": "Flutter从0到1开发一个app:知天气",
        "type": 0,
        "userId": -1,
        "visible": 1,
        "zan": 0
      },
      {
        "adminAdd": false,
        "apkLink": "",
        "audit": 1,
        "author": "jzmanu",
        "canEdit": false,
        "chapterId": 402,
        "chapterName": "跨平台应用",
        "collect": false,
        "courseId": 13,
        "desc": "Android+Flutter混合开发的玩安卓开源客户端，使用了主流的开发技术，很好的练手项目，持续更新。",
        "descMd": "",
        "envelopePic": "https://www.wanandroid.com/blogimgs/a2cc8097-b609-4b63-9501-37b726b2794e.png",
        "fresh": false,
        "host": "",
        "id": 17697,
        "isAdminAdd": false,
        "link": "https://www.wanandroid.com/blog/show/2966",
        "niceDate": "2021-03-20 17:58",
        "niceShareDate": "2021-03-20 17:58",
        "origin": "",
        "prefix": "",
        "projectLink": "https://github.com/jzmanu/JzmanWanAndroid",
        "publishTime": 1616234296000,
        "realSuperChapterId": 293,
        "selfVisible": 0,
        "shareDate": 1616234296000,
        "shareUser": "",
        "superChapterId": 294,
        "superChapterName": "开源项目主Tab",
        "tags": [
          {
            "name": "项目",
            "url": "/project/list/1?cid=402"
          }
        ],
        "title": "Android+Flutter混合开发的玩安卓开源客户端",
        "type": 0,
        "userId": -1,
        "visible": 1,
        "zan": 0
      },
      {
        "adminAdd": false,
        "apkLink": "",
        "audit": 1,
        "author": "ASCII13",
        "canEdit": false,
        "chapterId": 402,
        "chapterName": "跨平台应用",
        "collect": false,
        "courseId": 13,
        "desc": "VAndroid 是一个专注 Android 领域的信息聚合站点，基于 Vue，Element-ui 和 WANANDROID API 实现。",
        "descMd": "",
        "envelopePic": "https://www.wanandroid.com/blogimgs/ff3d68f2-3352-4660-b201-552c443ee658.png",
        "fresh": false,
        "host": "",
        "id": 16146,
        "isAdminAdd": false,
        "link": "https://www.wanandroid.com/blog/show/2793",
        "niceDate": "2020-11-20 22:17",
        "niceShareDate": "2020-11-20 22:17",
        "origin": "",
        "prefix": "",
        "projectLink": "https://github.com/ASCII13/VAndroid",
        "publishTime": 1605881839000,
        "realSuperChapterId": 293,
        "selfVisible": 0,
        "shareDate": 1605881839000,
        "shareUser": "",
        "superChapterId": 294,
        "superChapterName": "开源项目主Tab",
        "tags": [
          {
            "name": "项目",
            "url": "/project/list/1?cid=402"
          }
        ],
        "title": "VAndroid:基于 Vue，Element-ui 和 wanandroid API 实现",
        "type": 0,
        "userId": -1,
        "visible": 1,
        "zan": 0
      },
      {
        "adminAdd": false,
        "apkLink": "",
        "audit": 1,
        "author": "xiaotianzhen",
        "canEdit": false,
        "chapterId": 402,
        "chapterName": "跨平台应用",
        "collect": false,
        "courseId": 13,
        "desc": "kotlin在开发android的优势是逐渐显现（丰富的功能，并且在持续更新，能够快速运用在andorid上）,之前做过一款玩安卓的kotlin开源项目，采用的是MMVP的开发架构，这一次闲下来时间做了一块基于kotlin的MVP的开源app，然后还做过一款Flutter版本的开眼短视频项目,简书地址：https://www.jianshu.com/p/0f0c79853162",
        "descMd": "",
        "envelopePic": "https://wanandroid.com/blogimgs/15cf6db2-ac1d-4fa2-8370-25861138c0a5.png",
        "fresh": false,
        "host": "",
        "id": 15063,
        "isAdminAdd": false,
        "link": "https://www.wanandroid.com/blog/show/2783",
        "niceDate": "2020-09-01 21:33",
        "niceShareDate": "2020-09-01 21:33",
        "origin": "",
        "prefix": "",
        "projectLink": "https://github.com/xiaotianzhen/openEYE_Kotlin",
        "publishTime": 1598967193000,
        "realSuperChapterId": 293,
        "selfVisible": 0,
        "shareDate": 1598967193000,
        "shareUser": "",
        "superChapterId": 294,
        "superChapterName": "开源项目主Tab",
        "tags": [
          {
            "name": "项目",
            "url": "/project/list/1?cid=402"
          }
        ],
        "title": "Kotlin-MVP开源app--开眼短视频",
        "type": 0,
        "userId": -1,
        "visible": 1,
        "zan": 0
      },
      {
        "adminAdd": false,
        "apkLink": "",
        "audit": 1,
        "author": "xiaweizi",
        "canEdit": false,
        "chapterId": 402,
        "chapterName": "跨平台应用",
        "collect": false,
        "courseId": 13,
        "desc": "一款简约风格的 flutter 天气项目，提供实时、多日、24 小时、台风路径以及生活指数等服务，支持定位、删除、搜索等操作。\r\n\r\n作为 flutter 实战项目，包含状态管理、网络请求、数据缓存、自定义 view、自定义动画，三方统计，事件管理等技术点，实用且丰富。",
        "descMd": "",
        "envelopePic": "https://wanandroid.com/blogimgs/1739af14-d772-41aa-a0f0-bc1fa3a27d08.png",
        "fresh": false,
        "host": "",
        "id": 15079,
        "isAdminAdd": false,
        "link": "https://www.wanandroid.com/blog/show/2785",
        "niceDate": "2020-09-01 21:30",
        "niceShareDate": "2020-09-01 21:30",
        "origin": "",
        "prefix": "",
        "projectLink": "https://github.com/xiaweizi/SimplicityWeather",
        "publishTime": 1598967002000,
        "realSuperChapterId": 293,
        "selfVisible": 0,
        "shareDate": 1598967002000,
        "shareUser": "",
        "superChapterId": 294,
        "superChapterName": "开源项目主Tab",
        "tags": [
          {
            "name": "项目",
            "url": "/project/list/1?cid=402"
          }
        ],
        "title": "『Flutter』一款风格简约功能丰富的天气",
        "type": 0,
        "userId": -1,
        "visible": 1,
        "zan": 0
      },
      {
        "adminAdd": false,
        "apkLink": "",
        "audit": 1,
        "author": "sunyongsheng",
        "canEdit": false,
        "chapterId": 402,
        "chapterName": "跨平台应用",
        "collect": false,
        "courseId": 13,
        "desc": "Allpass是一款简单的私密数据管理工具，包括支持密码存储与卡片信息存储。采用Flutter构建，目前完成了针对安卓的适配。\r\n\r\n密码与卡片信息管理\r\n支持指纹解锁软件\r\nAES256位加密\r\n支持从csv文件中导入或导出为csv文件\r\n支持从Chrome中导入密码\r\n支持从剪贴板中导入密码\r\n标签功能\r\n文件夹功能\r\n收藏功能\r\n备注功能\r\n密码生成器\r\n多选编辑功能\r\nWebDAV同步功能",
        "descMd": "",
        "envelopePic": "https://www.wanandroid.com/blogimgs/48ad5164-44e2-4799-bdc1-73c5c170d9e5.png",
        "fresh": false,
        "host": "",
        "id": 13458,
        "isAdminAdd": false,
        "link": "https://www.wanandroid.com/blog/show/2755",
        "niceDate": "2020-05-19 01:05",
        "niceShareDate": "2020-05-19 01:05",
        "origin": "",
        "prefix": "",
        "projectLink": "https://github.com/sunyongsheng/Allpass",
        "publishTime": 1589821541000,
        "realSuperChapterId": 293,
        "selfVisible": 0,
        "shareDate": 1589821541000,
        "shareUser": "",
        "superChapterId": 294,
        "superChapterName": "开源项目主Tab",
        "tags": [
          {
            "name": "项目",
            "url": "/project/list/1?cid=402"
          }
        ],
        "title": "Flutter私密信息管理工具Allpass",
        "type": 0,
        "userId": -1,
        "visible": 1,
        "zan": 0
      },
      {
        "adminAdd": false,
        "apkLink": "",
        "audit": 1,
        "author": "huangruiLearn",
        "canEdit": false,
        "chapterId": 402,
        "chapterName": "跨平台应用",
        "collect": false,
        "courseId": 13,
        "desc": "基于Fullter的仿微博客户端, 包含首页、视频、发现、消息(仿微博聊天界面)及个人中心模块,还原微博更新10.4.0版本80%界面,包含发布微博,转发,点赞,评论,聊天(只实现ui),登录,修改信息等功能，希望能帮助到大家！\r\n",
        "descMd": "",
        "envelopePic": "https://wanandroid.com/blogimgs/2490513e-299c-45e2-9fe8-15cfc48a72a8.png",
        "fresh": false,
        "host": "",
        "id": 13313,
        "isAdminAdd": false,
        "link": "https://www.wanandroid.com/blog/show/2753",
        "niceDate": "2020-05-08 22:15",
        "niceShareDate": "2020-05-08 22:15",
        "origin": "",
        "prefix": "",
        "projectLink": "https://github.com/huangruiLearn/flutter_hrlweibo",
        "publishTime": 1588947318000,
        "realSuperChapterId": 293,
        "selfVisible": 0,
        "shareDate": 1588947318000,
        "shareUser": "",
        "superChapterId": 294,
        "superChapterName": "开源项目主Tab",
        "tags": [
          {
            "name": "项目",
            "url": "/project/list/1?cid=402"
          }
        ],
        "title": "Flutter仿微博客户端",
        "type": 0,
        "userId": -1,
        "visible": 1,
        "zan": 0
      },
      {
        "adminAdd": false,
        "apkLink": "",
        "audit": 1,
        "author": "Yuzopro",
        "canEdit": false,
        "chapterId": 402,
        "chapterName": "跨平台应用",
        "collect": false,
        "courseId": 13,
        "desc": "OpenGit基于Flutter的Github客户端，支持Android和iOS。项目中涉及到BloC、Redux、国际化、多主题以及Github相关信息的查看等。",
        "descMd": "",
        "envelopePic": "https://wanandroid.com/resources/image/pc/default_project_img.jpg",
        "fresh": false,
        "host": "",
        "id": 13280,
        "isAdminAdd": false,
        "link": "https://www.wanandroid.com/blog/show/2752",
        "niceDate": "2020-05-06 22:06",
        "niceShareDate": "2020-05-06 22:06",
        "origin": "",
        "prefix": "",
        "projectLink": "https://github.com/Yuzopro/opengit_flutter",
        "publishTime": 1588773999000,
        "realSuperChapterId": 293,
        "selfVisible": 0,
        "shareDate": 1588773999000,
        "shareUser": "",
        "superChapterId": 294,
        "superChapterName": "开源项目主Tab",
        "tags": [
          {
            "name": "项目",
            "url": "/project/list/1?cid=402"
          }
        ],
        "title": "使用Flutter开发的一款仿Gitme的客户端",
        "type": 0,
        "userId": -1,
        "visible": 1,
        "zan": 0
      },
      {
        "adminAdd": false,
        "apkLink": "",
        "audit": 1,
        "author": "fmtjava",
        "canEdit": false,
        "chapterId": 402,
        "chapterName": "跨平台应用",
        "collect": false,
        "courseId": 13,
        "desc": "基于Fullter实现的一款精美的仿开眼视频(Eyepetizer )跨平台App,适合入门,快速掌握Dart语言以及上手flutter开发,希望和大家共同成长,喜欢的话，欢迎start或fork!",
        "descMd": "",
        "envelopePic": "https://www.wanandroid.com/blogimgs/28cc42a3-3b5a-47ea-b4f4-5cd935432a7d.png",
        "fresh": false,
        "host": "",
        "id": 13210,
        "isAdminAdd": false,
        "link": "https://www.wanandroid.com/blog/show/2750",
        "niceDate": "2020-04-29 01:18",
        "niceShareDate": "2020-04-29 01:18",
        "origin": "",
        "prefix": "",
        "projectLink": "https://github.com/fmtjava/flutter_eyepetizer",
        "publishTime": 1588094327000,
        "realSuperChapterId": 293,
        "selfVisible": 0,
        "shareDate": 1588094327000,
        "shareUser": "",
        "superChapterId": 294,
        "superChapterName": "开源项目主Tab",
        "tags": [
          {
            "name": "项目",
            "url": "/project/list/1?cid=402"
          }
        ],
        "title": "一款基于Flutter实现的精美仿开眼视频跨平台App,适合新手入门，快速掌握Dart语言的基本语法以及快速上手flutter开发。",
        "type": 0,
        "userId": -1,
        "visible": 1,
        "zan": 0
      },
      {
        "adminAdd": false,
        "apkLink": "",
        "audit": 1,
        "author": "wangjianxiandev",
        "canEdit": false,
        "chapterId": 402,
        "chapterName": "跨平台应用",
        "collect": false,
        "courseId": 13,
        "desc": ":fire:项目基于 Flutter 移动应用框架，采用 Dart 语言编写，打造体验较佳的WanAndroid客户端",
        "descMd": "",
        "envelopePic": "https://wanandroid.com/blogimgs/e4109fbf-47d9-461a-a87a-16f20cba974c.png",
        "fresh": false,
        "host": "",
        "id": 13060,
        "isAdminAdd": false,
        "link": "https://www.wanandroid.com/blog/show/2746",
        "niceDate": "2020-04-26 21:17",
        "niceShareDate": "2020-04-26 21:17",
        "origin": "",
        "prefix": "",
        "projectLink": "https://github.com/wangjianxiandev/WanAndroidFlutter",
        "publishTime": 1587907057000,
        "realSuperChapterId": 293,
        "selfVisible": 0,
        "shareDate": 1587907057000,
        "shareUser": "",
        "superChapterId": 294,
        "superChapterName": "开源项目主Tab",
        "tags": [
          {
            "name": "项目",
            "url": "/project/list/1?cid=402"
          }
        ],
        "title": "Hey Flutter: 体验较佳的WanAndroid Flutter客户端",
        "type": 0,
        "userId": -1,
        "visible": 1,
        "zan": 0
      },
      {
        "adminAdd": false,
        "apkLink": "",
        "audit": 1,
        "author": "xfhy",
        "canEdit": false,
        "chapterId": 402,
        "chapterName": "跨平台应用",
        "collect": false,
        "courseId": 13,
        "desc": "Flutter版本 WanAndroid客户端 适合Flutter入门学习 ",
        "descMd": "",
        "envelopePic": "https://www.wanandroid.com/blogimgs/f6481711-10b1-4852-acd9-4ef41f2ab89c.png",
        "fresh": false,
        "host": "",
        "id": 12960,
        "isAdminAdd": false,
        "link": "https://www.wanandroid.com/blog/show/2737",
        "niceDate": "2020-04-20 23:24",
        "niceShareDate": "2020-04-20 23:24",
        "origin": "",
        "prefix": "",
        "projectLink": "https://github.com/xfhy/WanAndroid-Flutter",
        "publishTime": 1587396253000,
        "realSuperChapterId": 293,
        "selfVisible": 0,
        "shareDate": 1587396253000,
        "shareUser": "",
        "superChapterId": 294,
        "superChapterName": "开源项目主Tab",
        "tags": [
          {
            "name": "项目",
            "url": "/project/list/1?cid=402"
          }
        ],
        "title": "Flutter版本 WanAndroid客户端 适合Flutter入门学习",
        "type": 0,
        "userId": -1,
        "visible": 1,
        "zan": 0
      },
      {
        "adminAdd": false,
        "apkLink": "",
        "audit": 1,
        "author": "yukilzw",
        "canEdit": false,
        "chapterId": 402,
        "chapterName": "跨平台应用",
        "collect": false,
        "courseId": 13,
        "desc": "本模板采用目前`react-native@0.6x`,`react-navigation@5.x`新版本，ts开发环境。\r\n一次开发跨平台运行（android、ios、H5）",
        "descMd": "",
        "envelopePic": "https://www.wanandroid.com/resources/image/pc/default_project_img.jpg",
        "fresh": false,
        "host": "",
        "id": 12956,
        "isAdminAdd": false,
        "link": "https://www.wanandroid.com/blog/show/2733",
        "niceDate": "2020-04-20 23:18",
        "niceShareDate": "2020-04-20 23:18",
        "origin": "",
        "prefix": "",
        "projectLink": "https://github.com/yukilzw/rn_web",
        "publishTime": 1587395899000,
        "realSuperChapterId": 293,
        "selfVisible": 0,
        "shareDate": 1587395899000,
        "shareUser": "",
        "superChapterId": 294,
        "superChapterName": "开源项目主Tab",
        "tags": [
          {
            "name": "项目",
            "url": "/project/list/1?cid=402"
          }
        ],
        "title": "TS版react-native三端同构设计",
        "type": 0,
        "userId": -1,
        "visible": 0,
        "zan": 0
      },
      {
        "adminAdd": false,
        "apkLink": "",
        "audit": 1,
        "author": "zskingking",
        "canEdit": false,
        "chapterId": 402,
        "chapterName": "跨平台应用",
        "collect": false,
        "courseId": 13,
        "desc": "App基于MVP架构，全部使用Kotlin语言开发，基本全部实现Wan Android API对应所有功能，后续会增加额外功能，欢迎关注，欢迎star。",
        "descMd": "",
        "envelopePic": "https://www.wanandroid.com/blogimgs/3b1ee979-bc7d-43d7-8cd9-af089936a001.png",
        "fresh": false,
        "host": "",
        "id": 12564,
        "isAdminAdd": false,
        "link": "https://www.wanandroid.com/blog/show/2723",
        "niceDate": "2020-03-24 00:47",
        "niceShareDate": "2020-03-24 00:47",
        "origin": "",
        "prefix": "",
        "projectLink": "https://github.com/zskingking/WanAndroid-ZS",
        "publishTime": 1584982059000,
        "realSuperChapterId": 293,
        "selfVisible": 0,
        "shareDate": 1584982059000,
        "shareUser": "",
        "superChapterId": 294,
        "superChapterName": "开源项目主Tab",
        "tags": [
          {
            "name": "项目",
            "url": "/project/list/1?cid=402"
          }
        ],
        "title": "Kotlin版玩安卓，超级简洁的界面，沉浸式的体验让你纵享丝滑。",
        "type": 0,
        "userId": -1,
        "visible": 1,
        "zan": 0
      },
      {
        "adminAdd": false,
        "apkLink": "",
        "audit": 1,
        "author": "maoqitian",
        "canEdit": false,
        "chapterId": 402,
        "chapterName": "跨平台应用",
        "collect": false,
        "courseId": 13,
        "desc": "这是一款跨平台的开源Flutter版本玩Android App。提供丰富完整的功能，更好的体验，旨在随时随地都能更好的浏览https://www.wanandroid.com/网站内容，更好的在手机上进行学习。",
        "descMd": "",
        "envelopePic": "https://www.wanandroid.com/blogimgs/c052115d-f806-4789-96a9-1f388a946bed.png",
        "fresh": false,
        "host": "",
        "id": 12459,
        "isAdminAdd": false,
        "link": "https://www.wanandroid.com/blog/show/2721",
        "niceDate": "2020-03-17 23:35",
        "niceShareDate": "2020-03-17 23:35",
        "origin": "",
        "prefix": "",
        "projectLink": "https://github.com/maoqitian/flutter_wanandroid",
        "publishTime": 1584459330000,
        "realSuperChapterId": 293,
        "selfVisible": 0,
        "shareDate": 1584459330000,
        "shareUser": "",
        "superChapterId": 294,
        "superChapterName": "开源项目主Tab",
        "tags": [
          {
            "name": "项目",
            "url": "/project/list/1?cid=402"
          }
        ],
        "title": "让你随时随地都能愉快学习、进阶Android技术的跨平台WanAndroid客户端。",
        "type": 0,
        "userId": -1,
        "visible": 1,
        "zan": 0
      }
    ],
    "offset": 0,
    "over": false,
    "pageCount": 5,
    "size": 15,
    "total": 67
  },
  "errorCode": 0,
  "errorMsg": ""
}