{
  "data": {
    "curPage": 1,
    "datas": [
      {
        "adminAdd": false,
        "apkLink": "",
        "audit": 1,
        "author": "ShowMeThe",
        "canEdit": false,
        "chapterId": 363,
        "chapterName": "创意汇",
        "collect": false,
        "courseId": 13,
        "desc": "利用Databinding的BindAdapter和Kotlin的拓展函数运用，在布局文件xml里实现，对空间的颜色切换管理。并且支持外部Json的添加和自定义view的处理",
        "descMd": "",
        "envelopePic": "https://www.wanandroid.com/resources/image/pc/default_project_img.jpg",
        "fresh": false,
        "host": "",
        "id": 12957,
        "isAdminAdd": false,
        "link": "https://www.wanandroid.com/blog/show/2734",
        "niceDate": "2020-04-20 23:21",
        "niceShareDate": "2020-04-20 23:21",
        "origin": "",
        "prefix": "",
        "projectLink": "https://github.com/ShowMeThe/SkinManager",
        "publishTime": 1587396063000,
        "realSuperChapterId": 293,
        "selfVisible": 0,
        "shareDate": 1587396063000,
        "shareUser": "",
        "superChapterId": 294,
        "superChapterName": "开源项目主Tab",
        "tags": [
          {
            "name": "项目",
            "url": "/project/list/1?cid=363"
          }
        ],
        "title": "在Databinding支持下进行控件颜色切换尝试的方案",
        "type": 0,
        "userId": -1,
        "visible": 0,
        "zan": 0
      },
      {
        "adminAdd": false,
        "apkLink": "",
        "audit": 1,
        "author": "Airsaid",
        "canEdit": false,
        "chapterId": 363,
        "chapterName": "创意汇",
        "collect": false,
        "courseId": 13,
        "desc": "一款或许可以激励你写代码的 IntelliJ IDEA 插件，每当你写一段代码后，便会随机为你更换 IDE 的背景图片。图片可以是可爱的猫咪、美女，你可以自定义。",
        "descMd": "",
        "envelopePic": "https://www.wanandroid.com/resources/image/pc/default_project_img.jpg",
        "fresh": false,
        "host": "",
        "id": 9264,
        "isAdminAdd": false,
        "link": "https://www.wanandroid.com/blog/show/2677",
        "niceDate": "2019-09-20 00:18",
        "niceShareDate": "2019-09-20 00:18",
        "origin": "",
        "prefix": "",
        "projectLink": "https://github.com/Airsaid/InspireWritingPlugin",
        "publishTime": 1568909905000,
        "realSuperChapterId": 293,
        "selfVisible": 0,
        "shareDate": 1568909905000,
        "shareUser": "",
        "superChapterId": 294,
        "superChapterName": "开源项目主Tab",
        "tags": [
          {
            "name": "项目",
            "url": "/project/list/1?cid=363"
          }
        ],
        "title": "一款或许能激励你写代码的 IntelliJ IDEA 插件！",
        "type": 0,
        "userId": -1,
        "visible": 1,
        "zan": 0
      },
      {
        "adminAdd": false,
        "apkLink": "",
        "audit": 1,
        "author": "FanChael",
        "canEdit": false,
        "chapterId": 363,
        "chapterName": "创意汇",
        "collect": false,
        "courseId": 13,
        "desc": "Electronic subtitle display - 电子字幕展示-接机、演唱会、见面、展示专用.",
        "descMd": "",
        "envelopePic": "https://wanandroid.com/blogimgs/fe3e90b9-0968-4e4f-a331-6232ecc07421.png",
        "fresh": false,
        "host": "",
        "id": 9091,
        "isAdminAdd": false,
        "link": "https://www.wanandroid.com/blog/show/2664",
        "niceDate": "2019-09-05 21:14",
        "niceShareDate": "未知时间",
        "origin": "",
        "prefix": "",
        "projectLink": "https://github.com/FanChael/SuperStart",
        "publishTime": 1567689262000,
        "realSuperChapterId": 293,
        "selfVisible": 0,
        "shareDate": null,
        "shareUser": "",
        "superChapterId": 294,
        "superChapterName": "开源项目主Tab",
        "tags": [
          {
            "name": "项目",
            "url": "/project/list/1?cid=363"
          }
        ],
        "title": "Electronic subtitle display - 电子字幕展示-接机、演唱会、见面、展示专用.",
        "type": 0,
        "userId": -1,
        "visible": 0,
        "zan": 0
      },
      {
        "adminAdd": false,
        "apkLink": "",
        "audit": 1,
        "author": "5A59",
        "canEdit": false,
        "chapterId": 363,
        "chapterName": "创意汇",
        "collect": false,
        "courseId": 13,
        "desc": "一款 python 实现的 &quot;轻量级&quot; jvm\r\n主要实现部分\r\nclass 文件解析\r\n类加载\r\n运行时数据区\r\n指令解释器\r\n基本指令集 (总共 205 条，实现了估计 190 多条吧)\r\n简易 gc\r\n简易线程\r\n简易 jdk 库\r\n\r\n可用功能\r\n基本运算 (加减乘除与或位移...)\r\n输出\r\n多线程运算 (但是没有加同步)\r\n类加载，继承，多态\r\n数组操作 (只支持一维数组)\r\ngc (模拟 gc)\r\n异常处理",
        "descMd": "",
        "envelopePic": "https://wanandroid.com/resources/image/pc/default_project_img.jpg",
        "fresh": false,
        "host": "",
        "id": 8896,
        "isAdminAdd": false,
        "link": "https://www.wanandroid.com/blog/show/2646",
        "niceDate": "2019-08-11 20:50",
        "niceShareDate": "未知时间",
        "origin": "",
        "prefix": "",
        "projectLink": "https://github.com/5A59/Zvm",
        "publishTime": 1565527802000,
        "realSuperChapterId": 293,
        "selfVisible": 0,
        "shareDate": null,
        "shareUser": "",
        "superChapterId": 294,
        "superChapterName": "开源项目主Tab",
        "tags": [
          {
            "name": "项目",
            "url": "/project/list/1?cid=363"
          }
        ],
        "title": "一款 python 实现的 &quot;轻量级&quot; jvm",
        "type": 0,
        "userId": -1,
        "visible": 1,
        "zan": 0
      },
      {
        "adminAdd": false,
        "apkLink": "",
        "audit": 1,
        "author": "songhanghang",
        "canEdit": false,
        "chapterId": 363,
        "chapterName": "创意汇",
        "collect": false,
        "courseId": 13,
        "desc": "一个可以实时定位Ta的App",
        "descMd": "",
        "envelopePic": "https://www.wanandroid.com/blogimgs/2f8304c6-0812-4bee-b299-f6d3df881904.png",
        "fresh": false,
        "host": "",
        "id": 8550,
        "isAdminAdd": false,
        "link": "https://www.wanandroid.com/blog/show/2601",
        "niceDate": "2019-06-01 11:40",
        "niceShareDate": "未知时间",
        "origin": "",
        "prefix": "",
        "projectLink": "https://github.com/songhanghang/redcord",
        "publishTime": 1559360431000,
        "realSuperChapterId": 293,
        "selfVisible": 0,
        "shareDate": null,
        "shareUser": "",
        "superChapterId": 294,
        "superChapterName": "开源项目主Tab",
        "tags": [
          {
            "name": "项目",
            "url": "/project/list/1?cid=363"
          }
        ],
        "title": "Redcord  红绳-连接你我",
        "type": 0,
        "userId": -1,
        "visible": 1,
        "zan": 0
      },
      {
        "adminAdd": false,
        "apkLink": "",
        "audit": 1,
        "author": "cwjfeifei",
        "canEdit": false,
        "chapterId": 363,
        "chapterName": "创意汇",
        "collect": false,
        "courseId": 13,
        "desc": "用于征信、金融类型APP的淘宝数据获取(昵称、手机号码、正式姓名、性别、生日、身份证、登录邮箱、极速退款金额、头像地址、成长值、VIP等级、淘气值、 是否实名认证、淘宝地址、订单详情、支付宝账号、账户余额、余额宝余额、累计收益)",
        "descMd": "",
        "envelopePic": "https://www.wanandroid.com/blogimgs/2e140920-5d04-4bee-ab07-53e0ae01358f.png",
        "fresh": false,
        "host": "",
        "id": 8391,
        "isAdminAdd": false,
        "link": "https://www.wanandroid.com/blog/show/2563",
        "niceDate": "2019-05-12 23:24",
        "niceShareDate": "未知时间",
        "origin": "",
        "prefix": "",
        "projectLink": "https://github.com/cwjfeifei/taobao",
        "publishTime": 1557674698000,
        "realSuperChapterId": 293,
        "selfVisible": 0,
        "shareDate": null,
        "shareUser": "",
        "superChapterId": 294,
        "superChapterName": "开源项目主Tab",
        "tags": [
          {
            "name": "项目",
            "url": "/project/list/1?cid=363"
          }
        ],
        "title": "Android 淘宝 爬虫 学习",
        "type": 0,
        "userId": -1,
        "visible": 0,
        "zan": 0
      },
      {
        "adminAdd": false,
        "apkLink": "",
        "audit": 1,
        "author": "KunMinX",
        "canEdit": false,
        "chapterId": 363,
        "chapterName": "创意汇",
        "collect": false,
        "courseId": 13,
        "desc": "且有不少网友对 Rx钥匙 的期待远远超出了其本身，期望那是一把能够解决无聊、带给自己更多的魔法棒。再加上，我自己也因为 &ldquo;拿 SQL 来隐喻操作符&rdquo; 的那番见解，而心生灵感：\r\n\r\n不如做一件史上更无聊的事吧 &mdash;&mdash; 像设计师一样将每个像素都抠到极致，像工程师一样将工程设计模式和原则应用到每一个功能的编写，用无聊的方式来对抗无聊 &mdash;&mdash; 这是一款为无聊而生的面向 Android 开发者的操作符练习工具。",
        "descMd": "",
        "envelopePic": "https://www.wanandroid.com/blogimgs/f82b5914-5c50-4fa7-bdf0-20f321368667.png",
        "fresh": false,
        "host": "",
        "id": 8394,
        "isAdminAdd": false,
        "link": "https://www.wanandroid.com/blog/show/2566",
        "niceDate": "2019-05-12 23:24",
        "niceShareDate": "未知时间",
        "origin": "",
        "prefix": "",
        "projectLink": "https://github.com/KunMinX/RxJava2-Operators-Sample",
        "publishTime": 1557674695000,
        "realSuperChapterId": 293,
        "selfVisible": 0,
        "shareDate": null,
        "shareUser": "",
        "superChapterId": 294,
        "superChapterName": "开源项目主Tab",
        "tags": [
          {
            "name": "项目",
            "url": "/project/list/1?cid=363"
          }
        ],
        "title": "Rx钥匙：你用不惯 RxJava，只因缺了这把钥匙",
        "type": 0,
        "userId": -1,
        "visible": 0,
        "zan": 0
      },
      {
        "adminAdd": false,
        "apkLink": "",
        "audit": 1,
        "author": "wuyr",
        "canEdit": false,
        "chapterId": 363,
        "chapterName": "创意汇",
        "collect": false,
        "courseId": 13,
        "desc": "Base64刚好对应64卦象，编码时先将目标字符串转成标准的Base64，然后拆分每一个字符，从映射表中取出对应的卦象。解码同理，先把卦象码通过映射表得到Base64，然后解码Base64。\r\n",
        "descMd": "",
        "envelopePic": "https://wanandroid.com/resources/image/pc/default_project_img.jpg",
        "fresh": false,
        "host": "",
        "id": 8365,
        "isAdminAdd": false,
        "link": "https://www.wanandroid.com/blog/show/2560",
        "niceDate": "2019-05-06 23:41",
        "niceShareDate": "未知时间",
        "origin": "",
        "prefix": "",
        "projectLink": "https://github.com/wuyr/HexagramDecoder",
        "publishTime": 1557157262000,
        "realSuperChapterId": 293,
        "selfVisible": 0,
        "shareDate": null,
        "shareUser": "",
        "superChapterId": 294,
        "superChapterName": "开源项目主Tab",
        "tags": [
          {
            "name": "项目",
            "url": "/project/list/1?cid=363"
          }
        ],
        "title": "易经64卦编解码（HexagramDecoder）",
        "type": 0,
        "userId": -1,
        "visible": 1,
        "zan": 0
      },
      {
        "adminAdd": false,
        "apkLink": "",
        "audit": 1,
        "author": "xchengDroid",
        "canEdit": false,
        "chapterId": 363,
        "chapterName": "创意汇",
        "collect": false,
        "courseId": 13,
        "desc": "Bundle 自动装箱和拆箱",
        "descMd": "",
        "envelopePic": "https://www.wanandroid.com/resources/image/pc/default_project_img.jpg",
        "fresh": false,
        "host": "",
        "id": 8301,
        "isAdminAdd": false,
        "link": "https://www.wanandroid.com/blog/show/2557",
        "niceDate": "2019-04-22 21:04",
        "niceShareDate": "未知时间",
        "origin": "",
        "prefix": "",
        "projectLink": "https://github.com/xchengDroid/AutoBundle",
        "publishTime": 1555938272000,
        "realSuperChapterId": 293,
        "selfVisible": 0,
        "shareDate": null,
        "shareUser": "",
        "superChapterId": 294,
        "superChapterName": "开源项目主Tab",
        "tags": [
          {
            "name": "项目",
            "url": "/project/list/1?cid=363"
          }
        ],
        "title": "Android Bundle 自动装箱和拆箱",
        "type": 0,
        "userId": -1,
        "visible": 1,
        "zan": 0
      },
      {
        "adminAdd": false,
        "apkLink": "",
        "audit": 1,
        "author": "linkaipeng",
        "canEdit": false,
        "chapterId": 363,
        "chapterName": "创意汇",
        "collect": false,
        "courseId": 13,
        "desc": "AutoSharedPreference 是一个可以通过给类成员添加注解来自动生成 SharedPreferences 的工具。\r\n提高开发效率。",
        "descMd": "",
        "envelopePic": "https://www.wanandroid.com/resources/image/pc/default_project_img.jpg",
        "fresh": false,
        "host": "",
        "id": 8254,
        "isAdminAdd": false,
        "link": "https://www.wanandroid.com/blog/show/2547",
        "niceDate": "2019-04-15 22:52",
        "niceShareDate": "未知时间",
        "origin": "",
        "prefix": "",
        "projectLink": "https://github.com/linkaipeng/AutoSharedPreference",
        "publishTime": 1555339979000,
        "realSuperChapterId": 293,
        "selfVisible": 0,
        "shareDate": null,
        "shareUser": "",
        "superChapterId": 294,
        "superChapterName": "开源项目主Tab",
        "tags": [
          {
            "name": "项目",
            "url": "/project/list/1?cid=363"
          }
        ],
        "title": "通过注解自动生成 SharedPreferences",
        "type": 0,
        "userId": -1,
        "visible": 1,
        "zan": 0
      },
      {
        "adminAdd": false,
        "apkLink": "",
        "audit": 1,
        "author": "LillteZheng",
        "canEdit": false,
        "chapterId": 363,
        "chapterName": "创意汇",
        "collect": false,
        "courseId": 13,
        "desc": "从 Glide 抽出来的生命周期监听小工具",
        "descMd": "",
        "envelopePic": "http://www.wanandroid.com/resources/image/pc/default_project_img.jpg",
        "fresh": false,
        "host": "",
        "id": 8027,
        "isAdminAdd": false,
        "link": "https://www.wanandroid.com/blog/show/2516",
        "niceDate": "2019-03-10 15:37",
        "niceShareDate": "未知时间",
        "origin": "",
        "prefix": "",
        "projectLink": "https://github.com/LillteZheng/ZlifeCycle",
        "publishTime": 1552203455000,
        "realSuperChapterId": 293,
        "selfVisible": 0,
        "shareDate": null,
        "shareUser": "",
        "superChapterId": 294,
        "superChapterName": "开源项目主Tab",
        "tags": [
          {
            "name": "项目",
            "url": "/project/list/1?cid=363"
          }
        ],
        "title": "Android 生命周期监听",
        "type": 0,
        "userId": -1,
        "visible": 1,
        "zan": 0
      },
      {
        "adminAdd": false,
        "apkLink": "",
        "audit": 1,
        "author": "Guolei1130",
        "canEdit": false,
        "chapterId": 363,
        "chapterName": "创意汇",
        "collect": false,
        "courseId": 13,
        "desc": "让你在Android P上使用hideapi的库",
        "descMd": "",
        "envelopePic": "http://www.wanandroid.com/resources/image/pc/default_project_img.jpg",
        "fresh": false,
        "host": "",
        "id": 7953,
        "isAdminAdd": false,
        "link": "https://www.wanandroid.com/blog/show/2502",
        "niceDate": "2019-02-22 10:28",
        "niceShareDate": "未知时间",
        "origin": "",
        "prefix": "",
        "projectLink": "https://github.com/Guolei1130/android_p_no_sdkapi_support",
        "publishTime": 1550802521000,
        "realSuperChapterId": 293,
        "selfVisible": 0,
        "shareDate": null,
        "shareUser": "",
        "superChapterId": 294,
        "superChapterName": "开源项目主Tab",
        "tags": [
          {
            "name": "项目",
            "url": "/project/list/1?cid=363"
          }
        ],
        "title": "教你在Android P上突破hide api限制",
        "type": 0,
        "userId": -1,
        "visible": 0,
        "zan": 0
      },
      {
        "adminAdd": false,
        "apkLink": "",
        "audit": 1,
        "author": "yanzhenjie",
        "canEdit": false,
        "chapterId": 363,
        "chapterName": "创意汇",
        "collect": false,
        "courseId": 13,
        "desc": "基于编译时注解实现了SpringMVC的注解Api，可以把Android当作服务器，写Http Api和部署网站。",
        "descMd": "",
        "envelopePic": "http://wanandroid.com/resources/image/pc/default_project_img.jpg",
        "fresh": false,
        "host": "",
        "id": 7891,
        "isAdminAdd": false,
        "link": "https://www.wanandroid.com/blog/show/2492",
        "niceDate": "2019-01-23 20:52",
        "niceShareDate": "未知时间",
        "origin": "",
        "prefix": "",
        "projectLink": "https://github.com/yanzhenjie/AndServer",
        "publishTime": 1548247944000,
        "realSuperChapterId": 293,
        "selfVisible": 0,
        "shareDate": null,
        "shareUser": "",
        "superChapterId": 294,
        "superChapterName": "开源项目主Tab",
        "tags": [
          {
            "name": "项目",
            "url": "/project/list/1?cid=363"
          }
        ],
        "title": "像SpringMVC一样，在Android上做Web开发",
        "type": 0,
        "userId": -1,
        "visible": 0,
        "zan": 0
      },
      {
        "adminAdd": false,
        "apkLink": "",
        "audit": 1,
        "author": "LillteZheng",
        "canEdit": false,
        "chapterId": 363,
        "chapterName": "创意汇",
        "collect": false,
        "courseId": 13,
        "desc": "开发中，我们常常会需要有apk升级，或者下载某个文件的问题。所以这里就写了个通用的文件下载的功能 ZDloader。通过这篇文章你将看到\r\n\r\n常用框架 API 接口设计\r\n多线程下载原理与实现\r\n后台下载，界面退出之后，进来继续显示下载UI的原理",
        "descMd": "",
        "envelopePic": "http://wanandroid.com/blogimgs/1bfcbb75-2f48-4fb3-afc8-5416b019d808.png",
        "fresh": false,
        "host": "",
        "id": 7806,
        "isAdminAdd": false,
        "link": "https://www.wanandroid.com/blog/show/2491",
        "niceDate": "2019-01-17 18:51",
        "niceShareDate": "未知时间",
        "origin": "",
        "prefix": "",
        "projectLink": "https://github.com/LillteZheng/ZDownLoader",
        "publishTime": 1547722297000,
        "realSuperChapterId": 293,
        "selfVisible": 0,
        "shareDate": null,
        "shareUser": "",
        "superChapterId": 294,
        "superChapterName": "开源项目主Tab",
        "tags": [
          {
            "name": "项目",
            "url": "/project/list/1?cid=363"
          }
        ],
        "title": "简易文件下载器",
        "type": 0,
        "userId": -1,
        "visible": 0,
        "zan": 0
      },
      {
        "adminAdd": false,
        "apkLink": "",
        "audit": 1,
        "author": "samlss",
        "canEdit": false,
        "chapterId": 363,
        "chapterName": "创意汇",
        "collect": false,
        "courseId": 13,
        "desc": "一个可以给view显示粒子爆炸/绽放效果的android库",
        "descMd": "",
        "envelopePic": "http://wanandroid.com/blogimgs/f0cfbe76-2e96-4df3-b83d-933c40546c63.png",
        "fresh": false,
        "host": "",
        "id": 7737,
        "isAdminAdd": false,
        "link": "https://www.wanandroid.com/blog/show/2478",
        "niceDate": "2019-01-03 20:07",
        "niceShareDate": "未知时间",
        "origin": "",
        "prefix": "",
        "projectLink": "https://github.com/samlss/Bloom",
        "publishTime": 1546517257000,
        "realSuperChapterId": 293,
        "selfVisible": 0,
        "shareDate": null,
        "shareUser": "",
        "superChapterId": 294,
        "superChapterName": "开源项目主Tab",
        "tags": [
          {
            "name": "项目",
            "url": "/project/list/1?cid=363"
          }
        ],
        "title": "一个可以给view显示粒子爆炸/绽放效果的android库 Bloom",
        "type": 0,
        "userId": -1,
        "visible": 1,
        "zan": 0
      }
    ],
    "offset": 0,
    "over": false,
    "pageCount": 4,
    "size": 15,
    "total": 48
  },
  "errorCode": 0,
  "errorMsg": ""
}