{
  "data": {
    "curPage": 1,
    "datas": [
      {
        "adminAdd": false,
        "apkLink": "",
        "audit": 1,
        "author": "xiazunyang",
        "canEdit": false,
        "chapterId": 385,
        "chapterName": "架构",
        "collect": false,
        "courseId": 13,
        "desc": "辅助android开发者搭建基于JetPack组件构建的MVVM框架，通过注解自动生成ViewModel辅助类；支持在项目的任意位置注入ROOM的dao层接口与Retrofit库中的api接口和任意无参实例。\r\nbrick使用4-6个注解即可工作。brick主要在编译期工作， 不会在App运行时产生任何额外的性能消耗 ，并且只有1个注解库会打包到你的android工程中，不用担心体积增大的问题。\r\n",
        "descMd": "",
        "envelopePic": "https://wanandroid.com/resources/image/pc/default_project_img.jpg",
        "fresh": false,
        "host": "",
        "id": 15062,
        "isAdminAdd": false,
        "link": "https://www.wanandroid.com/blog/show/2782",
        "niceDate": "2020-09-01 21:31",
        "niceShareDate": "2020-09-01 21:31",
        "origin": "",
        "prefix": "",
        "projectLink": "https://github.com/xiazunyang/brick2",
        "publishTime": 1598967115000,
        "realSuperChapterId": 293,
        "selfVisible": 0,
        "shareDate": 1598967115000,
        "shareUser": "",
        "superChapterId": 294,
        "superChapterName": "开源项目主Tab",
        "tags": [
          {
            "name": "项目",
            "url": "/project/list/1?cid=385"
          }
        ],
        "title": "【更新】简单、快速搭建基于JetPack组件的MVVM架构，适用于多IP、多端口的项目。",
        "type": 0,
        "userId": -1,
        "visible": 0,
        "zan": 0
      },
      {
        "adminAdd": false,
        "apkLink": "",
        "audit": 1,
        "author": "AlbertShen0211",
        "canEdit": false,
        "chapterId": 385,
        "chapterName": "架构",
        "collect": false,
        "courseId": 13,
        "desc": "在Android架构组件基础上，融入Kotlin 协程+retrofit，模拟网络，使用MVVM架构全面快速开发。",
        "descMd": "",
        "envelopePic": "https://wanandroid.com/resources/image/pc/default_project_img.jpg",
        "fresh": false,
        "host": "",
        "id": 13057,
        "isAdminAdd": false,
        "link": "https://www.wanandroid.com/blog/show/2743",
        "niceDate": "2020-04-26 21:15",
        "niceShareDate": "2020-04-26 21:15",
        "origin": "",
        "prefix": "",
        "projectLink": "https://github.com/AlbertShen0211/Android-architecture-components",
        "publishTime": 1587906911000,
        "realSuperChapterId": 293,
        "selfVisible": 0,
        "shareDate": 1587906911000,
        "shareUser": "",
        "superChapterId": 294,
        "superChapterName": "开源项目主Tab",
        "tags": [
          {
            "name": "项目",
            "url": "/project/list/1?cid=385"
          }
        ],
        "title": "Android Jetpack 更佳开发姿势",
        "type": 0,
        "userId": -1,
        "visible": 1,
        "zan": 0
      },
      {
        "adminAdd": false,
        "apkLink": "",
        "audit": 1,
        "author": "cn-ljb",
        "canEdit": false,
        "chapterId": 385,
        "chapterName": "架构",
        "collect": false,
        "courseId": 13,
        "desc": "快捷、高效、低耦合的Android MVP架构。\r\n\r\n* 支持Java、Kotlin混编；\r\n* 支持自动生成代码。",
        "descMd": "",
        "envelopePic": "https://wanandroid.com/blogimgs/297e7e42-cad3-4e9c-b37b-d2d16c3fe5be.png",
        "fresh": false,
        "host": "",
        "id": 8718,
        "isAdminAdd": false,
        "link": "https://www.wanandroid.com/blog/show/2625",
        "niceDate": "2019-07-23 16:18",
        "niceShareDate": "未知时间",
        "origin": "",
        "prefix": "",
        "projectLink": "https://github.com/cn-ljb/mvp-kotlin",
        "publishTime": 1563869908000,
        "realSuperChapterId": 293,
        "selfVisible": 0,
        "shareDate": null,
        "shareUser": "",
        "superChapterId": 294,
        "superChapterName": "开源项目主Tab",
        "tags": [
          {
            "name": "项目",
            "url": "/project/list/1?cid=385"
          }
        ],
        "title": "Kotlin-MVP架构 -  支持Kotlin&amp;Java混编、支持代码自动生成",
        "type": 0,
        "userId": -1,
        "visible": 1,
        "zan": 0
      },
      {
        "adminAdd": false,
        "apkLink": "",
        "audit": 1,
        "author": "zhiwei1990",
        "canEdit": false,
        "chapterId": 385,
        "chapterName": "架构",
        "collect": false,
        "courseId": 13,
        "desc": "Android-Jetpack-Demo 是一个简单的、集成当前Google主流Android技术的示例Demo，旨在帮助有需要的初级开发者，快速上手Android新技术、新架构。",
        "descMd": "",
        "envelopePic": "https://www.wanandroid.com/blogimgs/cb91bcf4-54f3-40c4-ab1f-a615e6800935.png",
        "fresh": false,
        "host": "",
        "id": 8539,
        "isAdminAdd": false,
        "link": "https://www.wanandroid.com/blog/show/2590",
        "niceDate": "2019-06-01 10:39",
        "niceShareDate": "未知时间",
        "origin": "",
        "prefix": "",
        "projectLink": "https://github.com/zhiwei1990/android-jetpack-demo",
        "publishTime": 1559356774000,
        "realSuperChapterId": 293,
        "selfVisible": 0,
        "shareDate": null,
        "shareUser": "",
        "superChapterId": 294,
        "superChapterName": "开源项目主Tab",
        "tags": [
          {
            "name": "项目",
            "url": "/project/list/1?cid=385"
          }
        ],
        "title": "Android Jetpack技术入门",
        "type": 0,
        "userId": -1,
        "visible": 1,
        "zan": 0
      },
      {
        "adminAdd": false,
        "apkLink": "",
        "audit": 1,
        "author": "bboylin",
        "canEdit": false,
        "chapterId": 385,
        "chapterName": "架构",
        "collect": false,
        "courseId": 13,
        "desc": "支持增量编译和组件化开发的路由框架",
        "descMd": "",
        "envelopePic": "https://www.wanandroid.com/resources/image/pc/default_project_img.jpg",
        "fresh": false,
        "host": "",
        "id": 8076,
        "isAdminAdd": false,
        "link": "https://www.wanandroid.com/blog/show/2527",
        "niceDate": "2019-03-18 23:29",
        "niceShareDate": "未知时间",
        "origin": "",
        "prefix": "",
        "projectLink": "https://github.com/bboylin/Pigeon",
        "publishTime": 1552922999000,
        "realSuperChapterId": 293,
        "selfVisible": 0,
        "shareDate": null,
        "shareUser": "",
        "superChapterId": 294,
        "superChapterName": "开源项目主Tab",
        "tags": [
          {
            "name": "项目",
            "url": "/project/list/1?cid=385"
          }
        ],
        "title": "Pigeon&mdash;&mdash;支持增量编译和组件化开发的路由框架",
        "type": 0,
        "userId": -1,
        "visible": 1,
        "zan": 0
      },
      {
        "adminAdd": false,
        "apkLink": "",
        "audit": 1,
        "author": "ittianyu",
        "canEdit": false,
        "chapterId": 385,
        "chapterName": "架构",
        "collect": false,
        "courseId": 13,
        "desc": "经过几个月的努力，正式发布第一个稳定版本。欢迎大家指教。\r\n框架具有如下优势：\r\n* 稳定\r\n* 轻量\r\n* 接入成本低\r\n* 简单\r\n* 解耦\r\n* 高复用\r\n* 便捷的生命周期\r\n* 异步支持 (同步发请求)\r\n* 缓存支持\r\n* 页面状态管理\r\n* 请求过滤\r\n* 重试支持\r\n* 动态属性设置能力\r\n",
        "descMd": "",
        "envelopePic": "http://wanandroid.com/resources/image/pc/default_project_img.jpg",
        "fresh": false,
        "host": "",
        "id": 7726,
        "isAdminAdd": false,
        "link": "https://www.wanandroid.com/blog/show/2467",
        "niceDate": "2019-01-03 20:03",
        "niceShareDate": "未知时间",
        "origin": "",
        "prefix": "",
        "projectLink": "https://github.com/ittianyu/relight",
        "publishTime": 1546517007000,
        "realSuperChapterId": 293,
        "selfVisible": 0,
        "shareDate": null,
        "shareUser": "",
        "superChapterId": 294,
        "superChapterName": "开源项目主Tab",
        "tags": [
          {
            "name": "项目",
            "url": "/project/list/1?cid=385"
          }
        ],
        "title": "还在用 MVP？快来试试 MVVM！ Relight：轻量级 MVVM 框架",
        "type": 0,
        "userId": -1,
        "visible": 1,
        "zan": 0
      },
      {
        "adminAdd": false,
        "apkLink": "",
        "audit": 1,
        "author": "goldze",
        "canEdit": false,
        "chapterId": 385,
        "chapterName": "架构",
        "collect": false,
        "courseId": 13,
        "desc": "基于MVVMHabit框架，结合阿里ARouter打造的一套Android-Databinding组件化开发方案。",
        "descMd": "",
        "envelopePic": "http://wanandroid.com/blogimgs/ebeabcb0-60c3-4d8b-a4e9-b1c0a620ac04.png",
        "fresh": false,
        "host": "",
        "id": 7700,
        "isAdminAdd": false,
        "link": "https://www.wanandroid.com/blog/show/2461",
        "niceDate": "2018-12-24 20:25",
        "niceShareDate": "未知时间",
        "origin": "",
        "prefix": "",
        "projectLink": "https://github.com/goldze/MVVMHabitComponent",
        "publishTime": 1545654308000,
        "realSuperChapterId": 293,
        "selfVisible": 0,
        "shareDate": null,
        "shareUser": "",
        "superChapterId": 294,
        "superChapterName": "开源项目主Tab",
        "tags": [
          {
            "name": "项目",
            "url": "/project/list/1?cid=385"
          }
        ],
        "title": "Android MVVM组件化架构方案",
        "type": 0,
        "userId": -1,
        "visible": 1,
        "zan": 0
      },
      {
        "adminAdd": false,
        "apkLink": "",
        "audit": 1,
        "author": "jenly1314",
        "canEdit": false,
        "chapterId": 385,
        "chapterName": "架构",
        "collect": false,
        "courseId": 13,
        "desc": "MVVMFrame是一个基于Architecture Components dependencies构建的快速开发框架。从此构建一个MVVM模式的项目变得快捷简单。",
        "descMd": "",
        "envelopePic": "http://wanandroid.com/resources/image/pc/default_project_img.jpg",
        "fresh": false,
        "host": "",
        "id": 7695,
        "isAdminAdd": false,
        "link": "https://www.wanandroid.com/blog/show/2456",
        "niceDate": "2018-12-24 20:10",
        "niceShareDate": "未知时间",
        "origin": "",
        "prefix": "",
        "projectLink": "https://github.com/jenly1314/MVVMFrame",
        "publishTime": 1545653440000,
        "realSuperChapterId": 293,
        "selfVisible": 0,
        "shareDate": null,
        "shareUser": "",
        "superChapterId": 294,
        "superChapterName": "开源项目主Tab",
        "tags": [
          {
            "name": "项目",
            "url": "/project/list/1?cid=385"
          }
        ],
        "title": "MVVMFrame基于Architecture Components dependencies构建的MVVM快速开发框架",
        "type": 0,
        "userId": -1,
        "visible": 0,
        "zan": 0
      },
      {
        "adminAdd": false,
        "apkLink": "",
        "audit": 1,
        "author": "serge66",
        "canEdit": false,
        "chapterId": 385,
        "chapterName": "架构",
        "collect": false,
        "courseId": 13,
        "desc": "你是否遇到过Activity/Fragment中成百上千行代码,完全无法维护,看着头疼?\r\n\r\n你是否遇到过因后台接口还未写而你不能先写代码逻辑的情况?\r\n\r\n你是否遇到过用MVC架构写的项目进行单元测试时的深深无奈?",
        "descMd": "",
        "envelopePic": "http://wanandroid.com/resources/image/pc/default_project_img.jpg",
        "fresh": false,
        "host": "",
        "id": 7593,
        "isAdminAdd": false,
        "link": "https://www.wanandroid.com/blog/show/2440",
        "niceDate": "2018-11-29 21:15",
        "niceShareDate": "未知时间",
        "origin": "",
        "prefix": "",
        "projectLink": "https://github.com/serge66/MVPDemo",
        "publishTime": 1543497308000,
        "realSuperChapterId": 293,
        "selfVisible": 0,
        "shareDate": null,
        "shareUser": "",
        "superChapterId": 294,
        "superChapterName": "开源项目主Tab",
        "tags": [
          {
            "name": "项目",
            "url": "/project/list/1?cid=385"
          }
        ],
        "title": "Android MVP架构从入门到精通-真枪实弹",
        "type": 0,
        "userId": -1,
        "visible": 1,
        "zan": 0
      },
      {
        "adminAdd": false,
        "apkLink": "",
        "audit": 1,
        "author": "TLocation",
        "canEdit": false,
        "chapterId": 385,
        "chapterName": "架构",
        "collect": false,
        "courseId": 13,
        "desc": "Mvproute 是一个Android mvp 开发框架  内置了基础 Base类 二次封装的RecyclerAdapter\r\n封装的RxJava+Retrofit的网络请求框架\r\n还有一些工具类  ",
        "descMd": "",
        "envelopePic": "http://www.wanandroid.com/resources/image/pc/default_project_img.jpg",
        "fresh": false,
        "host": "",
        "id": 7560,
        "isAdminAdd": false,
        "link": "https://www.wanandroid.com/blog/show/2434",
        "niceDate": "2018-11-22 23:26",
        "niceShareDate": "未知时间",
        "origin": "",
        "prefix": "",
        "projectLink": "https://github.com/TLocation/MvpRoute",
        "publishTime": 1542900407000,
        "realSuperChapterId": 293,
        "selfVisible": 0,
        "shareDate": null,
        "shareUser": "",
        "superChapterId": 294,
        "superChapterName": "开源项目主Tab",
        "tags": [
          {
            "name": "项目",
            "url": "/project/list/1?cid=385"
          }
        ],
        "title": "轻量级的mvp开发框架",
        "type": 0,
        "userId": -1,
        "visible": 1,
        "zan": 0
      },
      {
        "adminAdd": false,
        "apkLink": "",
        "audit": 1,
        "author": "DrownCoder",
        "canEdit": false,
        "chapterId": 385,
        "chapterName": "架构",
        "collect": false,
        "courseId": 13,
        "desc": "基于编译期注解的适用于复杂楼层样式的RecyclerView的开发模式，支持组件化工程，提供全局打通，MVP等API，代码侵入性低，高定制性。",
        "descMd": "",
        "envelopePic": "http://www.wanandroid.com/resources/image/pc/default_project_img.jpg",
        "fresh": false,
        "host": "",
        "id": 7559,
        "isAdminAdd": false,
        "link": "https://www.wanandroid.com/blog/show/2433",
        "niceDate": "2018-11-22 23:26",
        "niceShareDate": "未知时间",
        "origin": "",
        "prefix": "",
        "projectLink": "https://github.com/DrownCoder/EMvp",
        "publishTime": 1542900393000,
        "realSuperChapterId": 293,
        "selfVisible": 0,
        "shareDate": null,
        "shareUser": "",
        "superChapterId": 294,
        "superChapterName": "开源项目主Tab",
        "tags": [
          {
            "name": "项目",
            "url": "/project/list/1?cid=385"
          }
        ],
        "title": "EMvp-基于AOP的一种RecyclerView多楼层开发模式，支持组件化，全局楼层打通，MVP等高拓展性功能",
        "type": 0,
        "userId": -1,
        "visible": 1,
        "zan": 0
      },
      {
        "adminAdd": false,
        "apkLink": "",
        "audit": 1,
        "author": "ManbangGroup",
        "canEdit": false,
        "chapterId": 385,
        "chapterName": "架构",
        "collect": false,
        "courseId": 13,
        "desc": "Phantom &mdash; 唯一零 Hook 稳定占坑类 Android 热更新插件化方案\r\n",
        "descMd": "",
        "envelopePic": "http://www.wanandroid.com/resources/image/pc/default_project_img.jpg",
        "fresh": false,
        "host": "",
        "id": 7396,
        "isAdminAdd": false,
        "link": "https://www.wanandroid.com/blog/show/2405",
        "niceDate": "2018-10-24 23:48",
        "niceShareDate": "未知时间",
        "origin": "",
        "prefix": "",
        "projectLink": "https://github.com/ManbangGroup/Phantom",
        "publishTime": 1540396116000,
        "realSuperChapterId": 293,
        "selfVisible": 0,
        "shareDate": null,
        "shareUser": "",
        "superChapterId": 294,
        "superChapterName": "开源项目主Tab",
        "tags": [
          {
            "name": "项目",
            "url": "/project/list/1?cid=385"
          }
        ],
        "title": "Phantom &mdash; 唯一零 Hook 稳定占坑类 Android 热更新插件化方案",
        "type": 0,
        "userId": -1,
        "visible": 1,
        "zan": 0
      },
      {
        "adminAdd": false,
        "apkLink": "",
        "audit": 1,
        "author": "PrototypeZ",
        "canEdit": false,
        "chapterId": 385,
        "chapterName": "架构",
        "collect": false,
        "courseId": 13,
        "desc": "极简 Android 组件化方案。仅包含 3 个注解加 1 个 API，超低学习成本，支持渐进式组件化。",
        "descMd": "",
        "envelopePic": "http://wanandroid.com/resources/image/pc/default_project_img.jpg",
        "fresh": false,
        "host": "",
        "id": 7390,
        "isAdminAdd": false,
        "link": "https://www.wanandroid.com/blog/show/2403",
        "niceDate": "2018-10-22 20:47",
        "niceShareDate": "未知时间",
        "origin": "",
        "prefix": "",
        "projectLink": "https://github.com/PrototypeZ/AppJoint",
        "publishTime": 1540212444000,
        "realSuperChapterId": 293,
        "selfVisible": 0,
        "shareDate": null,
        "shareUser": "",
        "superChapterId": 294,
        "superChapterName": "开源项目主Tab",
        "tags": [
          {
            "name": "项目",
            "url": "/project/list/1?cid=385"
          }
        ],
        "title": "AppJoint 极简 Android 组件化方案",
        "type": 0,
        "userId": -1,
        "visible": 1,
        "zan": 0
      },
      {
        "adminAdd": false,
        "apkLink": "",
        "audit": 1,
        "author": "zhongxiong00",
        "canEdit": false,
        "chapterId": 385,
        "chapterName": "架构",
        "collect": false,
        "courseId": 13,
        "desc": "SimpleProject让开发者快速搭建一个Android项目，里面使用的技术有 \r\n1.mvp设计模式 \r\n2.Tinker热修复 \r\n3.今日头条适配方案 \r\n4.Glide图片加载 \r\n5.Okhttp网络请求 \r\n6.下拉刷新，上拉加载更多 \r\n7.EventBus\r\n如果你也打算在你的项目中使用这些技术，可以直接使用此项目作为基础框架。",
        "descMd": "",
        "envelopePic": "http://wanandroid.com/resources/image/pc/default_project_img.jpg",
        "fresh": false,
        "host": "",
        "id": 7366,
        "isAdminAdd": false,
        "link": "https://www.wanandroid.com/blog/show/2392",
        "niceDate": "2018-10-18 18:43",
        "niceShareDate": "未知时间",
        "origin": "",
        "prefix": "",
        "projectLink": "https://github.com/zhongxiong00/SimpleProject",
        "publishTime": 1539859418000,
        "realSuperChapterId": 293,
        "selfVisible": 0,
        "shareDate": null,
        "shareUser": "",
        "superChapterId": 294,
        "superChapterName": "开源项目主Tab",
        "tags": [
          {
            "name": "项目",
            "url": "/project/list/1?cid=385"
          }
        ],
        "title": "基于Mvp的通用项目框架",
        "type": 0,
        "userId": -1,
        "visible": 0,
        "zan": 0
      },
      {
        "adminAdd": false,
        "apkLink": "",
        "audit": 1,
        "author": "pengMaster",
        "canEdit": false,
        "chapterId": 385,
        "chapterName": "架构",
        "collect": false,
        "courseId": 13,
        "desc": "本项目是基于kotlin + Mvp + Rxjava + Retrofit 封装的轻量级模板项目。项目没有过多冗余的依赖， 适用于快速开发以及新手练手。",
        "descMd": "",
        "envelopePic": "http://wanandroid.com/resources/image/pc/default_project_img.jpg",
        "fresh": false,
        "host": "",
        "id": 3454,
        "isAdminAdd": false,
        "link": "https://www.wanandroid.com/blog/show/2383",
        "niceDate": "2018-10-06 15:52",
        "niceShareDate": "未知时间",
        "origin": "",
        "prefix": "",
        "projectLink": "https://github.com/pengMaster/Kotlin_Mvp_Template",
        "publishTime": 1538812331000,
        "realSuperChapterId": 293,
        "selfVisible": 0,
        "shareDate": null,
        "shareUser": "",
        "superChapterId": 294,
        "superChapterName": "开源项目主Tab",
        "tags": [
          {
            "name": "项目",
            "url": "/project/list/1?cid=385"
          }
        ],
        "title": "轻量级kotlin + Mvp + Rxjava + Retrofit框架",
        "type": 0,
        "userId": -1,
        "visible": 1,
        "zan": 0
      }
    ],
    "offset": 0,
    "over": false,
    "pageCount": 3,
    "size": 15,
    "total": 31
  },
  "errorCode": 0,
  "errorMsg": ""
}